(footprint "Diodes_SOT-553" (version 20221018) (generator pcbnew)
  (layer "F.Cu")
  (descr "Diodes SOT-553, https://www.diodes.com/assets/Package-Files/SOT553.pdf")
  (tags "SOT-553")
  (attr smd)
  (fp_text reference "REF**" (at 0 -2) (layer "F.SilkS")
      (effects (font (size 1 1) (thickness 0.15)))
    (tstamp 388290ab-7875-4f78-9268-f474c887f10e)
  )
  (fp_text value "Diodes_SOT-553" (at 0 2) (layer "F.Fab")
      (effects (font (size 1 1) (thickness 0.15)))
    (tstamp 676d1360-c7b1-4c4a-944a-f860862d3abc)
  )
  (fp_text user "${REFERENCE}" (at 0 0 90) (layer "F.Fab")
      (effects (font (size 0.4 0.4) (thickness 0.0625)))
    (tstamp 77336310-21a1-47cf-a76d-d562a4c07c18)
  )
  (fp_line (start -1 -0.9) (end 0.625 -0.9)
    (stroke (width 0.12) (type solid)) (layer "F.SilkS") (tstamp 48a432f4-03a3-4d64-8fdf-3e91917fca9e))
  (fp_line (start 0.625 0.9) (end -0.625 0.9)
    (stroke (width 0.12) (type solid)) (layer "F.SilkS") (tstamp 55f636d3-59a0-4eb5-8d4a-83f882d59b7a))
  (fp_line (start -1.35 -1.1) (end -1.35 1.1)
    (stroke (width 0.05) (type solid)) (layer "F.CrtYd") (tstamp 796771f7-dd6b-4a4f-ad8d-3c8240597a9b))
  (fp_line (start -1.35 -1.1) (end 1.35 -1.1)
    (stroke (width 0.05) (type solid)) (layer "F.CrtYd") (tstamp 77f321ab-d9c9-4514-bab6-3d2f6e777bb6))
  (fp_line (start 1.35 1.1) (end -1.35 1.1)
    (stroke (width 0.05) (type solid)) (layer "F.CrtYd") (tstamp ebe6d40f-3bc9-46b7-9c97-b332a7d8b06f))
  (fp_line (start 1.35 1.1) (end 1.35 -1.1)
    (stroke (width 0.05) (type solid)) (layer "F.CrtYd") (tstamp 3261d66d-5b79-4040-8f21-bb7afdcbd155))
  (fp_line (start -0.625 -0.5) (end -0.625 0.85)
    (stroke (width 0.1) (type solid)) (layer "F.Fab") (tstamp f70b8b4b-0c51-4c22-83e2-e7386e24742e))
  (fp_line (start -0.625 -0.5) (end -0.275 -0.85)
    (stroke (width 0.1) (type solid)) (layer "F.Fab") (tstamp 27a730bf-e894-42c4-94da-f46096b88709))
  (fp_line (start -0.625 0.85) (end 0.625 0.85)
    (stroke (width 0.1) (type solid)) (layer "F.Fab") (tstamp c7487e6a-62c1-43bf-95ac-d6b328b8b295))
  (fp_line (start 0.625 -0.85) (end -0.25 -0.85)
    (stroke (width 0.1) (type solid)) (layer "F.Fab") (tstamp 07fea0ba-55bb-46a6-a14f-a6b787037f79))
  (fp_line (start 0.625 0.85) (end 0.625 -0.85)
    (stroke (width 0.1) (type solid)) (layer "F.Fab") (tstamp 562ff396-85b1-4810-8beb-c6f31b19bcb0))
  (pad "1" smd roundrect (at -0.85 -0.5) (size 0.5 0.375) (layers "F.Cu" "F.Paste" "F.Mask") (roundrect_rratio 0.25) (tstamp d41e409b-ddf1-4c45-98dd-d11929596a9e))
  (pad "2" smd roundrect (at -0.85 0) (size 0.5 0.375) (layers "F.Cu" "F.Paste" "F.Mask") (roundrect_rratio 0.25) (tstamp ac9700f6-5a7f-4fcd-ad96-e57e1fe61764))
  (pad "3" smd roundrect (at -0.85 0.5) (size 0.5 0.375) (layers "F.Cu" "F.Paste" "F.Mask") (roundrect_rratio 0.25) (tstamp 44a193d3-6e84-4976-9691-3f296d588289))
  (pad "4" smd roundrect (at 0.85 0.5) (size 0.5 0.375) (layers "F.Cu" "F.Paste" "F.Mask") (roundrect_rratio 0.25) (tstamp 7c63d3ad-acd1-41e7-a9cb-6e5754aad37c))
  (pad "5" smd roundrect (at 0.85 -0.5) (size 0.5 0.375) (layers "F.Cu" "F.Paste" "F.Mask") (roundrect_rratio 0.25) (tstamp 81c122b6-d686-4f1b-a2df-c8a16a414fff))
  (model "${KICAD6_3DMODEL_DIR}/Package_TO_SOT_SMD.3dshapes/Diodes_SOT-553.wrl"
    (offset (xyz 0 0 0))
    (scale (xyz 1 1 1))
    (rotate (xyz 0 0 0))
  )
)
