(footprint "Infineon_PG-HSOF-8-3" (version 20221018) (generator pcbnew)
  (layer "F.Cu")
  (descr "HSOF-8-3 power MOSFET (http://www.infineon.com/cms/en/product/packages/PG-HSOF/PG-HSOF-8-3/)")
  (tags "mosfet hsof")
  (solder_paste_margin -0.05)
  (attr smd)
  (fp_text reference "REF**" (at 0 -6) (layer "F.SilkS")
      (effects (font (size 1 1) (thickness 0.15)))
    (tstamp ee9ec734-1243-454d-ad0f-c537da7f5880)
  )
  (fp_text value "Infineon_PG-HSOF-8-3" (at 0 6) (layer "F.Fab")
      (effects (font (size 1 1) (thickness 0.15)))
    (tstamp 61806b97-1311-4ebf-bd62-a5327991658d)
  )
  (fp_text user "${REFERENCE}" (at 0 0) (layer "F.Fab")
      (effects (font (size 1 1) (thickness 0.15)))
    (tstamp aa0158ff-7184-4c3c-8728-a77ce2ae8840)
  )
  (fp_line (start -5.2 5.06) (end 4.755 5.06)
    (stroke (width 0.12) (type solid)) (layer "F.SilkS") (tstamp 0bf40224-afdf-4b56-8ead-3b7691beb757))
  (fp_line (start 4.755 -5.06) (end -6.33 -5.06)
    (stroke (width 0.12) (type solid)) (layer "F.SilkS") (tstamp c852ee66-7dfe-4fbc-9002-bd06c418d828))
  (fp_line (start -6.64 5.25) (end -6.64 -5.25)
    (stroke (width 0.05) (type solid)) (layer "F.CrtYd") (tstamp 0e6b87ac-7a71-45c2-a115-e8f0ee9a2f15))
  (fp_line (start -6.64 5.25) (end 6.64 5.25)
    (stroke (width 0.05) (type solid)) (layer "F.CrtYd") (tstamp 18829270-aaaa-4b75-afc4-9c18313652ea))
  (fp_line (start 6.64 -5.25) (end -6.64 -5.25)
    (stroke (width 0.05) (type solid)) (layer "F.CrtYd") (tstamp acec2723-fbae-45e3-a191-2942ed741c8e))
  (fp_line (start 6.64 -5.25) (end 6.64 5.25)
    (stroke (width 0.05) (type solid)) (layer "F.CrtYd") (tstamp c8bc5d3d-7f3b-45d5-8ef2-ccfce6b76782))
  (fp_line (start -5.1875 4.95) (end -5.1875 -3.95)
    (stroke (width 0.1) (type solid)) (layer "F.Fab") (tstamp ff7a3545-07dd-4fac-8201-3a77f8aadd65))
  (fp_line (start -4.1875 -4.95) (end -5.1875 -3.95)
    (stroke (width 0.1) (type solid)) (layer "F.Fab") (tstamp 02cbe253-20ea-438d-852d-7e7963a0d42a))
  (fp_line (start -4.1875 -4.95) (end 5.1875 -4.95)
    (stroke (width 0.1) (type solid)) (layer "F.Fab") (tstamp 79f4d15b-20e7-4bb5-bcad-7316cffc66f3))
  (fp_line (start 5.1875 -4.95) (end 5.1875 4.95)
    (stroke (width 0.1) (type solid)) (layer "F.Fab") (tstamp 7949ff63-2292-4b35-b4fd-b043785897da))
  (fp_line (start 5.1875 4.95) (end -5.1875 4.95)
    (stroke (width 0.1) (type solid)) (layer "F.Fab") (tstamp d3ac9f1c-cadb-435c-8ea0-64162b0cde66))
  (pad "" smd rect (at -5.44 -4.2) (size 1.8 0.8) (layers "F.Paste") (tstamp 68040918-237e-412d-8a44-d956b3610ed6))
  (pad "" smd rect (at -5.44 -3) (size 1.8 0.8) (layers "F.Paste") (tstamp 6f7cbeb8-b388-4034-a0d3-11ae963930de))
  (pad "" smd rect (at -5.44 -1.8) (size 1.8 0.8) (layers "F.Paste") (tstamp 0b2d001e-422b-4804-9384-fd4ab3e4950c))
  (pad "" smd rect (at -5.44 -0.6) (size 1.8 0.8) (layers "F.Paste") (tstamp abb1c0ba-a135-4ad7-9d04-0f6f8d1ec21c))
  (pad "" smd rect (at -5.44 0.6) (size 1.8 0.8) (layers "F.Paste") (tstamp d84c026f-b3ff-45e1-94a3-ea83e691f39b))
  (pad "" smd rect (at -5.44 1.8) (size 1.8 0.8) (layers "F.Paste") (tstamp 58fe0091-c8cc-44a9-821b-2434ccb64b76))
  (pad "" smd rect (at -3.6 -2.25) (size 0.8 4.1) (layers "F.Paste") (tstamp c97ef1ae-663f-402a-a475-7d57d399c18a))
  (pad "" smd rect (at -3.6 1.15) (size 0.8 1.9) (layers "F.Paste") (tstamp 5825a546-ae87-485e-9305-140186ba4051))
  (pad "" smd rect (at -2.4 -2.25) (size 0.8 4.1) (layers "F.Paste") (tstamp 569e47e7-549c-418e-85af-d4cd9818a1cc))
  (pad "" smd rect (at -2.4 2.25) (size 0.8 4.1) (layers "F.Paste") (tstamp a15a007e-139a-434e-9715-50d8f9642f28))
  (pad "" smd rect (at -1.2 -2.25) (size 0.8 4.1) (layers "F.Paste") (tstamp 6c92b53c-4c60-4d46-8cc0-7337791333a2))
  (pad "" smd rect (at -1.2 2.25) (size 0.8 4.1) (layers "F.Paste") (tstamp d03698d6-7822-43b3-9e78-93f5f184c2fd))
  (pad "" smd rect (at 0 -2.45) (size 0.8 4.5) (layers "F.Paste") (tstamp 7e7a1787-9699-427f-a9b8-a669fbabde17))
  (pad "" smd rect (at 0 2.45) (size 0.8 4.5) (layers "F.Paste") (tstamp 1b52f56d-7f6c-41d7-a5c1-939277532a2f))
  (pad "" smd rect (at 1.26 -2.45) (size 0.8 4.5) (layers "F.Paste") (tstamp d420227e-cd0a-4080-974e-0ce0b0b3fed9))
  (pad "" smd rect (at 1.26 2.45) (size 0.8 4.5) (layers "F.Paste") (tstamp ba2af51a-aef3-445c-a060-7e0611ce6f5a))
  (pad "" smd rect (at 5.65 -4) (size 1.35 1.5) (layers "F.Paste") (tstamp 8caa466e-b63d-451b-92d5-38d9a70bcf92))
  (pad "" smd rect (at 5.65 4) (size 1.35 1.5) (layers "F.Paste") (tstamp 6cd3ae12-2dea-420c-bdb2-219299653a0a))
  (pad "" smd rect (at 5.66 -2) (size 1.35 1.5) (layers "F.Paste") (tstamp 50b70595-e6fe-40b5-99fd-07b6a0319b67))
  (pad "" smd rect (at 5.66 0) (size 1.35 1.5) (layers "F.Paste") (tstamp b853e46b-6049-4660-8021-35d6ff33547d))
  (pad "" smd rect (at 5.66 2) (size 1.35 1.5) (layers "F.Paste") (tstamp 21fd46e6-328b-4144-9647-000143241ab0))
  (pad "1" smd custom (at 0.385 0) (size 2.85 9.6) (layers "F.Cu" "F.Mask")
    (zone_connect 2) (thermal_bridge_angle 45)
    (options (clearance outline) (anchor rect))
    (primitives
      (gr_poly
        (pts
          (xy -4.775 -4.4)
          (xy -1.425 -4.4)
          (xy -1.425 4.4)
          (xy -3.625 4.4)
          (xy -3.625 2.2)
          (xy -6.775 2.2)
          (xy -6.775 1.4)
          (xy -5.075 1.4)
          (xy -5.075 1)
          (xy -6.775 1)
          (xy -6.775 0.2)
          (xy -5.075 0.2)
          (xy -5.075 -0.2)
          (xy -6.775 -0.2)
          (xy -6.775 -1)
          (xy -5.075 -1)
          (xy -5.075 -1.4)
          (xy -6.775 -1.4)
          (xy -6.775 -2.2)
          (xy -5.075 -2.2)
          (xy -5.075 -2.6)
          (xy -6.775 -2.6)
          (xy -6.775 -3.4)
          (xy -5.075 -3.4)
          (xy -5.075 -3.8)
          (xy -6.775 -3.8)
          (xy -6.775 -4.6)
          (xy -4.775 -4.6)
        )
        (width 0) (fill yes))
    ) (tstamp 292a6d59-16ed-4bce-83a6-a413b7665fa2))
  (pad "2" smd rect (at -5.64 3) (size 1.5 0.8) (layers "F.Cu" "F.Paste" "F.Mask") (tstamp 688aeea7-16c3-4624-8b50-c69db650ae76))
  (pad "3" smd rect (at -5.65 4.2) (size 1.5 0.8) (layers "F.Cu" "F.Paste" "F.Mask") (tstamp 7c73ff02-fe4a-4306-8400-74e824bbe56f))
  (pad "4" smd rect (at 5.66 0) (size 1.45 10) (layers "F.Cu" "F.Mask") (tstamp b1ee71a2-42aa-4fba-bfd5-7edfab88580c))
  (model "${KICAD6_3DMODEL_DIR}/Package_TO_SOT_SMD.3dshapes/Infineon_PG-HSOF-8-3.wrl"
    (offset (xyz 0 0 0))
    (scale (xyz 1 1 1))
    (rotate (xyz 0 0 0))
  )
)
