(footprint "LFPAK56" (version 20221018) (generator pcbnew)
  (layer "F.Cu")
  (descr "LFPAK56 https://assets.nexperia.com/documents/outline-drawing/SOT669.pdf")
  (tags "LFPAK56 SOT-669 Power-SO8")
  (solder_mask_margin 0.075)
  (solder_paste_margin -0.05)
  (attr smd)
  (fp_text reference "REF**" (at -0.08 -3.48) (layer "F.SilkS")
      (effects (font (size 1 1) (thickness 0.15)))
    (tstamp 7f5f7757-6aee-454e-93d3-8f4c4c2fb8e2)
  )
  (fp_text value "LFPAK56" (at -0.245 3.52) (layer "F.Fab")
      (effects (font (size 1 1) (thickness 0.15)))
    (tstamp 74542b8f-8ee9-4e77-9af0-29dd82032a29)
  )
  (fp_text user "${REFERENCE}" (at 0.165 0 90) (layer "F.Fab")
      (effects (font (size 1 1) (thickness 0.15)))
    (tstamp 4c36f56a-c9f0-4089-a78d-ca712b56d29c)
  )
  (fp_line (start -2.15 -2.6) (end -2.15 -2.4)
    (stroke (width 0.12) (type solid)) (layer "F.SilkS") (tstamp 16233428-f2c1-46c3-976b-fc6f5cd35c73))
  (fp_line (start -2.15 2.4) (end -2.15 2.6)
    (stroke (width 0.12) (type solid)) (layer "F.SilkS") (tstamp 9167f67d-e346-4d90-aa84-148cb52fc47a))
  (fp_line (start -2.15 2.6) (end 2.15 2.6)
    (stroke (width 0.12) (type solid)) (layer "F.SilkS") (tstamp 39152451-f512-4665-8ac3-31081fb15868))
  (fp_line (start 2.15 -2.6) (end -2.15 -2.6)
    (stroke (width 0.12) (type solid)) (layer "F.SilkS") (tstamp 502ded3f-96e1-4f8d-97a2-f8e01a5a36be))
  (fp_line (start 2.15 -2.45) (end 2.15 -2.6)
    (stroke (width 0.12) (type solid)) (layer "F.SilkS") (tstamp 0f2504ec-8ff9-4d03-a256-ba918444c4bf))
  (fp_line (start 2.15 2.6) (end 2.15 2.45)
    (stroke (width 0.12) (type solid)) (layer "F.SilkS") (tstamp ad025dfb-62b7-45d2-9ce7-9453bdf53336))
  (fp_line (start -3.505 2.75) (end -3.505 -2.75)
    (stroke (width 0.05) (type solid)) (layer "F.CrtYd") (tstamp 2a874ba5-e1c8-4240-bb8f-2b0379fdfefe))
  (fp_line (start -3.505 2.75) (end 3.835 2.75)
    (stroke (width 0.05) (type solid)) (layer "F.CrtYd") (tstamp 5614e7ac-0b24-4c32-8f3e-1391b2ace68f))
  (fp_line (start 3.835 -2.75) (end -3.505 -2.75)
    (stroke (width 0.05) (type solid)) (layer "F.CrtYd") (tstamp 02dc2b10-295e-40d3-9746-21d88f1c071e))
  (fp_line (start 3.835 -2.75) (end 3.835 2.75)
    (stroke (width 0.05) (type solid)) (layer "F.CrtYd") (tstamp 26f99fc9-3d4a-4e5e-98eb-108c9d830d29))
  (fp_line (start -3.05 -2.15) (end -3.05 -1.65)
    (stroke (width 0.1) (type solid)) (layer "F.Fab") (tstamp c9e4b11c-a3e7-4e81-b252-143a0040806e))
  (fp_line (start -3.05 -2.15) (end -2.05 -2.15)
    (stroke (width 0.1) (type solid)) (layer "F.Fab") (tstamp 2d3f2a62-e6d1-4060-8089-38f613477e63))
  (fp_line (start -3.05 -1.65) (end -2.05 -1.65)
    (stroke (width 0.1) (type solid)) (layer "F.Fab") (tstamp 843d8a8b-11b9-44a7-abea-94b19ad288bd))
  (fp_line (start -3.05 -0.85) (end -3.05 -0.4)
    (stroke (width 0.1) (type solid)) (layer "F.Fab") (tstamp fdbe60ce-f029-42ce-b945-11f816fe43c8))
  (fp_line (start -3.05 -0.4) (end -2.05 -0.4)
    (stroke (width 0.1) (type solid)) (layer "F.Fab") (tstamp 070fcdac-2d49-4a97-840e-f2333bed67e0))
  (fp_line (start -3.05 0.4) (end -3.05 0.85)
    (stroke (width 0.1) (type solid)) (layer "F.Fab") (tstamp 1a1da755-e788-4fdd-8f2b-ee156bff0327))
  (fp_line (start -3.05 0.85) (end -2.05 0.85)
    (stroke (width 0.1) (type solid)) (layer "F.Fab") (tstamp 649721de-7ce8-4467-965e-147780c2c509))
  (fp_line (start -3.05 1.7) (end -3.05 2.15)
    (stroke (width 0.1) (type solid)) (layer "F.Fab") (tstamp ef169667-a5ae-4999-933a-086b0d942b95))
  (fp_line (start -3.05 2.15) (end -2.05 2.15)
    (stroke (width 0.1) (type solid)) (layer "F.Fab") (tstamp 1797e75c-709a-4396-8f29-91338a1b6c82))
  (fp_line (start -2.05 -2.5) (end -2.05 2.5)
    (stroke (width 0.1) (type solid)) (layer "F.Fab") (tstamp 144fe17f-4a59-4441-9403-e9a2e7a9f265))
  (fp_line (start -2.05 -0.85) (end -3.05 -0.85)
    (stroke (width 0.1) (type solid)) (layer "F.Fab") (tstamp 6613e7ce-81db-4894-b830-4fde9b86ebd5))
  (fp_line (start -2.05 0.4) (end -3.05 0.4)
    (stroke (width 0.1) (type solid)) (layer "F.Fab") (tstamp 9de15736-6e61-438d-9a6d-f48e7e6a13bb))
  (fp_line (start -2.05 1.7) (end -3.05 1.7)
    (stroke (width 0.1) (type solid)) (layer "F.Fab") (tstamp 61be4817-a7dd-4c40-8660-927e6829db9f))
  (fp_line (start -2.05 2.5) (end 2.05 2.5)
    (stroke (width 0.1) (type solid)) (layer "F.Fab") (tstamp b3933d4d-2b7b-4647-9070-19cd32f76634))
  (fp_line (start 2.05 -2.5) (end -2.05 -2.5)
    (stroke (width 0.1) (type solid)) (layer "F.Fab") (tstamp 58631c76-bf7c-4f54-9008-2d37070c5373))
  (fp_line (start 2.05 2.5) (end 2.05 -2.5)
    (stroke (width 0.1) (type solid)) (layer "F.Fab") (tstamp 62d1faa8-8cc2-4143-84c4-f011d52045ab))
  (fp_line (start 3.35 -2.2) (end 2.05 -2.2)
    (stroke (width 0.1) (type solid)) (layer "F.Fab") (tstamp 85cb1ca1-72d2-4be6-9350-eb1d6d511d0f))
  (fp_line (start 3.35 -2.2) (end 3.35 2.2)
    (stroke (width 0.1) (type solid)) (layer "F.Fab") (tstamp c07a4325-6561-4c63-9e6a-3999de16147b))
  (fp_line (start 3.35 2.2) (end 2.05 2.2)
    (stroke (width 0.1) (type solid)) (layer "F.Fab") (tstamp d3c26952-1743-4929-9496-74be56d91742))
  (pad "" smd rect (at -0.5 -1.15) (size 0.6 0.9) (layers "F.Paste") (tstamp 3ece6bac-6009-4f26-a6d8-e8280a26ba99))
  (pad "" smd rect (at -0.5 0) (size 0.6 0.9) (layers "F.Paste") (tstamp ca6f3746-9e3d-4166-8dd1-418653d2da58))
  (pad "" smd rect (at -0.5 1.15) (size 0.6 0.9) (layers "F.Paste") (tstamp 14bbfbe9-4629-4020-9a39-57748d728291))
  (pad "" smd rect (at 0.35 -1.15) (size 0.6 0.9) (layers "F.Paste") (tstamp dc425cb0-43b0-43a1-ac07-300293ceef24))
  (pad "" smd rect (at 0.35 0) (size 0.6 0.9) (layers "F.Paste") (tstamp 388488bd-085d-4d50-993d-78ce453d9cdf))
  (pad "" smd rect (at 0.35 1.15) (size 0.6 0.9) (layers "F.Paste") (tstamp 285481a3-5872-473b-8899-5ea2c7c67d87))
  (pad "" smd rect (at 1.2 -1.15) (size 0.6 0.9) (layers "F.Paste") (tstamp 31a63684-4e4c-411f-9717-fcb9a7ae3789))
  (pad "" smd rect (at 1.2 0) (size 0.6 0.9) (layers "F.Paste") (tstamp a5c4df97-f378-402d-b27f-1c970ca5fb2b))
  (pad "" smd rect (at 1.2 1.15) (size 0.6 0.9) (layers "F.Paste") (tstamp d8e28bf1-a7e4-4c97-993b-13da5b832621))
  (pad "" smd rect (at 3.05 -1.88 270) (size 0.6 0.9) (layers "F.Paste") (tstamp de39e4f0-39b5-4ee1-96c2-df67e8f7600a))
  (pad "" smd rect (at 3.05 -0.6 270) (size 0.6 0.9) (layers "F.Paste") (tstamp 6ab82c92-fef3-49ff-9e0e-162a9b45bc20))
  (pad "" smd rect (at 3.05 0.6 270) (size 0.6 0.9) (layers "F.Paste") (tstamp 3b531d6f-a9d5-4f24-a891-c3eff69ea4b6))
  (pad "" smd rect (at 3.05 1.88 270) (size 0.6 0.9) (layers "F.Paste") (tstamp 0c5c58d5-6aa0-42fb-9ba4-5fe5b08f0577))
  (pad "1" smd rect (at -2.67 -1.91 270) (size 0.7 1.15) (layers "F.Cu" "F.Paste" "F.Mask")
    (solder_mask_margin 0.07) (solder_paste_margin -0.05) (tstamp ef7ed02e-99b1-4618-adbc-77c7c42fb948))
  (pad "2" smd rect (at -2.67 -0.64 270) (size 0.7 1.15) (layers "F.Cu" "F.Paste" "F.Mask")
    (solder_mask_margin 0.07) (solder_paste_margin -0.05) (tstamp b4870366-11e6-46fc-be80-1b8242417744))
  (pad "3" smd rect (at -2.67 0.64 270) (size 0.7 1.15) (layers "F.Cu" "F.Paste" "F.Mask")
    (solder_mask_margin 0.07) (solder_paste_margin -0.05) (tstamp fa267987-8f61-4ef0-b5fc-eda056c53ce8))
  (pad "4" smd rect (at -2.67 1.91 270) (size 0.7 1.15) (layers "F.Cu" "F.Paste" "F.Mask")
    (solder_mask_margin 0.07) (solder_paste_margin -0.05) (tstamp 4c4fb0fe-ef59-4871-ba5a-990f475bbd16))
  (pad "5" smd custom (at 0.6 0) (size 3.3 4.2) (layers "F.Cu" "F.Mask")
    (solder_mask_margin 0.07) (zone_connect 2) (thermal_bridge_angle 45)
    (options (clearance outline) (anchor rect))
    (primitives
      (gr_poly
        (pts
          (xy 2.975 2.35)
          (xy 1.425 2.35)
          (xy 1.425 -2.35)
          (xy 2.975 -2.35)
        )
        (width 0) (fill yes))
    ) (tstamp c08066e5-5e89-408e-82b3-bf22cb63e126))
  (model "${KICAD6_3DMODEL_DIR}/Package_TO_SOT_SMD.3dshapes/LFPAK56.wrl"
    (offset (xyz 0 0 0))
    (scale (xyz 1 1 1))
    (rotate (xyz 0 0 0))
  )
)
