(footprint "SC-82AA_Handsoldering" (version 20221018) (generator pcbnew)
  (layer "F.Cu")
  (descr "SC-82AA")
  (tags "SC-82AA")
  (attr smd)
  (fp_text reference "REF**" (at 0 -2) (layer "F.SilkS")
      (effects (font (size 1 1) (thickness 0.15)))
    (tstamp 19c3d540-319c-4625-81b2-a57779d38b0d)
  )
  (fp_text value "SC-82AA_Handsoldering" (at 0 2) (layer "F.Fab")
      (effects (font (size 1 1) (thickness 0.15)))
    (tstamp d51764a9-a6ce-45ce-b948-267d4b4481a2)
  )
  (fp_text user "${REFERENCE}" (at 0 0 90) (layer "F.Fab")
      (effects (font (size 0.5 0.5) (thickness 0.075)))
    (tstamp 3f1d3dc2-4b80-4f64-83eb-f0e974e875ec)
  )
  (fp_line (start -0.7 1.16) (end 0.7 1.16)
    (stroke (width 0.12) (type solid)) (layer "F.SilkS") (tstamp 7aba9403-0113-40de-a768-e7c4befab5ea))
  (fp_line (start 0.7 -1.16) (end -1.2 -1.16)
    (stroke (width 0.12) (type solid)) (layer "F.SilkS") (tstamp 36b2df2b-b4a4-49bf-b08c-ec0cb9776919))
  (fp_line (start -2.2 -1.4) (end -2.2 1.4)
    (stroke (width 0.05) (type solid)) (layer "F.CrtYd") (tstamp 45abe43b-8443-4eba-852f-39e546bd19f8))
  (fp_line (start -2.2 -1.4) (end 2.2 -1.4)
    (stroke (width 0.05) (type solid)) (layer "F.CrtYd") (tstamp eae4b549-09e4-498d-a542-5fcde3e49b7f))
  (fp_line (start -2.2 1.4) (end 2.2 1.4)
    (stroke (width 0.05) (type solid)) (layer "F.CrtYd") (tstamp 1f1f9eb8-01ef-433e-a177-f3921911086f))
  (fp_line (start 2.2 1.4) (end 2.2 -1.4)
    (stroke (width 0.05) (type solid)) (layer "F.CrtYd") (tstamp 8c11ed92-b2f7-403a-87ac-d2b37a4bf203))
  (fp_line (start -0.675 -0.6) (end -0.675 1.1)
    (stroke (width 0.1) (type solid)) (layer "F.Fab") (tstamp 2fa8c7e2-c0bd-4474-987c-c1ae6b749910))
  (fp_line (start -0.175 -1.1) (end -0.675 -0.6)
    (stroke (width 0.1) (type solid)) (layer "F.Fab") (tstamp f4e20336-05a3-43c3-aac9-857dd31c5dd9))
  (fp_line (start 0.675 -1.1) (end -0.175 -1.1)
    (stroke (width 0.1) (type solid)) (layer "F.Fab") (tstamp 4b96ffc4-d8b0-4901-911f-3d2a644e36c8))
  (fp_line (start 0.675 -1.1) (end 0.675 1.1)
    (stroke (width 0.1) (type solid)) (layer "F.Fab") (tstamp 3cc30910-70c6-470e-97da-d767127fd02f))
  (fp_line (start 0.675 1.1) (end -0.675 1.1)
    (stroke (width 0.1) (type solid)) (layer "F.Fab") (tstamp 95370ec1-5329-4f9d-a098-4bceea4bbc73))
  (pad "1" smd rect (at -1.2 -0.65) (size 1.5 0.4) (layers "F.Cu" "F.Paste" "F.Mask") (tstamp 7dd5bcd9-215e-4aa1-a4dc-11c4e4522a20))
  (pad "2" smd rect (at -1.2 0.65) (size 1.5 0.5) (layers "F.Cu" "F.Paste" "F.Mask") (tstamp 2c9423de-d985-466c-80fa-0664fe262e64))
  (pad "3" smd rect (at 1.2 0.65) (size 1.5 0.4) (layers "F.Cu" "F.Paste" "F.Mask") (tstamp 878f54a8-8c0c-4486-9fd4-7b30c1ef8895))
  (pad "4" smd rect (at 1.2 -0.65) (size 1.5 0.4) (layers "F.Cu" "F.Paste" "F.Mask") (tstamp b6cd0740-f464-43de-ac32-4af5f2f8592a))
  (model "${KICAD6_3DMODEL_DIR}/Package_TO_SOT_SMD.3dshapes/SC-82AA.wrl"
    (offset (xyz 0 0 0))
    (scale (xyz 1 1 1))
    (rotate (xyz 0 0 0))
  )
)
