(footprint "SOT-143R" (version 20221018) (generator pcbnew)
  (layer "F.Cu")
  (descr "SOT-143R, reverse pinning, https://www.nxp.com/docs/en/package-information/SOT143R.pdf")
  (tags "SOT-143R Reverse")
  (attr smd)
  (fp_text reference "REF**" (at 0 -2.35) (layer "F.SilkS")
      (effects (font (size 1 1) (thickness 0.15)))
    (tstamp b84e5c3c-d5ba-45dc-a996-457d3d15ea34)
  )
  (fp_text value "SOT-143R" (at 0 2.45) (layer "F.Fab")
      (effects (font (size 1 1) (thickness 0.15)))
    (tstamp 9f9a1dc2-1e64-4561-84e9-c59e56eccfbe)
  )
  (fp_text user "${REFERENCE}" (at 0 0) (layer "F.Fab")
      (effects (font (size 0.5 0.5) (thickness 0.075)))
    (tstamp f886ffaf-1f6a-4587-bede-09aad32c7906)
  )
  (fp_line (start -1.56 -1.35) (end -1.56 0.65)
    (stroke (width 0.12) (type solid)) (layer "F.SilkS") (tstamp 4e6baf82-1448-4d68-8aef-496f449563d1))
  (fp_line (start 1.56 0.65) (end 1.56 -0.65)
    (stroke (width 0.12) (type solid)) (layer "F.SilkS") (tstamp 3bd73262-7ee1-4541-8298-a0d7411e1d75))
  (fp_line (start -1.7 -1.6) (end -1.7 1.6)
    (stroke (width 0.05) (type solid)) (layer "F.CrtYd") (tstamp 87a79b8f-2884-4c6d-9e08-6da03103a9bc))
  (fp_line (start -1.7 -1.6) (end 1.7 -1.6)
    (stroke (width 0.05) (type solid)) (layer "F.CrtYd") (tstamp 42b93640-dc22-413d-916b-9e4ab2755ea6))
  (fp_line (start 1.7 1.6) (end -1.7 1.6)
    (stroke (width 0.05) (type solid)) (layer "F.CrtYd") (tstamp 6ad02073-0558-42a4-92fa-4add44c180cf))
  (fp_line (start 1.7 1.6) (end 1.7 -1.6)
    (stroke (width 0.05) (type solid)) (layer "F.CrtYd") (tstamp bc8836f4-9951-4b33-96ef-07d16eafd9ac))
  (fp_line (start -1.45 -0.15) (end -1.45 0.65)
    (stroke (width 0.1) (type solid)) (layer "F.Fab") (tstamp e11a3537-54f2-4cd9-a01e-8d25f34fd41b))
  (fp_line (start -1.45 -0.15) (end -0.95 -0.65)
    (stroke (width 0.1) (type solid)) (layer "F.Fab") (tstamp c9b0f093-79f7-44a9-9a01-140d009dab54))
  (fp_line (start -0.95 -0.65) (end 1.45 -0.65)
    (stroke (width 0.1) (type solid)) (layer "F.Fab") (tstamp 440e56b8-e696-4feb-9521-3e1f16f39a02))
  (fp_line (start 1.45 -0.65) (end 1.45 0.65)
    (stroke (width 0.1) (type solid)) (layer "F.Fab") (tstamp f47c3c15-40d1-43fc-bdc9-d0d6b42f19ab))
  (fp_line (start 1.45 0.65) (end -1.45 0.65)
    (stroke (width 0.1) (type solid)) (layer "F.Fab") (tstamp 25b9bd59-5e1d-4f98-99d2-d7e767a14be0))
  (pad "1" smd rect (at -0.75 -1 270) (size 0.7 1) (layers "F.Cu" "F.Paste" "F.Mask") (tstamp 6a336e3f-79e9-4231-8ca2-38a798f05f9f))
  (pad "2" smd rect (at 0.95 -1 270) (size 0.7 0.6) (layers "F.Cu" "F.Paste" "F.Mask") (tstamp 3862ae54-0889-40d0-a519-841ecb949575))
  (pad "3" smd rect (at 0.95 1 270) (size 0.7 0.6) (layers "F.Cu" "F.Paste" "F.Mask") (tstamp 7cba27a8-b26c-4e33-ad8e-83f2f8589f1f))
  (pad "4" smd rect (at -0.95 1 270) (size 0.7 0.6) (layers "F.Cu" "F.Paste" "F.Mask") (tstamp 0be455d7-9219-470e-8eb0-7925a3f97f66))
  (model "${KICAD6_3DMODEL_DIR}/Package_TO_SOT_SMD.3dshapes/SOT-143R.wrl"
    (offset (xyz 0 0 0))
    (scale (xyz 1 1 1))
    (rotate (xyz 0 0 0))
  )
)
