(footprint "SOT-1123" (version 20221018) (generator pcbnew)
  (layer "F.Cu")
  (descr "SOT-1123 small outline transistor (see http://www.onsemi.com/pub/Collateral/NST3906F3-D.PDF)")
  (tags "SOT-1123 transistor")
  (attr smd)
  (fp_text reference "REF**" (at 0 -1.25) (layer "F.SilkS")
      (effects (font (size 1 1) (thickness 0.15)))
    (tstamp 189117a9-c3c2-458f-814f-2c8b9c87e47b)
  )
  (fp_text value "SOT-1123" (at 0 1.25) (layer "F.Fab")
      (effects (font (size 1 1) (thickness 0.15)))
    (tstamp d0d27277-e5cd-4616-840f-6e154317dc93)
  )
  (fp_text user "${REFERENCE}" (at 0 0) (layer "F.Fab")
      (effects (font (size 0.2 0.2) (thickness 0.05)))
    (tstamp c36fafaf-5c2f-4552-8253-0d881bbb07a2)
  )
  (fp_line (start -0.75 -0.44) (end -0.75 0.44)
    (stroke (width 0.1) (type solid)) (layer "F.SilkS") (tstamp 397dce29-7c24-48cf-a5bd-6bedac18d7d7))
  (fp_line (start -0.75 0.44) (end -0.25 0.44)
    (stroke (width 0.1) (type solid)) (layer "F.SilkS") (tstamp 3b63f9de-7e5a-4677-8ac2-7643cf44001d))
  (fp_line (start -0.25 -0.44) (end -0.75 -0.44)
    (stroke (width 0.1) (type solid)) (layer "F.SilkS") (tstamp 2c9b37b4-c42d-4b7c-9de0-58738a917699))
  (fp_line (start -0.85 -0.55) (end 0.85 -0.55)
    (stroke (width 0.05) (type solid)) (layer "F.CrtYd") (tstamp 9efe9500-81b8-4688-a83b-a6c34fe14929))
  (fp_line (start -0.85 0.55) (end -0.85 -0.55)
    (stroke (width 0.05) (type solid)) (layer "F.CrtYd") (tstamp 58e43163-0f80-4b2c-8caf-598b29ea118c))
  (fp_line (start 0.85 -0.55) (end 0.85 0.55)
    (stroke (width 0.05) (type solid)) (layer "F.CrtYd") (tstamp 0569db84-e88d-466f-af03-51e8761694fc))
  (fp_line (start 0.85 0.55) (end -0.85 0.55)
    (stroke (width 0.05) (type solid)) (layer "F.CrtYd") (tstamp 7f122708-8227-4937-9396-e22f67e8037b))
  (fp_line (start -0.4 -0.1) (end -0.4 0.3)
    (stroke (width 0.1) (type solid)) (layer "F.Fab") (tstamp b97e1625-9162-427c-ac12-3527811c4a2a))
  (fp_line (start -0.4 0.3) (end 0.4 0.3)
    (stroke (width 0.1) (type solid)) (layer "F.Fab") (tstamp bcf08f04-855d-40e4-b735-350d19bad0ab))
  (fp_line (start -0.2 -0.3) (end -0.4 -0.1)
    (stroke (width 0.1) (type solid)) (layer "F.Fab") (tstamp a581728e-6632-4320-926d-9863a8ed29f1))
  (fp_line (start 0.4 -0.3) (end -0.2 -0.3)
    (stroke (width 0.1) (type solid)) (layer "F.Fab") (tstamp e834fd22-2c26-480f-af0d-616172ca3dbe))
  (fp_line (start 0.4 0.3) (end 0.4 -0.3)
    (stroke (width 0.1) (type solid)) (layer "F.Fab") (tstamp 091226ad-5ca8-4e9e-99bb-001d469a61b1))
  (pad "1" smd roundrect (at -0.43 -0.19) (size 0.34 0.2) (layers "F.Cu" "F.Paste" "F.Mask") (roundrect_rratio 0.25) (tstamp 864b30d6-9fcd-4517-ad8e-9ca54b7e5c88))
  (pad "2" smd roundrect (at -0.43 0.19) (size 0.34 0.2) (layers "F.Cu" "F.Paste" "F.Mask") (roundrect_rratio 0.25) (tstamp 2daed678-4111-45ff-992c-63cd6080746f))
  (pad "3" smd roundrect (at 0.43 0) (size 0.34 0.26) (layers "F.Cu" "F.Paste" "F.Mask") (roundrect_rratio 0.25) (tstamp 31b55b4a-3dda-4a7e-bbb0-2309b3b8aca1))
  (model "${KICAD6_3DMODEL_DIR}/Package_TO_SOT_SMD.3dshapes/SOT-1123.wrl"
    (offset (xyz 0 0 0))
    (scale (xyz 1 1 1))
    (rotate (xyz 0 0 0))
  )
)
