(footprint "SuperSOT-8" (version 20221018) (generator pcbnew)
  (layer "F.Cu")
  (descr "8-pin SuperSOT package, http://www.icbank.com/icbank_data/semi_package/ssot8_dim.pdf")
  (tags "SuperSOT-8 SSOT-8")
  (attr smd)
  (fp_text reference "REF**" (at 0 -2.95) (layer "F.SilkS")
      (effects (font (size 1 1) (thickness 0.15)))
    (tstamp 02d55ca7-dec6-4df4-88c0-7375ebfad1c6)
  )
  (fp_text value "SuperSOT-8" (at 0 2.95) (layer "F.Fab")
      (effects (font (size 1 1) (thickness 0.15)))
    (tstamp 0581f30b-3c49-4a94-92d6-4b7f32ecbebc)
  )
  (fp_text user "${REFERENCE}" (at 0 0) (layer "F.Fab")
      (effects (font (size 0.5 0.5) (thickness 0.075)))
    (tstamp 9a55f6bb-a552-44d0-b312-817bc915d658)
  )
  (fp_line (start -2.65 -1.9) (end -1.8 -1.9)
    (stroke (width 0.12) (type solid)) (layer "F.SilkS") (tstamp 6f9a43fb-1b68-4f66-9d8b-8060dd3b49ad))
  (fp_line (start -1.8 -2.2) (end 1.65 -2.2)
    (stroke (width 0.12) (type solid)) (layer "F.SilkS") (tstamp c2ab0f45-f54f-4fc0-be6b-387865e99521))
  (fp_line (start -1.8 -1.9) (end -1.8 -2.2)
    (stroke (width 0.12) (type solid)) (layer "F.SilkS") (tstamp dc5bf795-a4c1-4214-80e6-2c2601affdb8))
  (fp_line (start 1.65 2.15) (end -1.65 2.15)
    (stroke (width 0.12) (type solid)) (layer "F.SilkS") (tstamp ae019558-2cbb-4824-986c-970dc4ab0fc1))
  (fp_line (start -2.95 -2.3) (end -2.95 2.3)
    (stroke (width 0.05) (type solid)) (layer "F.CrtYd") (tstamp ba1c347e-b8f8-42b9-9fb1-15a08972115c))
  (fp_line (start -2.95 -2.3) (end 2.95 -2.3)
    (stroke (width 0.05) (type solid)) (layer "F.CrtYd") (tstamp 7850a7dc-4778-42f9-8849-cdf2a94c8175))
  (fp_line (start 2.95 2.3) (end -2.95 2.3)
    (stroke (width 0.05) (type solid)) (layer "F.CrtYd") (tstamp b627c624-97b8-4966-8d6e-69c11b254058))
  (fp_line (start 2.95 2.3) (end 2.95 -2.3)
    (stroke (width 0.05) (type solid)) (layer "F.CrtYd") (tstamp 26597458-5d53-4df7-b024-29e69f9d7287))
  (fp_line (start -1.65 -1.4) (end -1 -2.05)
    (stroke (width 0.12) (type solid)) (layer "F.Fab") (tstamp 3da2c8dd-405d-491a-b901-717e09e7dbc7))
  (fp_line (start -1.65 2.05) (end -1.65 -1.4)
    (stroke (width 0.12) (type solid)) (layer "F.Fab") (tstamp 32d1eee9-2bdd-4359-84df-76955f40774c))
  (fp_line (start -1 -2.05) (end 1.65 -2.05)
    (stroke (width 0.12) (type solid)) (layer "F.Fab") (tstamp f3ee957f-53e9-453f-9198-1a68e69bd1ae))
  (fp_line (start 1.65 -2.05) (end 1.65 2.05)
    (stroke (width 0.12) (type solid)) (layer "F.Fab") (tstamp c3d70750-a9ad-4b86-8e26-50a33e143a83))
  (fp_line (start 1.65 2.05) (end -1.65 2.05)
    (stroke (width 0.12) (type solid)) (layer "F.Fab") (tstamp 096a8087-102b-4807-beca-fd296df92054))
  (pad "1" smd rect (at -2.2 -1.427) (size 1 0.7) (layers "F.Cu" "F.Paste" "F.Mask") (tstamp 392a4561-6f6c-4000-89d5-296744fa8d01))
  (pad "2" smd rect (at -2.2 -0.475) (size 1 0.7) (layers "F.Cu" "F.Paste" "F.Mask") (tstamp 6620a387-023a-4cc1-9c83-24bb0367d104))
  (pad "3" smd rect (at -2.2 0.475) (size 1 0.7) (layers "F.Cu" "F.Paste" "F.Mask") (tstamp 5c9e605f-8c89-42ee-bd25-d93ba79263aa))
  (pad "4" smd rect (at -2.2 1.427) (size 1 0.7) (layers "F.Cu" "F.Paste" "F.Mask") (tstamp 462f2003-a983-41a7-8fa6-e0ea749468e2))
  (pad "5" smd rect (at 2.2 1.427) (size 1 0.7) (layers "F.Cu" "F.Paste" "F.Mask") (tstamp 23c5a989-ab4d-4b1f-a6b7-56eaf395467e))
  (pad "6" smd rect (at 2.2 0.475) (size 1 0.7) (layers "F.Cu" "F.Paste" "F.Mask") (tstamp be4bc560-fc57-4d83-9449-4ee3ba931fe7))
  (pad "7" smd rect (at 2.2 -0.475) (size 1 0.7) (layers "F.Cu" "F.Paste" "F.Mask") (tstamp 02833c8c-a0cc-4cd6-8333-92b95cae416b))
  (pad "8" smd rect (at 2.2 -1.427) (size 1 0.7) (layers "F.Cu" "F.Paste" "F.Mask") (tstamp 891fcd30-7fc0-495b-9a40-36a4510d10bb))
  (model "${KICAD6_3DMODEL_DIR}/Package_TO_SOT_SMD.3dshapes/SuperSOT-8.wrl"
    (offset (xyz 0 0 0))
    (scale (xyz 1 1 1))
    (rotate (xyz 0 0 0))
  )
)
