(footprint "VSOF5" (version 20221018) (generator pcbnew)
  (layer "F.Cu")
  (descr "VSOF5")
  (tags "VSOF5")
  (attr smd)
  (fp_text reference "REF**" (at 0 -1.7) (layer "F.SilkS")
      (effects (font (size 1 1) (thickness 0.15)))
    (tstamp fc0a5c20-2e9b-490c-a903-6a46a298261d)
  )
  (fp_text value "VSOF5" (at -0.2 1.8) (layer "F.Fab")
      (effects (font (size 1 1) (thickness 0.15)))
    (tstamp 263a007d-6e06-45e8-8c50-aabeb1e2108b)
  )
  (fp_text user "${REFERENCE}" (at 0 0 90) (layer "F.Fab")
      (effects (font (size 0.4 0.4) (thickness 0.0625)))
    (tstamp f6f9c309-a2bb-403b-8c99-c1ef7f442dc9)
  )
  (fp_line (start -0.8 -0.95) (end 0.6 -0.95)
    (stroke (width 0.12) (type solid)) (layer "F.SilkS") (tstamp 60c5dfc9-b1ee-4c75-84cf-4650f7d66c78))
  (fp_line (start -0.6 0.95) (end 0.6 0.95)
    (stroke (width 0.12) (type solid)) (layer "F.SilkS") (tstamp 9ad69e81-be68-4e10-a070-81129d4d8fbc))
  (fp_line (start -1.05 -1.05) (end -1.05 1.05)
    (stroke (width 0.05) (type solid)) (layer "F.CrtYd") (tstamp bcc927b5-3846-4eab-b103-f2e9d0b3b5c9))
  (fp_line (start -1.05 -1.05) (end 1.06 -1.05)
    (stroke (width 0.05) (type solid)) (layer "F.CrtYd") (tstamp a110a761-3bd7-4f2e-ae0e-c2b33ce83473))
  (fp_line (start 1.06 1.05) (end -1.05 1.05)
    (stroke (width 0.05) (type solid)) (layer "F.CrtYd") (tstamp 92772ed0-07a2-4a36-8805-6f4e6eeb2fcd))
  (fp_line (start 1.06 1.05) (end 1.06 -1.05)
    (stroke (width 0.05) (type solid)) (layer "F.CrtYd") (tstamp 90c595f0-074e-4d25-a3ea-9efa45e066b3))
  (fp_line (start -0.6 -0.5) (end -0.3 -0.8)
    (stroke (width 0.1) (type solid)) (layer "F.Fab") (tstamp 62a59406-8846-4285-82fc-3baf30da63bb))
  (fp_line (start -0.6 0.8) (end -0.6 -0.5)
    (stroke (width 0.1) (type solid)) (layer "F.Fab") (tstamp 794dfc9b-6b07-407c-8ceb-24cb097632f8))
  (fp_line (start -0.3 -0.8) (end 0.6 -0.8)
    (stroke (width 0.1) (type solid)) (layer "F.Fab") (tstamp 07e45d4e-3a50-4fce-a6f3-69524abcb6fe))
  (fp_line (start 0.6 -0.8) (end 0.6 0.8)
    (stroke (width 0.1) (type solid)) (layer "F.Fab") (tstamp 4aeb1a12-6d41-4b32-bd7d-f0d8212e8c5c))
  (fp_line (start 0.6 0.8) (end -0.6 0.8)
    (stroke (width 0.1) (type solid)) (layer "F.Fab") (tstamp f388c9ce-7db7-45dc-9599-4c2b30fc0838))
  (pad "1" smd rect (at -0.68 -0.5 270) (size 0.25 0.35) (layers "F.Cu" "F.Paste" "F.Mask") (tstamp f64c3c8e-1a1d-47b3-b920-669a01189223))
  (pad "2" smd rect (at -0.68 0 270) (size 0.25 0.35) (layers "F.Cu" "F.Paste" "F.Mask") (tstamp ec034098-dd57-40ca-a62c-2944fddaa0ed))
  (pad "3" smd rect (at -0.68 0.5 270) (size 0.25 0.35) (layers "F.Cu" "F.Paste" "F.Mask") (tstamp 61518469-37b4-4192-96e8-a29652b53a3e))
  (pad "4" smd rect (at 0.68 0.5 270) (size 0.25 0.35) (layers "F.Cu" "F.Paste" "F.Mask") (tstamp 019cc35e-2633-4895-9b42-382f9e5c3afb))
  (pad "5" smd rect (at 0.68 -0.5 270) (size 0.25 0.35) (layers "F.Cu" "F.Paste" "F.Mask") (tstamp 37b93e80-0d8a-480c-bee9-c80a5934aa5c))
  (model "${KICAD6_3DMODEL_DIR}/Package_TO_SOT_SMD.3dshapes/VSOF5.wrl"
    (offset (xyz 0 0 0))
    (scale (xyz 1 1 1))
    (rotate (xyz 0 0 0))
  )
)
