(footprint "Infineon_PG-DSO-12-9_ThermalVias" (version 20221018) (generator pcbnew)
  (layer "F.Cu")
  (descr "Infineon PG-DSO 12 pin, exposed pad: 4.5x8.1mm, with thermal vias (https://www.infineon.com/cms/en/product/packages/PG-DSO/PG-DSO-12-9/)")
  (tags "PG-DSO")
  (attr smd)
  (fp_text reference "REF**" (at -3 -5.4) (layer "F.SilkS")
      (effects (font (size 1 1) (thickness 0.15)))
    (tstamp f69e968c-ab53-4d51-bf60-23f518cd28ca)
  )
  (fp_text value "Infineon_PG-DSO-12-9_ThermalVias" (at 0 6) (layer "F.Fab")
      (effects (font (size 1 1) (thickness 0.15)))
    (tstamp e93aa92a-a075-4e8c-ad18-818cbd88c77b)
  )
  (fp_text user "${REFERENCE}" (at 0 0) (layer "F.Fab")
      (effects (font (size 1 1) (thickness 0.15)))
    (tstamp 18b4c808-31de-4a1f-91e4-6a050b6ccfd5)
  )
  (fp_line (start -5.8 -3.35) (end -2.4 -3.35)
    (stroke (width 0.15) (type solid)) (layer "F.SilkS") (tstamp 967069e4-f8ab-4953-9ea8-a7da6a62b24d))
  (fp_line (start -3.9 3) (end -3.9 3.35)
    (stroke (width 0.15) (type solid)) (layer "F.SilkS") (tstamp 09559851-af21-41c0-8907-ba86df7ce694))
  (fp_line (start -3.9 3.35) (end -2.35 3.35)
    (stroke (width 0.15) (type solid)) (layer "F.SilkS") (tstamp f4177212-f09a-453f-bb57-67d647354eb2))
  (fp_line (start 3.9 -3.35) (end 2.35 -3.35)
    (stroke (width 0.15) (type solid)) (layer "F.SilkS") (tstamp 295b3a57-7461-433f-815e-96a7708ecf50))
  (fp_line (start 3.9 -3) (end 3.9 -3.35)
    (stroke (width 0.15) (type solid)) (layer "F.SilkS") (tstamp 017fe62a-44a3-4019-b77f-86139225ca7d))
  (fp_line (start 3.9 3) (end 3.9 3.35)
    (stroke (width 0.15) (type solid)) (layer "F.SilkS") (tstamp cb77d180-6b00-414a-83d5-aafcf3f33deb))
  (fp_line (start 3.9 3.35) (end 2.35 3.35)
    (stroke (width 0.15) (type solid)) (layer "F.SilkS") (tstamp e0d3ae57-42e1-418f-b72d-2d71b9b8a9c8))
  (fp_line (start -6.05 -4.3) (end 6.05 -4.3)
    (stroke (width 0.05) (type solid)) (layer "F.CrtYd") (tstamp 036e4290-7d4a-4f72-9613-a12b621bcd35))
  (fp_line (start -6.05 4.3) (end -6.05 -4.3)
    (stroke (width 0.05) (type solid)) (layer "F.CrtYd") (tstamp 349fb842-9712-4628-8e05-fdff996dca3e))
  (fp_line (start 6.05 -4.3) (end 6.05 4.3)
    (stroke (width 0.05) (type solid)) (layer "F.CrtYd") (tstamp ddeb0372-d593-4ae9-b6c9-c0a94778ff79))
  (fp_line (start 6.05 4.3) (end -6.05 4.3)
    (stroke (width 0.05) (type solid)) (layer "F.CrtYd") (tstamp cd9bd1af-32d4-44d9-badc-14bdfb683b89))
  (fp_line (start -3.75 3.2) (end -3.75 -2.2)
    (stroke (width 0.1) (type solid)) (layer "F.Fab") (tstamp e79d354d-cdeb-46be-bae6-d958a5863124))
  (fp_line (start -2.75 -3.2) (end -3.75 -2.2)
    (stroke (width 0.1) (type solid)) (layer "F.Fab") (tstamp ebc596d7-cb26-4258-aa25-088032a19924))
  (fp_line (start -2.75 -3.2) (end -0.9 -3.2)
    (stroke (width 0.1) (type solid)) (layer "F.Fab") (tstamp 3f4b8df2-8e63-4092-ae48-7eee8777443b))
  (fp_line (start -0.9 -3.9) (end 0.9 -3.9)
    (stroke (width 0.1) (type solid)) (layer "F.Fab") (tstamp 1178524b-638d-487e-8516-e65b1798a9c2))
  (fp_line (start -0.9 -3.2) (end -0.9 -3.9)
    (stroke (width 0.1) (type solid)) (layer "F.Fab") (tstamp d85475bd-ebac-4701-a1d7-e6ac3aac28b8))
  (fp_line (start -0.9 3.2) (end -3.75 3.2)
    (stroke (width 0.1) (type solid)) (layer "F.Fab") (tstamp 251526a2-145d-4759-9fb7-a9c490ad6d54))
  (fp_line (start -0.9 3.9) (end -0.9 3.2)
    (stroke (width 0.1) (type solid)) (layer "F.Fab") (tstamp 6fb8188c-da40-4bd9-a588-966e877b2305))
  (fp_line (start 0.9 -3.9) (end 0.9 -3.2)
    (stroke (width 0.1) (type solid)) (layer "F.Fab") (tstamp 2a88a54a-5be8-4ab7-a264-f64a1ad49fbe))
  (fp_line (start 0.9 -3.2) (end 3.75 -3.2)
    (stroke (width 0.1) (type solid)) (layer "F.Fab") (tstamp 4bd553f1-eeef-4853-b059-26a2884b6863))
  (fp_line (start 0.9 3.2) (end 0.9 3.9)
    (stroke (width 0.1) (type solid)) (layer "F.Fab") (tstamp 0525eb13-17b5-483f-abd6-fb2439346973))
  (fp_line (start 0.9 3.9) (end -0.9 3.9)
    (stroke (width 0.1) (type solid)) (layer "F.Fab") (tstamp 8f58f481-9bdd-4e50-a127-46f6f121c1b9))
  (fp_line (start 3.75 -3.2) (end 3.75 3.2)
    (stroke (width 0.1) (type solid)) (layer "F.Fab") (tstamp adc35794-ff0d-4a44-bcec-7cbcc64a1ff6))
  (fp_line (start 3.75 3.2) (end 0.9 3.2)
    (stroke (width 0.1) (type solid)) (layer "F.Fab") (tstamp 688177fc-5ae5-4b23-b7ef-f2ba5cb4b9c5))
  (pad "" smd rect (at -0.925 -2.92) (size 1.55 1.16) (layers "F.Paste") (tstamp 1d68d024-2f58-4480-8103-9d46db61f7d3))
  (pad "" smd rect (at -0.925 -1.46) (size 1.55 1.16) (layers "F.Paste") (tstamp bae4c631-8a1f-47f9-a2e6-2cb0c233c339))
  (pad "" smd rect (at -0.925 0) (size 1.55 1.16) (layers "F.Paste") (tstamp b5ae1539-ce92-48f7-b560-0c77b9e564f7))
  (pad "" smd rect (at -0.925 1.46) (size 1.55 1.16) (layers "F.Paste") (tstamp c3d1a386-98d5-4d5a-8ed6-c2778c306911))
  (pad "" smd rect (at -0.925 2.92) (size 1.55 1.16) (layers "F.Paste") (tstamp e2a5c9f9-98b0-471b-b38c-dcc2637da9bc))
  (pad "" smd rect (at 0.925 -2.92) (size 1.55 1.16) (layers "F.Paste") (tstamp 977f271a-e5af-46cd-a6d8-a048c17d8a9b))
  (pad "" smd rect (at 0.925 -1.46) (size 1.55 1.16) (layers "F.Paste") (tstamp a3f32843-db3e-4d80-9d45-9ffa4b580f50))
  (pad "" smd rect (at 0.925 0) (size 1.55 1.16) (layers "F.Paste") (tstamp 99ae600b-9b18-452f-a1c3-eb52cbb1d013))
  (pad "" smd rect (at 0.925 1.46) (size 1.55 1.16) (layers "F.Paste") (tstamp d069c0ca-aa0e-4717-9d6f-735f70d340c6))
  (pad "" smd rect (at 0.925 2.92) (size 1.55 1.16) (layers "F.Paste") (tstamp e4c25dab-4cfb-41d4-aca4-cf269a04d074))
  (pad "1" smd rect (at -4.8 -2.5) (size 2 0.65) (layers "F.Cu" "F.Paste" "F.Mask") (tstamp f11923af-a5ad-49ab-a15c-03d0b64ff76a))
  (pad "2" smd rect (at -4.8 -1.5) (size 2 0.65) (layers "F.Cu" "F.Paste" "F.Mask") (tstamp 39c07c83-0f95-41e6-a1a1-7128daa71c68))
  (pad "3" smd rect (at -4.8 -0.5) (size 2 0.65) (layers "F.Cu" "F.Paste" "F.Mask") (tstamp 6eaa7867-946b-4961-9ae7-88e841991900))
  (pad "4" smd rect (at -4.8 0.5) (size 2 0.65) (layers "F.Cu" "F.Paste" "F.Mask") (tstamp c0759b5c-2570-4227-bc13-25dccc4930cb))
  (pad "5" smd rect (at -4.8 1.5) (size 2 0.65) (layers "F.Cu" "F.Paste" "F.Mask") (tstamp 2b310f36-2576-499d-ad7f-cc3b258d74ea))
  (pad "6" smd rect (at -4.8 2.5) (size 2 0.65) (layers "F.Cu" "F.Paste" "F.Mask") (tstamp 6bfc8c82-6010-4236-8984-0e7f6950c6ec))
  (pad "7" smd rect (at 4.8 2.5) (size 2 0.65) (layers "F.Cu" "F.Paste" "F.Mask") (tstamp ecae5213-6394-4983-94a7-3660ec45a93f))
  (pad "8" smd rect (at 4.8 1.5) (size 2 0.65) (layers "F.Cu" "F.Paste" "F.Mask") (tstamp 66c2a4f6-cdd3-46ce-a0b8-03cf2b51a75f))
  (pad "9" smd rect (at 4.8 0.5) (size 2 0.65) (layers "F.Cu" "F.Paste" "F.Mask") (tstamp 723a740b-34ef-438a-a48f-4e34e7415f9c))
  (pad "10" smd rect (at 4.8 -0.5) (size 2 0.65) (layers "F.Cu" "F.Paste" "F.Mask") (tstamp da15237d-2bcd-44ff-9130-69770a87aab7))
  (pad "11" smd rect (at 4.8 -1.5) (size 2 0.65) (layers "F.Cu" "F.Paste" "F.Mask") (tstamp ccd4a8d3-1cd6-45e0-8947-df4321b35125))
  (pad "12" smd rect (at 4.8 -2.5) (size 2 0.65) (layers "F.Cu" "F.Paste" "F.Mask") (tstamp d030e315-765c-4971-baf4-7f611d76924d))
  (pad "13" thru_hole circle (at -1.85 -3.65) (size 0.8 0.8) (drill 0.3) (layers "*.Cu") (tstamp a03915f1-4acd-4238-85fb-a3228072f744))
  (pad "13" thru_hole circle (at -1.85 -2.19) (size 0.8 0.8) (drill 0.3) (layers "*.Cu") (tstamp f3a2c3b8-3a0d-4769-9562-942f422add53))
  (pad "13" thru_hole circle (at -1.85 -0.73) (size 0.8 0.8) (drill 0.3) (layers "*.Cu") (tstamp 0de597b0-172b-45fb-8aaf-67ee142e5868))
  (pad "13" thru_hole circle (at -1.85 0.73) (size 0.8 0.8) (drill 0.3) (layers "*.Cu") (tstamp f81d3139-aa20-41c2-8b6c-8c2d980f39d2))
  (pad "13" thru_hole circle (at -1.85 2.19) (size 0.8 0.8) (drill 0.3) (layers "*.Cu") (tstamp 20a4ff53-8c43-4009-a679-e1e7b41734ef))
  (pad "13" thru_hole circle (at -1.85 3.65) (size 0.8 0.8) (drill 0.3) (layers "*.Cu") (tstamp c2323ede-20fc-4a38-adf6-6e9661b18677))
  (pad "13" thru_hole circle (at 0 -3.65) (size 0.8 0.8) (drill 0.3) (layers "*.Cu") (tstamp 4f4d463c-67af-4b98-a1e0-9247eb824ada))
  (pad "13" thru_hole circle (at 0 -2.19) (size 0.8 0.8) (drill 0.3) (layers "*.Cu") (tstamp dcb625e3-29a8-4926-9d5d-c0dcf819bf87))
  (pad "13" thru_hole circle (at 0 -0.73) (size 0.8 0.8) (drill 0.3) (layers "*.Cu") (tstamp 50d7a5fc-8b63-41e5-8f54-0e23199295ee))
  (pad "13" smd rect (at 0 0) (size 4.5 8.1) (layers "F.Cu" "F.Mask") (tstamp 1fcd6b45-2df7-4d85-a6da-66d9a2bd8f09))
  (pad "13" smd rect (at 0 0) (size 4.5 8.1) (layers "B.Cu") (tstamp 90493652-24f9-4255-b70c-0add2a4def12))
  (pad "13" thru_hole circle (at 0 0.73) (size 0.8 0.8) (drill 0.3) (layers "*.Cu") (tstamp 7707bccf-8863-48c5-b734-118aff106244))
  (pad "13" thru_hole circle (at 0 2.19) (size 0.8 0.8) (drill 0.3) (layers "*.Cu") (tstamp 8eddc3af-1903-443b-9962-c7f61fd70d62))
  (pad "13" thru_hole circle (at 0 3.65) (size 0.8 0.8) (drill 0.3) (layers "*.Cu") (tstamp 2fc8fdf1-3324-4461-8f83-341c9eb0a695))
  (pad "13" thru_hole circle (at 1.85 -3.65) (size 0.8 0.8) (drill 0.3) (layers "*.Cu") (tstamp 514fe7db-dd86-4433-87bf-211c5d9f647f))
  (pad "13" thru_hole circle (at 1.85 -2.19) (size 0.8 0.8) (drill 0.3) (layers "*.Cu") (tstamp 2b21088d-f960-4271-ba39-c7608a303832))
  (pad "13" thru_hole circle (at 1.85 -0.73) (size 0.8 0.8) (drill 0.3) (layers "*.Cu") (tstamp 6df92b50-a897-4bd8-a96c-33b20ba451be))
  (pad "13" thru_hole circle (at 1.85 0.73) (size 0.8 0.8) (drill 0.3) (layers "*.Cu") (tstamp b5b3902b-94bc-4bf3-8f5a-a18987bd9134))
  (pad "13" thru_hole circle (at 1.85 2.19) (size 0.8 0.8) (drill 0.3) (layers "*.Cu") (tstamp 340a745b-09a8-47b3-87f7-ba4d066d6387))
  (pad "13" thru_hole circle (at 1.85 3.65) (size 0.8 0.8) (drill 0.3) (layers "*.Cu") (tstamp ab7896e4-2050-4d7d-8a24-090ea7284853))
  (model "${KICAD6_3DMODEL_DIR}/Package_SO.3dshapes/Infineon_PG-DSO-12-9.wrl"
    (offset (xyz 0 0 0))
    (scale (xyz 1 1 1))
    (rotate (xyz 0 0 0))
  )
)
