(footprint "MFSOP6-4_4.4x3.6mm_P1.27mm" (version 20221018) (generator pcbnew)
  (layer "F.Cu")
  (descr "https://toshiba.semicon-storage.com/ap-en/design-support/package/detail.4pin%20MFSOP6.html")
  (tags "MFSOP 4 pin SMD")
  (attr smd)
  (fp_text reference "REF**" (at -2 -2.8) (layer "F.SilkS")
      (effects (font (size 1 1) (thickness 0.15)))
    (tstamp d3d1d110-9dc7-491f-94af-ebe6902e13d5)
  )
  (fp_text value "MFSOP6-4_4.4x3.6mm_P1.27mm" (at 0 2.921) (layer "F.Fab")
      (effects (font (size 1 1) (thickness 0.15)))
    (tstamp f786c6c8-fe11-4ae2-bc96-7a16cd109a68)
  )
  (fp_text user "${REFERENCE}" (at 0 0) (layer "F.Fab")
      (effects (font (size 0.75 0.75) (thickness 0.15)))
    (tstamp 2adb4486-41fa-4023-acac-e0820cf8b8d1)
  )
  (fp_line (start -3 -1.92) (end 2 -1.92)
    (stroke (width 0.12) (type solid)) (layer "F.SilkS") (tstamp fb3e94e6-bdea-47ce-b0aa-e48fcd9642b3))
  (fp_line (start 1.5 1.92) (end -1.5 1.92)
    (stroke (width 0.12) (type solid)) (layer "F.SilkS") (tstamp 6f19cf61-98b0-42b4-831f-679147700111))
  (fp_line (start -4 -2.05) (end -4 2.05)
    (stroke (width 0.05) (type solid)) (layer "F.CrtYd") (tstamp 27ba0ae3-84a1-4148-8e3d-a651e344fbc5))
  (fp_line (start -4 -2.05) (end 4 -2.05)
    (stroke (width 0.05) (type solid)) (layer "F.CrtYd") (tstamp 2847e2af-753e-4161-b94b-76cbc8a9cfd4))
  (fp_line (start 4 2.05) (end -4 2.05)
    (stroke (width 0.05) (type solid)) (layer "F.CrtYd") (tstamp e2becc47-353d-4ca7-a98f-c34c1bef26fb))
  (fp_line (start 4 2.05) (end 4 -2.05)
    (stroke (width 0.05) (type solid)) (layer "F.CrtYd") (tstamp 8fe67cde-1941-4fa4-a1f9-8faed2549026))
  (fp_line (start -2.2 -0.8) (end -2.2 1.8)
    (stroke (width 0.12) (type solid)) (layer "F.Fab") (tstamp 9cb08410-68ea-4805-8292-5e647514b796))
  (fp_line (start -2.2 1.8) (end 2.2 1.8)
    (stroke (width 0.12) (type solid)) (layer "F.Fab") (tstamp 64d44cc8-9884-4f78-93ac-7baee623055d))
  (fp_line (start -1.2 -1.8) (end -2.2 -0.8)
    (stroke (width 0.12) (type solid)) (layer "F.Fab") (tstamp 65a42f9b-6c38-4d40-9caa-2cf22d4fc3ad))
  (fp_line (start 2.2 -1.8) (end -1.2 -1.8)
    (stroke (width 0.12) (type solid)) (layer "F.Fab") (tstamp 7a625880-50c2-4ba3-a4f5-b8cf7f5bf4a6))
  (fp_line (start 2.2 1.8) (end 2.2 -1.8)
    (stroke (width 0.12) (type solid)) (layer "F.Fab") (tstamp 421d8a8d-2e8e-46f2-88c6-756db2ba4a4e))
  (pad "1" smd rect (at -3.15 -1.27) (size 1.2 0.8) (layers "F.Cu" "F.Paste" "F.Mask") (tstamp 0f4feea0-eeaf-4101-a5e3-33f6b5a887c1))
  (pad "3" smd rect (at -3.15 1.27) (size 1.2 0.8) (layers "F.Cu" "F.Paste" "F.Mask") (tstamp b8aa7b5e-7e9a-428a-b9f1-a1abfde7d632))
  (pad "4" smd rect (at 3.15 1.27) (size 1.2 0.8) (layers "F.Cu" "F.Paste" "F.Mask") (tstamp 254efc5a-984d-4861-9ecc-27fa32d18bcc))
  (pad "6" smd rect (at 3.15 -1.27) (size 1.2 0.8) (layers "F.Cu" "F.Paste" "F.Mask") (tstamp 4206fb28-f248-4162-80dc-1105acaa6da7))
  (model "${KICAD6_3DMODEL_DIR}/Package_SO.3dshapes/MFSOP6-4_4.4x3.6mm_P1.27mm.wrl"
    (offset (xyz 0 0 0))
    (scale (xyz 1 1 1))
    (rotate (xyz 0 0 0))
  )
)
