(footprint "QSOP-20_3.9x8.7mm_P0.635mm" (version 20221018) (generator pcbnew)
  (layer "F.Cu")
  (descr "20-Lead Plastic Shrink Small Outline Narrow Body (http://www.analog.com/media/en/technical-documentation/data-sheets/ADuM7640_7641_7642_7643.pdf)")
  (tags "QSOP 0.635")
  (attr smd)
  (fp_text reference "REF**" (at 0 -5.25) (layer "F.SilkS")
      (effects (font (size 1 1) (thickness 0.15)))
    (tstamp 93bae8a1-48f4-4d47-b74a-6688d027593f)
  )
  (fp_text value "QSOP-20_3.9x8.7mm_P0.635mm" (at 0 5.3) (layer "F.Fab")
      (effects (font (size 1 1) (thickness 0.15)))
    (tstamp 48ad598f-0b58-4e32-8492-0b3e72090c83)
  )
  (fp_text user "${REFERENCE}" (at 0 0) (layer "F.Fab")
      (effects (font (size 0.8 0.8) (thickness 0.08)))
    (tstamp 3715f28b-6004-4f63-aed6-6b4f3ab2c1bb)
  )
  (fp_line (start -3.5 -3.3) (end -2.075 -3.3)
    (stroke (width 0.12) (type solid)) (layer "F.SilkS") (tstamp 621b5e57-0513-4098-b628-4a76d7c105c0))
  (fp_line (start -2.075 -4.475) (end 2.075 -4.475)
    (stroke (width 0.12) (type solid)) (layer "F.SilkS") (tstamp f01aecac-2d3c-48af-804c-adb9cf16bb24))
  (fp_line (start -2.075 -3.3) (end -2.075 -4.475)
    (stroke (width 0.12) (type solid)) (layer "F.SilkS") (tstamp c2b3cc1f-5237-47e9-bef6-ca7d12d0914d))
  (fp_line (start -2.075 3.3) (end -2.075 4.475)
    (stroke (width 0.12) (type solid)) (layer "F.SilkS") (tstamp b075facc-3722-4582-8140-a361522e84d7))
  (fp_line (start -2.075 4.475) (end 2.075 4.475)
    (stroke (width 0.12) (type solid)) (layer "F.SilkS") (tstamp 2bb46743-b2fb-4beb-990c-e915fb0484d3))
  (fp_line (start 2.075 -3.3) (end 2.075 -4.475)
    (stroke (width 0.12) (type solid)) (layer "F.SilkS") (tstamp 9f17257e-a3dc-41fe-9946-001178504305))
  (fp_line (start 2.075 3.3) (end 2.075 4.475)
    (stroke (width 0.12) (type solid)) (layer "F.SilkS") (tstamp 657bc604-f4de-4e49-81b7-1c2b497fde57))
  (fp_line (start -3.71 -4.6) (end -3.71 4.6)
    (stroke (width 0.05) (type solid)) (layer "F.CrtYd") (tstamp 707a7d01-6c3a-4ab7-bc8c-8764aaa43085))
  (fp_line (start -3.71 -4.6) (end 3.7 -4.6)
    (stroke (width 0.05) (type solid)) (layer "F.CrtYd") (tstamp 2443e2af-a622-4382-932b-5423698c1f58))
  (fp_line (start -3.71 4.6) (end 3.7 4.6)
    (stroke (width 0.05) (type solid)) (layer "F.CrtYd") (tstamp bcd324b0-73a8-4437-b7d0-e99d9b1f3e8d))
  (fp_line (start 3.7 -4.6) (end 3.7 4.6)
    (stroke (width 0.05) (type solid)) (layer "F.CrtYd") (tstamp 67821c57-6d22-445e-9709-f72c7611a775))
  (fp_line (start -1.95 -3.35) (end -0.95 -4.35)
    (stroke (width 0.1) (type solid)) (layer "F.Fab") (tstamp c3ff9b48-497e-4679-928d-7f3114a89811))
  (fp_line (start -1.95 4.35) (end -1.95 -3.35)
    (stroke (width 0.1) (type solid)) (layer "F.Fab") (tstamp 22fcbf42-b671-4479-b179-e1422d11f75d))
  (fp_line (start -0.95 -4.35) (end 1.95 -4.35)
    (stroke (width 0.1) (type solid)) (layer "F.Fab") (tstamp 88299656-9a98-4f6b-aac5-6ef053fdbd40))
  (fp_line (start 1.95 -4.35) (end 1.95 4.35)
    (stroke (width 0.1) (type solid)) (layer "F.Fab") (tstamp 2b0b6f1c-d802-4c4a-b061-946b9d48df98))
  (fp_line (start 1.95 4.35) (end -1.95 4.35)
    (stroke (width 0.1) (type solid)) (layer "F.Fab") (tstamp e4368df6-4622-4764-9d06-516a95616875))
  (pad "1" smd rect (at -2.6543 -2.8575) (size 1.6 0.41) (layers "F.Cu" "F.Paste" "F.Mask") (tstamp 3645c83e-4780-461a-b2d8-e8016b2bb27d))
  (pad "2" smd rect (at -2.6543 -2.2225) (size 1.6 0.41) (layers "F.Cu" "F.Paste" "F.Mask") (tstamp 6f244324-55ea-4136-8339-9fa678268090))
  (pad "3" smd rect (at -2.6543 -1.5875) (size 1.6 0.41) (layers "F.Cu" "F.Paste" "F.Mask") (tstamp 01c9c51a-dd0f-4820-9dca-89590c89256e))
  (pad "4" smd rect (at -2.6543 -0.9525) (size 1.6 0.41) (layers "F.Cu" "F.Paste" "F.Mask") (tstamp 9187180c-3d32-4516-b4d5-b33f09cd7b00))
  (pad "5" smd rect (at -2.6543 -0.3175) (size 1.6 0.41) (layers "F.Cu" "F.Paste" "F.Mask") (tstamp edbb0c66-6bbe-4618-993f-fd5b72344b5a))
  (pad "6" smd rect (at -2.6543 0.3175) (size 1.6 0.41) (layers "F.Cu" "F.Paste" "F.Mask") (tstamp d54bc25f-335c-42ae-b492-ba4800a95261))
  (pad "7" smd rect (at -2.6543 0.9525) (size 1.6 0.41) (layers "F.Cu" "F.Paste" "F.Mask") (tstamp 2e66eea5-f826-48ce-93ca-61c1865680ae))
  (pad "8" smd rect (at -2.6543 1.5875) (size 1.6 0.41) (layers "F.Cu" "F.Paste" "F.Mask") (tstamp e8a9cff8-46a6-482d-a545-3b306937f2a2))
  (pad "9" smd rect (at -2.6543 2.2225) (size 1.6 0.41) (layers "F.Cu" "F.Paste" "F.Mask") (tstamp 22f4fcdb-4538-4d56-a3d8-7422b44b7652))
  (pad "10" smd rect (at -2.6543 2.8575) (size 1.6 0.41) (layers "F.Cu" "F.Paste" "F.Mask") (tstamp e7d407a4-a3fd-4a2a-b058-8edabafc5e4a))
  (pad "11" smd rect (at 2.6543 2.8575) (size 1.6 0.41) (layers "F.Cu" "F.Paste" "F.Mask") (tstamp 57cfb534-504d-48fd-8fad-c63f676d2592))
  (pad "12" smd rect (at 2.6543 2.2225) (size 1.6 0.41) (layers "F.Cu" "F.Paste" "F.Mask") (tstamp ca5d1791-b04d-4125-a553-5e055c71e1be))
  (pad "13" smd rect (at 2.6543 1.5875) (size 1.6 0.41) (layers "F.Cu" "F.Paste" "F.Mask") (tstamp 84da9969-822e-4299-a8b9-7060bacf4172))
  (pad "14" smd rect (at 2.6543 0.9525) (size 1.6 0.41) (layers "F.Cu" "F.Paste" "F.Mask") (tstamp 98a39cd8-1290-4b73-9068-9147243e53dd))
  (pad "15" smd rect (at 2.6543 0.3175) (size 1.6 0.41) (layers "F.Cu" "F.Paste" "F.Mask") (tstamp 6edb08b7-7676-4bb3-9a18-95f386e0424c))
  (pad "16" smd rect (at 2.6543 -0.3175) (size 1.6 0.41) (layers "F.Cu" "F.Paste" "F.Mask") (tstamp c311b1cc-88d4-48b2-a905-1e2c1036e200))
  (pad "17" smd rect (at 2.6543 -0.9525) (size 1.6 0.41) (layers "F.Cu" "F.Paste" "F.Mask") (tstamp 8e81e57d-a712-4813-8554-d2defc287035))
  (pad "18" smd rect (at 2.6543 -1.5875) (size 1.6 0.41) (layers "F.Cu" "F.Paste" "F.Mask") (tstamp 844a6ddc-02df-47f2-80ab-224e41027003))
  (pad "19" smd rect (at 2.6543 -2.2225) (size 1.6 0.41) (layers "F.Cu" "F.Paste" "F.Mask") (tstamp 4e2d4e5a-f429-4f70-b08f-637127b18915))
  (pad "20" smd rect (at 2.6543 -2.8575) (size 1.6 0.41) (layers "F.Cu" "F.Paste" "F.Mask") (tstamp 607e8067-fd93-4c6b-8a87-f694f87a613e))
  (model "${KICAD6_3DMODEL_DIR}/Package_SO.3dshapes/QSOP-20_3.9x8.7mm_P0.635mm.wrl"
    (offset (xyz 0 0 0))
    (scale (xyz 1 1 1))
    (rotate (xyz 0 0 0))
  )
)
