(footprint "SO-4_4.4x2.3mm_P1.27mm" (version 20221018) (generator pcbnew)
  (layer "F.Cu")
  (descr "4-Lead Plastic Small Outline (SO), see http://datasheet.octopart.com/OPIA403BTRE-Optek-datasheet-5328560.pdf")
  (tags "SO SOIC 1.27")
  (attr smd)
  (fp_text reference "REF**" (at 0 -2.1) (layer "F.SilkS")
      (effects (font (size 1 1) (thickness 0.15)))
    (tstamp e8819c87-100e-4f0d-b86d-d83617d5b6ef)
  )
  (fp_text value "SO-4_4.4x2.3mm_P1.27mm" (at 0 2.3) (layer "F.Fab")
      (effects (font (size 1 1) (thickness 0.15)))
    (tstamp 92f05834-bc4d-4736-9397-1a88e326a825)
  )
  (fp_text user "${REFERENCE}" (at 0 -0.065) (layer "F.Fab")
      (effects (font (size 1 1) (thickness 0.15)))
    (tstamp e0850968-f1d9-4d78-a0bc-b0cdd2daf8a1)
  )
  (fp_line (start -2.4 -1.4) (end 2.4 -1.4)
    (stroke (width 0.12) (type solid)) (layer "F.SilkS") (tstamp 46a727d2-3474-4d2e-9bc5-e4c3d25469db))
  (fp_line (start -2.4 -1.25) (end -4.1 -1.25)
    (stroke (width 0.12) (type solid)) (layer "F.SilkS") (tstamp b01d5006-331e-4c70-9534-342281c54359))
  (fp_line (start -2.4 -1.25) (end -2.4 -1.4)
    (stroke (width 0.12) (type solid)) (layer "F.SilkS") (tstamp 06cdb185-d88d-409b-828e-f288225fad0c))
  (fp_line (start -2.4 1.4) (end -2.4 1.25)
    (stroke (width 0.12) (type solid)) (layer "F.SilkS") (tstamp 7b3da904-335d-43bc-a2eb-6c5e5610d20a))
  (fp_line (start 2.4 -1.4) (end 2.4 -1.25)
    (stroke (width 0.12) (type solid)) (layer "F.SilkS") (tstamp 0b1abd59-59f0-4c17-ab4d-167142d7e826))
  (fp_line (start 2.4 1.25) (end 2.4 1.4)
    (stroke (width 0.12) (type solid)) (layer "F.SilkS") (tstamp 2ba2579b-8d1c-400c-b912-333b02d74735))
  (fp_line (start 2.4 1.4) (end -2.4 1.4)
    (stroke (width 0.12) (type solid)) (layer "F.SilkS") (tstamp fb2f7d7a-1970-4808-aaae-58e338465ff7))
  (fp_line (start -4.4 -1.45) (end -4.4 1.45)
    (stroke (width 0.05) (type solid)) (layer "F.CrtYd") (tstamp dd64e661-32de-48b9-84ca-718d67b19468))
  (fp_line (start -4.4 -1.45) (end 4.4 -1.45)
    (stroke (width 0.05) (type solid)) (layer "F.CrtYd") (tstamp 45ef6a7a-cf3a-415c-9364-372ceb25d647))
  (fp_line (start 4.4 1.45) (end -4.4 1.45)
    (stroke (width 0.05) (type solid)) (layer "F.CrtYd") (tstamp d65138d3-fc2a-4255-a6c2-5dba7aa7602b))
  (fp_line (start 4.4 1.45) (end 4.4 -1.45)
    (stroke (width 0.05) (type solid)) (layer "F.CrtYd") (tstamp 4788ad4f-7f61-4afc-9340-f66fa1085d62))
  (fp_line (start -2.2 -0.7) (end -2.2 1.2)
    (stroke (width 0.12) (type solid)) (layer "F.Fab") (tstamp 84708af3-e1cc-4bab-90e8-f9fa6132792b))
  (fp_line (start -2.2 1.2) (end 2.2 1.2)
    (stroke (width 0.12) (type solid)) (layer "F.Fab") (tstamp 007f2663-2807-4f55-94f2-d97e1b032a37))
  (fp_line (start -1.7 -1.2) (end -2.2 -0.7)
    (stroke (width 0.12) (type solid)) (layer "F.Fab") (tstamp cf3f1575-04be-4846-b9f1-422b22a4d6b3))
  (fp_line (start 2.2 -1.2) (end -1.7 -1.2)
    (stroke (width 0.12) (type solid)) (layer "F.Fab") (tstamp e090d52a-b4e4-4f63-8850-9b568f7b4c6e))
  (fp_line (start 2.2 1.2) (end 2.2 -1.2)
    (stroke (width 0.12) (type solid)) (layer "F.Fab") (tstamp fe1a131e-94a4-4c82-b624-71fdcdf07cae))
  (pad "1" smd rect (at -3.15 -0.635) (size 2 0.64) (layers "F.Cu" "F.Paste" "F.Mask") (tstamp 85d642f6-e999-49b6-b2bf-aaecaf1b7bf9))
  (pad "2" smd rect (at -3.15 0.635) (size 2 0.64) (layers "F.Cu" "F.Paste" "F.Mask") (tstamp 9389c1b7-97d2-469b-b8d0-08564ee29f44))
  (pad "3" smd rect (at 3.15 0.635) (size 2 0.64) (layers "F.Cu" "F.Paste" "F.Mask") (tstamp 802ed030-687d-44ad-909f-f55e597157c0))
  (pad "4" smd rect (at 3.15 -0.635) (size 2 0.64) (layers "F.Cu" "F.Paste" "F.Mask") (tstamp a00f9321-9678-4b33-9940-73ed2028f7d3))
  (model "${KICAD6_3DMODEL_DIR}/Package_SO.3dshapes/SO-4_4.4x2.3mm_P1.27mm.wrl"
    (offset (xyz 0 0 0))
    (scale (xyz 1 1 1))
    (rotate (xyz 0 0 0))
  )
)
