(footprint "SOIC-16W_5.3x10.2mm_P1.27mm" (version 20221018) (generator pcbnew)
  (layer "F.Cu")
  (descr "16-Lead Plastic Small Outline (SO) - Wide, 5.3 mm Body (http://www.ti.com/lit/ml/msop002a/msop002a.pdf)")
  (tags "SOIC 1.27")
  (attr smd)
  (fp_text reference "REF**" (at 0 -6.2) (layer "F.SilkS")
      (effects (font (size 1 1) (thickness 0.15)))
    (tstamp ac939073-3aef-4735-8906-9e98c9e198e3)
  )
  (fp_text value "SOIC-16W_5.3x10.2mm_P1.27mm" (at 0 6.2) (layer "F.Fab")
      (effects (font (size 1 1) (thickness 0.15)))
    (tstamp 2573405c-a2ea-43f4-83d7-c4c11f672621)
  )
  (fp_text user "${REFERENCE}" (at 0 0) (layer "F.Fab")
      (effects (font (size 1 1) (thickness 0.15)))
    (tstamp 0c31aad6-518e-4881-92ce-c31fdbaaf885)
  )
  (fp_line (start -2.775 -5.275) (end -2.775 -5)
    (stroke (width 0.15) (type solid)) (layer "F.SilkS") (tstamp d5ddf383-c467-4b94-9a2a-e0718f6fe4be))
  (fp_line (start -2.775 -5.275) (end 2.775 -5.275)
    (stroke (width 0.15) (type solid)) (layer "F.SilkS") (tstamp 63747ca9-8395-400b-9de8-9a2706954f15))
  (fp_line (start -2.775 -5) (end -4.3 -5)
    (stroke (width 0.15) (type solid)) (layer "F.SilkS") (tstamp aa56435f-cc97-420c-a306-0f712f9b717d))
  (fp_line (start -2.775 5.275) (end -2.775 4.92)
    (stroke (width 0.15) (type solid)) (layer "F.SilkS") (tstamp c1bc3c3f-e1ad-4f3c-aa25-2f6584242b7e))
  (fp_line (start -2.775 5.275) (end 2.775 5.275)
    (stroke (width 0.15) (type solid)) (layer "F.SilkS") (tstamp 536dabeb-a991-47bf-9add-971bb52d9f46))
  (fp_line (start 2.775 -5.275) (end 2.775 -4.92)
    (stroke (width 0.15) (type solid)) (layer "F.SilkS") (tstamp a9d9b802-d421-4fd9-9a56-ee83366b0f47))
  (fp_line (start 2.775 5.275) (end 2.775 4.92)
    (stroke (width 0.15) (type solid)) (layer "F.SilkS") (tstamp a7594dab-aa47-4a80-979c-72b29cafb618))
  (fp_line (start -4.55 -5.45) (end -4.55 5.45)
    (stroke (width 0.05) (type solid)) (layer "F.CrtYd") (tstamp f732dad7-5d4b-4c70-882e-40579aa589ac))
  (fp_line (start -4.55 -5.45) (end 4.55 -5.45)
    (stroke (width 0.05) (type solid)) (layer "F.CrtYd") (tstamp f359748e-fe4f-4a06-9ef8-d1e5e98b86b5))
  (fp_line (start -4.55 5.45) (end 4.55 5.45)
    (stroke (width 0.05) (type solid)) (layer "F.CrtYd") (tstamp 25b8c854-ca1e-40ac-85e1-6c831710d793))
  (fp_line (start 4.55 -5.45) (end 4.55 5.45)
    (stroke (width 0.05) (type solid)) (layer "F.CrtYd") (tstamp 0e7fc2b6-8f65-4cd7-a888-cc49bf5e4540))
  (fp_line (start -2.65 -4.1) (end -1.65 -5.1)
    (stroke (width 0.15) (type solid)) (layer "F.Fab") (tstamp b9ee08a7-537e-4069-974d-385dfa975ead))
  (fp_line (start -2.65 5.1) (end -2.65 -4.1)
    (stroke (width 0.15) (type solid)) (layer "F.Fab") (tstamp 1ef728e3-4820-4528-85d7-07f1eefd5414))
  (fp_line (start -1.65 -5.1) (end 2.65 -5.1)
    (stroke (width 0.15) (type solid)) (layer "F.Fab") (tstamp 49bad12f-33ee-48ab-aad7-50b75e5fbfd1))
  (fp_line (start 2.65 -5.1) (end 2.65 5.1)
    (stroke (width 0.15) (type solid)) (layer "F.Fab") (tstamp 81b59068-f51a-43c8-a9fe-8da32c2de150))
  (fp_line (start 2.65 5.1) (end -2.65 5.1)
    (stroke (width 0.15) (type solid)) (layer "F.Fab") (tstamp 2fa2765f-dfce-489d-b1fc-3b53d3641dcd))
  (pad "1" smd rect (at -3.55 -4.445) (size 1.5 0.6) (layers "F.Cu" "F.Paste" "F.Mask") (tstamp 2aed634c-6314-46e1-b9cc-98f0dcf6a7aa))
  (pad "2" smd rect (at -3.55 -3.175) (size 1.5 0.6) (layers "F.Cu" "F.Paste" "F.Mask") (tstamp 79525d98-a292-47fc-8a64-7ac15e460b62))
  (pad "3" smd rect (at -3.55 -1.905) (size 1.5 0.6) (layers "F.Cu" "F.Paste" "F.Mask") (tstamp 1c3b9529-237d-44af-bdee-808e1e02bf64))
  (pad "4" smd rect (at -3.55 -0.635) (size 1.5 0.6) (layers "F.Cu" "F.Paste" "F.Mask") (tstamp d05cc298-2346-45c5-8c8a-088885e1af63))
  (pad "5" smd rect (at -3.55 0.635) (size 1.5 0.6) (layers "F.Cu" "F.Paste" "F.Mask") (tstamp e92f3aac-974e-4d91-932d-68ebb0a19ffa))
  (pad "6" smd rect (at -3.55 1.905) (size 1.5 0.6) (layers "F.Cu" "F.Paste" "F.Mask") (tstamp b55f5ac8-67db-4c90-8459-713b478049b9))
  (pad "7" smd rect (at -3.55 3.175) (size 1.5 0.6) (layers "F.Cu" "F.Paste" "F.Mask") (tstamp 59f69d1e-055c-4b78-80d1-d12b656850e3))
  (pad "8" smd rect (at -3.55 4.445) (size 1.5 0.6) (layers "F.Cu" "F.Paste" "F.Mask") (tstamp 71470fbe-ef0d-4f2f-8e5d-4f1c24dd6790))
  (pad "9" smd rect (at 3.55 4.445) (size 1.5 0.6) (layers "F.Cu" "F.Paste" "F.Mask") (tstamp c80e195d-b8c5-4190-97c1-34ceb55ac1df))
  (pad "10" smd rect (at 3.55 3.175) (size 1.5 0.6) (layers "F.Cu" "F.Paste" "F.Mask") (tstamp 12601f5e-8fde-4bca-a775-3dc8f78c1c51))
  (pad "11" smd rect (at 3.55 1.905) (size 1.5 0.6) (layers "F.Cu" "F.Paste" "F.Mask") (tstamp 2cbb962e-5e77-4459-9f9c-c76ae77aa918))
  (pad "12" smd rect (at 3.55 0.635) (size 1.5 0.6) (layers "F.Cu" "F.Paste" "F.Mask") (tstamp 534d1315-81d8-4dd6-a573-13828ec42cfc))
  (pad "13" smd rect (at 3.55 -0.635) (size 1.5 0.6) (layers "F.Cu" "F.Paste" "F.Mask") (tstamp 70d40cc6-f87e-46b6-a2f1-b4341717158e))
  (pad "14" smd rect (at 3.55 -1.905) (size 1.5 0.6) (layers "F.Cu" "F.Paste" "F.Mask") (tstamp d0077eb2-9d36-4002-b998-886270d89ee0))
  (pad "15" smd rect (at 3.55 -3.175) (size 1.5 0.6) (layers "F.Cu" "F.Paste" "F.Mask") (tstamp 32e9a852-9adc-418d-abd7-71a2d7c3e0e2))
  (pad "16" smd rect (at 3.55 -4.445) (size 1.5 0.6) (layers "F.Cu" "F.Paste" "F.Mask") (tstamp af9d3590-e103-4858-a955-a3aad8a5d1db))
  (model "${KICAD6_3DMODEL_DIR}/Package_SO.3dshapes/SOIC-16W_5.3x10.2mm_P1.27mm.wrl"
    (offset (xyz 0 0 0))
    (scale (xyz 1 1 1))
    (rotate (xyz 0 0 0))
  )
)
