(footprint "SSOP-48_7.5x15.9mm_P0.635mm" (version 20221018) (generator pcbnew)
  (layer "F.Cu")
  (descr "SSOP48: plastic shrink small outline package; 48 leads; body width 7.5 mm; (see NXP SSOP-TSSOP-VSO-REFLOW.pdf and sot370-1_po.pdf)")
  (tags "SSOP 0.635")
  (attr smd)
  (fp_text reference "REF**" (at 0 -9) (layer "F.SilkS")
      (effects (font (size 1 1) (thickness 0.15)))
    (tstamp 54f2978f-20c8-4ee9-8502-5112fcadea20)
  )
  (fp_text value "SSOP-48_7.5x15.9mm_P0.635mm" (at 0 9) (layer "F.Fab")
      (effects (font (size 1 1) (thickness 0.15)))
    (tstamp 8027a0d6-5e60-45e2-a98d-4e4cd49c0300)
  )
  (fp_text user "${REFERENCE}" (at 0 0) (layer "F.Fab")
      (effects (font (size 0.8 0.8) (thickness 0.15)))
    (tstamp 65e7c1bd-0610-445d-8d7e-6cca71f09eee)
  )
  (fp_line (start -3.875 -8.075) (end -3.875 -7.825)
    (stroke (width 0.15) (type solid)) (layer "F.SilkS") (tstamp 879bd3e6-ee40-436e-9d23-3627ef69739b))
  (fp_line (start -3.875 -8.075) (end 3.875 -8.075)
    (stroke (width 0.15) (type solid)) (layer "F.SilkS") (tstamp da27f6e4-ff70-465a-8a82-ee817b18c0d7))
  (fp_line (start -3.875 -7.825) (end -5.3 -7.825)
    (stroke (width 0.15) (type solid)) (layer "F.SilkS") (tstamp f429b288-2aaa-44f9-adcd-e5c3e2448cd8))
  (fp_line (start -3.875 8.075) (end -3.875 7.7275)
    (stroke (width 0.15) (type solid)) (layer "F.SilkS") (tstamp 153738e2-b386-4ff4-877b-0c8492cc64c3))
  (fp_line (start -3.875 8.075) (end 3.875 8.075)
    (stroke (width 0.15) (type solid)) (layer "F.SilkS") (tstamp 53f8d96c-1580-4084-9c19-67b963c33744))
  (fp_line (start 3.875 -8.075) (end 3.875 -7.7275)
    (stroke (width 0.15) (type solid)) (layer "F.SilkS") (tstamp e2315c91-f445-4a41-aa89-398b71ad784f))
  (fp_line (start 3.875 8.075) (end 3.875 7.7275)
    (stroke (width 0.15) (type solid)) (layer "F.SilkS") (tstamp 8f8d82fa-197f-495c-87b8-36b0f487ae1f))
  (fp_line (start -5.55 -8.25) (end -5.55 8.25)
    (stroke (width 0.05) (type solid)) (layer "F.CrtYd") (tstamp 127421a4-d65e-412a-adb4-aa15d6000bb9))
  (fp_line (start -5.55 -8.25) (end 5.55 -8.25)
    (stroke (width 0.05) (type solid)) (layer "F.CrtYd") (tstamp 8e6bb857-19cc-4106-97d1-6a1c1f49c9ff))
  (fp_line (start -5.55 8.25) (end 5.55 8.25)
    (stroke (width 0.05) (type solid)) (layer "F.CrtYd") (tstamp a5c54d77-32e5-4200-b5f0-9ef785bb6e71))
  (fp_line (start 5.55 -8.25) (end 5.55 8.25)
    (stroke (width 0.05) (type solid)) (layer "F.CrtYd") (tstamp f5c5ccfe-7070-4727-90c3-f2942a18a81e))
  (fp_line (start -3.75 -6.95) (end -2.75 -7.95)
    (stroke (width 0.15) (type solid)) (layer "F.Fab") (tstamp b8d45634-771e-47b2-8bb5-525ec8e9ab9d))
  (fp_line (start -3.75 7.95) (end -3.75 -6.95)
    (stroke (width 0.15) (type solid)) (layer "F.Fab") (tstamp 5e65e520-18f7-4903-bfeb-74e816502ca4))
  (fp_line (start -2.75 -7.95) (end 3.75 -7.95)
    (stroke (width 0.15) (type solid)) (layer "F.Fab") (tstamp ccec84de-9072-4c3b-9e70-3fa42670312a))
  (fp_line (start 3.75 -7.95) (end 3.75 7.95)
    (stroke (width 0.15) (type solid)) (layer "F.Fab") (tstamp 0db99413-d673-4173-82c3-b11bfd4e48a8))
  (fp_line (start 3.75 7.95) (end -3.75 7.95)
    (stroke (width 0.15) (type solid)) (layer "F.Fab") (tstamp 4cb29978-2370-4724-a75f-a0bde7abe081))
  (pad "1" smd rect (at -4.7 -7.3025) (size 1.2 0.4) (layers "F.Cu" "F.Paste" "F.Mask") (tstamp b7717a66-a7ac-4fa3-8929-43204f59f4d4))
  (pad "2" smd rect (at -4.7 -6.6675) (size 1.2 0.4) (layers "F.Cu" "F.Paste" "F.Mask") (tstamp c903eef1-02cb-4b7d-9785-270c03a55723))
  (pad "3" smd rect (at -4.7 -6.0325) (size 1.2 0.4) (layers "F.Cu" "F.Paste" "F.Mask") (tstamp 69b5aeac-c62f-46af-a6b2-0407ccbb6a75))
  (pad "4" smd rect (at -4.7 -5.3975) (size 1.2 0.4) (layers "F.Cu" "F.Paste" "F.Mask") (tstamp 3aa36323-f2e5-4e30-94b8-0daef8ecda57))
  (pad "5" smd rect (at -4.7 -4.7625) (size 1.2 0.4) (layers "F.Cu" "F.Paste" "F.Mask") (tstamp 50a89148-3fd3-4c1e-90a8-928932f66ad3))
  (pad "6" smd rect (at -4.7 -4.1275) (size 1.2 0.4) (layers "F.Cu" "F.Paste" "F.Mask") (tstamp 5db7b042-da21-4c0b-8e95-1286d138e76f))
  (pad "7" smd rect (at -4.7 -3.4925) (size 1.2 0.4) (layers "F.Cu" "F.Paste" "F.Mask") (tstamp 46dcb17e-bf90-484b-b6cf-fd2dd8845f52))
  (pad "8" smd rect (at -4.7 -2.8575) (size 1.2 0.4) (layers "F.Cu" "F.Paste" "F.Mask") (tstamp b9e4425d-0d40-4b58-b6be-51e27e1e6c59))
  (pad "9" smd rect (at -4.7 -2.2225) (size 1.2 0.4) (layers "F.Cu" "F.Paste" "F.Mask") (tstamp a479ccfb-770a-4a0c-8420-bdd2d9114195))
  (pad "10" smd rect (at -4.7 -1.5875) (size 1.2 0.4) (layers "F.Cu" "F.Paste" "F.Mask") (tstamp 681e1010-7a46-4e63-bbe2-31ffd3799d9e))
  (pad "11" smd rect (at -4.7 -0.9525) (size 1.2 0.4) (layers "F.Cu" "F.Paste" "F.Mask") (tstamp 2d524cb5-ec8c-48e6-a9a6-a054bd0f296d))
  (pad "12" smd rect (at -4.7 -0.3175) (size 1.2 0.4) (layers "F.Cu" "F.Paste" "F.Mask") (tstamp dfbeba75-7bcd-4c65-bbda-058f466e22ff))
  (pad "13" smd rect (at -4.7 0.3175) (size 1.2 0.4) (layers "F.Cu" "F.Paste" "F.Mask") (tstamp e01160e7-f00c-4cf2-afa6-f51212a4686a))
  (pad "14" smd rect (at -4.7 0.9525) (size 1.2 0.4) (layers "F.Cu" "F.Paste" "F.Mask") (tstamp c414de7b-33de-4e66-b0cc-c593552d1ddb))
  (pad "15" smd rect (at -4.7 1.5875) (size 1.2 0.4) (layers "F.Cu" "F.Paste" "F.Mask") (tstamp d8480f7a-a705-429d-a477-bcf04e67864a))
  (pad "16" smd rect (at -4.7 2.2225) (size 1.2 0.4) (layers "F.Cu" "F.Paste" "F.Mask") (tstamp e1c1faf6-d4f2-41b8-be4b-e2321fcb7199))
  (pad "17" smd rect (at -4.7 2.8575) (size 1.2 0.4) (layers "F.Cu" "F.Paste" "F.Mask") (tstamp b64528d1-20b1-4f5f-95c1-a3c64970cb9b))
  (pad "18" smd rect (at -4.7 3.4925) (size 1.2 0.4) (layers "F.Cu" "F.Paste" "F.Mask") (tstamp 178d4c2a-bc50-4496-bab7-c9a4478c640e))
  (pad "19" smd rect (at -4.7 4.1275) (size 1.2 0.4) (layers "F.Cu" "F.Paste" "F.Mask") (tstamp e1c262c3-039e-418d-bf75-90c7902c4fa0))
  (pad "20" smd rect (at -4.7 4.7625) (size 1.2 0.4) (layers "F.Cu" "F.Paste" "F.Mask") (tstamp 68547ace-6266-47dd-b998-31d84c376219))
  (pad "21" smd rect (at -4.7 5.3975) (size 1.2 0.4) (layers "F.Cu" "F.Paste" "F.Mask") (tstamp 86cabd68-9bcb-4f14-a55c-bbddf58e6381))
  (pad "22" smd rect (at -4.7 6.0325) (size 1.2 0.4) (layers "F.Cu" "F.Paste" "F.Mask") (tstamp 4ea6b10b-abbb-4282-b445-26e576783907))
  (pad "23" smd rect (at -4.7 6.6675) (size 1.2 0.4) (layers "F.Cu" "F.Paste" "F.Mask") (tstamp 6eaa07fb-6cc7-4d59-b7a7-ff42f80ba382))
  (pad "24" smd rect (at -4.7 7.3025) (size 1.2 0.4) (layers "F.Cu" "F.Paste" "F.Mask") (tstamp 3b02599f-3e0f-49f4-8fec-601b8b4e1ab8))
  (pad "25" smd rect (at 4.7 7.3025) (size 1.2 0.4) (layers "F.Cu" "F.Paste" "F.Mask") (tstamp 9465217c-f76d-4cdf-bbe7-d532547ef544))
  (pad "26" smd rect (at 4.7 6.6675) (size 1.2 0.4) (layers "F.Cu" "F.Paste" "F.Mask") (tstamp c01e5912-8727-4799-89a0-8f7aaf925492))
  (pad "27" smd rect (at 4.7 6.0325) (size 1.2 0.4) (layers "F.Cu" "F.Paste" "F.Mask") (tstamp d37df5e9-f004-4424-b6ae-5e5f04ad8933))
  (pad "28" smd rect (at 4.7 5.3975) (size 1.2 0.4) (layers "F.Cu" "F.Paste" "F.Mask") (tstamp 7fbdb6ea-eeba-4e4d-802b-300613c607aa))
  (pad "29" smd rect (at 4.7 4.7625) (size 1.2 0.4) (layers "F.Cu" "F.Paste" "F.Mask") (tstamp 01356bd7-1659-44e9-849c-f0360bf1915e))
  (pad "30" smd rect (at 4.7 4.1275) (size 1.2 0.4) (layers "F.Cu" "F.Paste" "F.Mask") (tstamp d156409d-a91d-4023-ac8c-97a37855c82c))
  (pad "31" smd rect (at 4.7 3.4925) (size 1.2 0.4) (layers "F.Cu" "F.Paste" "F.Mask") (tstamp e07d76cd-cfd7-49d0-a55d-53f5eaf17c20))
  (pad "32" smd rect (at 4.7 2.8575) (size 1.2 0.4) (layers "F.Cu" "F.Paste" "F.Mask") (tstamp eeef4aad-be27-465a-959a-83b548bde861))
  (pad "33" smd rect (at 4.7 2.2225) (size 1.2 0.4) (layers "F.Cu" "F.Paste" "F.Mask") (tstamp 94e5de12-08df-43be-8651-26fed601958a))
  (pad "34" smd rect (at 4.7 1.5875) (size 1.2 0.4) (layers "F.Cu" "F.Paste" "F.Mask") (tstamp 1cce2056-6ed2-4677-8fea-debfa39c6c1d))
  (pad "35" smd rect (at 4.7 0.9525) (size 1.2 0.4) (layers "F.Cu" "F.Paste" "F.Mask") (tstamp 6ce635d2-5cf7-4ad5-ac22-c3c490da2387))
  (pad "36" smd rect (at 4.7 0.3175) (size 1.2 0.4) (layers "F.Cu" "F.Paste" "F.Mask") (tstamp 15f9ec4c-9ee8-4f7a-bacb-cae2ffc15027))
  (pad "37" smd rect (at 4.7 -0.3175) (size 1.2 0.4) (layers "F.Cu" "F.Paste" "F.Mask") (tstamp 510d6f73-0f2b-4755-aa67-7cff224a7296))
  (pad "38" smd rect (at 4.7 -0.9525) (size 1.2 0.4) (layers "F.Cu" "F.Paste" "F.Mask") (tstamp 5091650f-bdca-4850-8d96-7d3ecfdeb46f))
  (pad "39" smd rect (at 4.7 -1.5875) (size 1.2 0.4) (layers "F.Cu" "F.Paste" "F.Mask") (tstamp e796023a-2a3b-40d5-9b67-c973de60c37d))
  (pad "40" smd rect (at 4.7 -2.2225) (size 1.2 0.4) (layers "F.Cu" "F.Paste" "F.Mask") (tstamp 0b4e8e91-adc5-4315-a94d-13b24b84e183))
  (pad "41" smd rect (at 4.7 -2.8575) (size 1.2 0.4) (layers "F.Cu" "F.Paste" "F.Mask") (tstamp 80573f9b-3448-46b5-8975-648a16253d62))
  (pad "42" smd rect (at 4.7 -3.4925) (size 1.2 0.4) (layers "F.Cu" "F.Paste" "F.Mask") (tstamp e670397c-72e0-4670-a4ac-20e7b303df30))
  (pad "43" smd rect (at 4.7 -4.1275) (size 1.2 0.4) (layers "F.Cu" "F.Paste" "F.Mask") (tstamp 340ce1e7-4be9-4aef-8682-db1516795ea3))
  (pad "44" smd rect (at 4.7 -4.7625) (size 1.2 0.4) (layers "F.Cu" "F.Paste" "F.Mask") (tstamp dbd5796c-6c7e-47fe-af82-e55a1c966f7e))
  (pad "45" smd rect (at 4.7 -5.3975) (size 1.2 0.4) (layers "F.Cu" "F.Paste" "F.Mask") (tstamp f56e9142-8d5f-4640-9f26-bd00be6a1b28))
  (pad "46" smd rect (at 4.7 -6.0325) (size 1.2 0.4) (layers "F.Cu" "F.Paste" "F.Mask") (tstamp 9bc73532-4838-4e54-b939-c9dc6c095dc2))
  (pad "47" smd rect (at 4.7 -6.6675) (size 1.2 0.4) (layers "F.Cu" "F.Paste" "F.Mask") (tstamp 26dd6789-a7c6-44af-97d5-6dc3be3baf31))
  (pad "48" smd rect (at 4.7 -7.3025) (size 1.2 0.4) (layers "F.Cu" "F.Paste" "F.Mask") (tstamp e32050f8-ba55-4cd9-ad33-f34655a465f3))
  (model "${KICAD6_3DMODEL_DIR}/Package_SO.3dshapes/SSOP-48_7.5x15.9mm_P0.635mm.wrl"
    (offset (xyz 0 0 0))
    (scale (xyz 1 1 1))
    (rotate (xyz 0 0 0))
  )
)
