(footprint "ST_PowerSSO-36_SlugDown" (version 20221018) (generator pcbnew)
  (layer "F.Cu")
  (descr "ST PowerSSO-36 1EP 7.5x10.3mm Pitch 0.8mm [JEDEC MO-271] (http://www.st.com/resource/en/datasheet/tda7492p.pdf, http://freedatasheets.com/downloads/Technical%20Note%20Powersso24%20TN0054.pdf)")
  (tags "ST PowerSSO-36 1EP 7.5x10.3mm Pitch 0.8mm")
  (attr smd)
  (fp_text reference "REF**" (at 0 -6.1) (layer "F.SilkS")
      (effects (font (size 1 1) (thickness 0.15)))
    (tstamp c9c4a9e8-7e65-4595-a0c1-0c96503cfd51)
  )
  (fp_text value "ST_PowerSSO-36_SlugDown" (at 0 6.1) (layer "F.Fab")
      (effects (font (size 1 1) (thickness 0.15)))
    (tstamp 65147894-66d7-411d-88ce-3fa74a60f806)
  )
  (fp_text user "${REFERENCE}" (at 0 0) (layer "F.Fab")
      (effects (font (size 1 1) (thickness 0.15)))
    (tstamp cd3a0ec6-aa9f-4009-b84e-317d66965302)
  )
  (fp_line (start -3.85 -5.25) (end -3.85 -4.7)
    (stroke (width 0.12) (type solid)) (layer "F.SilkS") (tstamp 7a4789dc-fce5-47b7-bb7c-f90d4547ab9c))
  (fp_line (start -3.85 -4.7) (end -5.55 -4.7)
    (stroke (width 0.12) (type solid)) (layer "F.SilkS") (tstamp 3360ee73-1cbc-4694-b80f-ace4713e553f))
  (fp_line (start -3.85 5.25) (end -3.85 4.7)
    (stroke (width 0.12) (type solid)) (layer "F.SilkS") (tstamp a546322f-2490-4d89-9bb3-31b28fc2724d))
  (fp_line (start -3.75 -5.25) (end -3.85 -5.25)
    (stroke (width 0.12) (type solid)) (layer "F.SilkS") (tstamp 487631ff-260b-4466-a639-6a46da8e389c))
  (fp_line (start 3.75 -5.25) (end 3.85 -5.25)
    (stroke (width 0.12) (type solid)) (layer "F.SilkS") (tstamp 39a49b7f-91d9-4245-9ba0-bcd0d8ea7158))
  (fp_line (start 3.75 5.25) (end 3.85 5.25)
    (stroke (width 0.12) (type solid)) (layer "F.SilkS") (tstamp d32711a5-36d0-4e8b-ac24-2fc27b81fd26))
  (fp_line (start 3.85 -5.25) (end -3.85 -5.25)
    (stroke (width 0.12) (type solid)) (layer "F.SilkS") (tstamp a5d40469-6088-47d9-9c90-ba94cb98cb0e))
  (fp_line (start 3.85 -5.25) (end 3.85 -4.7)
    (stroke (width 0.12) (type solid)) (layer "F.SilkS") (tstamp 10016e09-70a7-4f4a-9cac-bb15c6f9cfa3))
  (fp_line (start 3.85 5.25) (end -3.85 5.25)
    (stroke (width 0.12) (type solid)) (layer "F.SilkS") (tstamp 69009162-9da0-494d-9652-703e4fe489e4))
  (fp_line (start 3.85 5.25) (end 3.85 4.7)
    (stroke (width 0.12) (type solid)) (layer "F.SilkS") (tstamp 62521949-1d39-43b1-ae3e-9768965d80b9))
  (fp_line (start -6.04 -5.4) (end -6.04 5.4)
    (stroke (width 0.05) (type solid)) (layer "F.CrtYd") (tstamp d4364b90-2e4d-434c-b201-92e69f414033))
  (fp_line (start -6.04 -5.4) (end 6.04 -5.4)
    (stroke (width 0.05) (type solid)) (layer "F.CrtYd") (tstamp 283add48-9efe-4a68-b4ed-9767e79ce0bd))
  (fp_line (start 6.04 5.4) (end -6.04 5.4)
    (stroke (width 0.05) (type solid)) (layer "F.CrtYd") (tstamp 233c352f-2276-41c6-a54d-b5f76dd86309))
  (fp_line (start 6.04 5.4) (end 6.04 -5.4)
    (stroke (width 0.05) (type solid)) (layer "F.CrtYd") (tstamp b727d518-8ba1-41dd-bfbb-78ffb09a52ff))
  (fp_line (start -3.75 -4.15) (end -3.75 5.15)
    (stroke (width 0.1) (type solid)) (layer "F.Fab") (tstamp 3f648d72-97f5-49e6-ba13-a7806f24175d))
  (fp_line (start -3.75 5.15) (end 3.75 5.15)
    (stroke (width 0.1) (type solid)) (layer "F.Fab") (tstamp df985143-8940-4b5e-bc03-36fbd79f0a7e))
  (fp_line (start -2.75 -5.15) (end -3.75 -4.15)
    (stroke (width 0.1) (type solid)) (layer "F.Fab") (tstamp 8cbb7fc1-09c0-47c2-a9fa-1d18d9bf7cfd))
  (fp_line (start 3.75 -5.15) (end -2.75 -5.15)
    (stroke (width 0.1) (type solid)) (layer "F.Fab") (tstamp 6572b038-2ab4-4c92-8243-1da6a2741f4f))
  (fp_line (start 3.75 5.15) (end 3.75 -5.15)
    (stroke (width 0.1) (type solid)) (layer "F.Fab") (tstamp 51528115-727a-4ae2-9593-aa2412763df3))
  (pad "1" smd rect (at -4.9325 -4.25) (size 1.7 0.35) (layers "F.Cu" "F.Paste" "F.Mask") (tstamp 15943112-1772-403d-8485-0114c2c1d360))
  (pad "2" smd rect (at -4.9325 -3.75) (size 1.7 0.35) (layers "F.Cu" "F.Paste" "F.Mask") (tstamp 8e9e9384-587a-4546-9c8f-f3fdeca89e69))
  (pad "3" smd rect (at -4.9325 -3.25) (size 1.7 0.35) (layers "F.Cu" "F.Paste" "F.Mask") (tstamp b2b95623-9c4a-4933-a895-cdbac9f9b600))
  (pad "4" smd rect (at -4.9325 -2.75) (size 1.7 0.35) (layers "F.Cu" "F.Paste" "F.Mask") (tstamp 22b1317c-ee58-4ff2-a04f-977a6f0c832c))
  (pad "5" smd rect (at -4.9325 -2.25) (size 1.7 0.35) (layers "F.Cu" "F.Paste" "F.Mask") (tstamp 6ffeb780-99c3-4219-83f7-bfcab0e5c3cc))
  (pad "6" smd rect (at -4.9325 -1.75) (size 1.7 0.35) (layers "F.Cu" "F.Paste" "F.Mask") (tstamp c83283c1-6c14-4976-a875-1722b7ec54c0))
  (pad "7" smd rect (at -4.9325 -1.25) (size 1.7 0.35) (layers "F.Cu" "F.Paste" "F.Mask") (tstamp 29cb4e7b-9048-4ad1-86fe-94fb249e139b))
  (pad "8" smd rect (at -4.9325 -0.75) (size 1.7 0.35) (layers "F.Cu" "F.Paste" "F.Mask") (tstamp 14225b97-451f-49c0-96f5-84d4e9a05a26))
  (pad "9" smd rect (at -4.9325 -0.25) (size 1.7 0.35) (layers "F.Cu" "F.Paste" "F.Mask") (tstamp 29ba1ade-4c8f-473f-bf4f-52484ebef478))
  (pad "10" smd rect (at -4.9325 0.25) (size 1.7 0.35) (layers "F.Cu" "F.Paste" "F.Mask") (tstamp 4bb48884-77cd-47d8-8ab3-bc8fecca2c3b))
  (pad "11" smd rect (at -4.9325 0.75) (size 1.7 0.35) (layers "F.Cu" "F.Paste" "F.Mask") (tstamp 1abd1c93-ff38-4308-8bce-3244e2970dbd))
  (pad "12" smd rect (at -4.9325 1.25) (size 1.7 0.35) (layers "F.Cu" "F.Paste" "F.Mask") (tstamp 182745e3-546c-4c7d-b23f-ada1f1b29ef5))
  (pad "13" smd rect (at -4.9325 1.75) (size 1.7 0.35) (layers "F.Cu" "F.Paste" "F.Mask") (tstamp 0415797e-90d7-4bde-9d53-f8c7c4838572))
  (pad "14" smd rect (at -4.9325 2.25) (size 1.7 0.35) (layers "F.Cu" "F.Paste" "F.Mask") (tstamp 4a0bed47-b244-4708-bc85-cd27f85971fe))
  (pad "15" smd rect (at -4.9325 2.75) (size 1.7 0.35) (layers "F.Cu" "F.Paste" "F.Mask") (tstamp 2cc05e64-6f91-4d40-9da5-1234f7a583a2))
  (pad "16" smd rect (at -4.9325 3.25) (size 1.7 0.35) (layers "F.Cu" "F.Paste" "F.Mask") (tstamp fa475f1e-833d-40fb-aaf4-d966601bcd9b))
  (pad "17" smd rect (at -4.9325 3.75) (size 1.7 0.35) (layers "F.Cu" "F.Paste" "F.Mask") (tstamp 221cc4e8-b5ea-4803-b06b-d3283bfe1977))
  (pad "18" smd rect (at -4.9325 4.25) (size 1.7 0.35) (layers "F.Cu" "F.Paste" "F.Mask") (tstamp d25595e8-1a94-4ea1-b478-27bd3a296d9a))
  (pad "19" smd rect (at 4.9325 4.25) (size 1.7 0.35) (layers "F.Cu" "F.Paste" "F.Mask") (tstamp 34b407f9-dda1-4ecf-af5c-321530ab8046))
  (pad "20" smd rect (at 4.9325 3.75) (size 1.7 0.35) (layers "F.Cu" "F.Paste" "F.Mask") (tstamp 1feaecb0-0dc4-4d6b-8afc-7278594c7b78))
  (pad "21" smd rect (at 4.9325 3.25) (size 1.7 0.35) (layers "F.Cu" "F.Paste" "F.Mask") (tstamp 6bc0b07b-a789-44a8-acc6-15d36a4133f4))
  (pad "22" smd rect (at 4.9325 2.75) (size 1.7 0.35) (layers "F.Cu" "F.Paste" "F.Mask") (tstamp b4146e99-9e2c-439e-83a3-8e7dbbf6eea5))
  (pad "23" smd rect (at 4.9325 2.25) (size 1.7 0.35) (layers "F.Cu" "F.Paste" "F.Mask") (tstamp b851c0d2-ff83-4e2b-9f2c-1a227e737858))
  (pad "24" smd rect (at 4.9325 1.75) (size 1.7 0.35) (layers "F.Cu" "F.Paste" "F.Mask") (tstamp be635fac-4d30-47c3-ac73-1c3a0ce1e226))
  (pad "25" smd rect (at 4.9325 1.25) (size 1.7 0.35) (layers "F.Cu" "F.Paste" "F.Mask") (tstamp 9ece6133-3c92-47a9-af6b-4991a7318982))
  (pad "26" smd rect (at 4.9325 0.75) (size 1.7 0.35) (layers "F.Cu" "F.Paste" "F.Mask") (tstamp 4d3f6092-c4da-4e8c-8e3d-da8dc3c0842e))
  (pad "27" smd rect (at 4.9325 0.25) (size 1.7 0.35) (layers "F.Cu" "F.Paste" "F.Mask") (tstamp 9a5a9c97-cef6-4b35-8184-0e05e5a0b86b))
  (pad "28" smd rect (at 4.9325 -0.25) (size 1.7 0.35) (layers "F.Cu" "F.Paste" "F.Mask") (tstamp 49a0f1a2-0740-4138-aa9c-25d89a7e2d89))
  (pad "29" smd rect (at 4.9325 -0.75) (size 1.7 0.35) (layers "F.Cu" "F.Paste" "F.Mask") (tstamp fa922f6c-6549-4487-8840-2a8a056b3717))
  (pad "30" smd rect (at 4.9325 -1.25) (size 1.7 0.35) (layers "F.Cu" "F.Paste" "F.Mask") (tstamp 743e2da3-c103-458c-b73f-252bdc23b0d0))
  (pad "31" smd rect (at 4.9325 -1.75) (size 1.7 0.35) (layers "F.Cu" "F.Paste" "F.Mask") (tstamp 5d3926c2-4a7f-4527-b2cb-482e58ce529f))
  (pad "32" smd rect (at 4.9325 -2.25) (size 1.7 0.35) (layers "F.Cu" "F.Paste" "F.Mask") (tstamp 84c09fbb-9a28-4811-ac4e-39cbfacd76d5))
  (pad "33" smd rect (at 4.9325 -2.75) (size 1.7 0.35) (layers "F.Cu" "F.Paste" "F.Mask") (tstamp 1e9427df-af8b-4d4f-8ec1-34184e2b1376))
  (pad "34" smd rect (at 4.9325 -3.25) (size 1.7 0.35) (layers "F.Cu" "F.Paste" "F.Mask") (tstamp 57876c21-da28-4e3f-81b4-e970f74b5b85))
  (pad "35" smd rect (at 4.9325 -3.75) (size 1.7 0.35) (layers "F.Cu" "F.Paste" "F.Mask") (tstamp 293b9162-0648-4e7d-adca-a5f5bc010ad2))
  (pad "36" smd rect (at 4.9325 -4.25) (size 1.7 0.35) (layers "F.Cu" "F.Paste" "F.Mask") (tstamp c5fe16e6-bfa3-4a4d-b9ca-b6b2adcd3b39))
  (pad "37" smd rect (at 0 0) (size 5.2 7.5) (layers "F.Cu" "F.Paste" "F.Mask") (tstamp 4836dcfe-d434-4f5e-a6e3-883061b854dc))
  (model "${KICAD6_3DMODEL_DIR}/Package_SO.3dshapes/ST_PowerSSO-36_SlugDown.wrl"
    (offset (xyz 0 0 0))
    (scale (xyz 1 1 1))
    (rotate (xyz 0 0 0))
  )
)
