(footprint "VSONP-8-1EP_5x6_P1.27mm" (version 20221018) (generator pcbnew)
  (layer "F.Cu")
  (descr "SON, 8-Leads, Body 5x6x1mm, Pitch 1.27mm; (see Texas Instruments CSD18531Q5A http://www.ti.com/lit/ds/symlink/csd18531q5a.pdf)")
  (tags "VSONP 1.27")
  (attr smd)
  (fp_text reference "REF**" (at 0 -3.4) (layer "F.SilkS")
      (effects (font (size 1 1) (thickness 0.15)))
    (tstamp ee8b2066-aa95-4fdc-bbd3-bf2df53dbc84)
  )
  (fp_text value "VSONP-8-1EP_5x6_P1.27mm" (at 0 3.4) (layer "F.Fab")
      (effects (font (size 1 1) (thickness 0.15)))
    (tstamp 37aef8f9-922f-4356-b91c-51cd83cf0c8e)
  )
  (fp_text user "${REFERENCE}" (at 0 0) (layer "F.Fab")
      (effects (font (size 1 1) (thickness 0.15)))
    (tstamp 336c2839-4971-4ee4-9bcb-9267b269fe13)
  )
  (fp_line (start 2.4 -2.6) (end -3.2 -2.6)
    (stroke (width 0.12) (type solid)) (layer "F.SilkS") (tstamp 3c82ce47-bcd1-4e58-a557-42f6c0fd6e5a))
  (fp_line (start 2.4 2.6) (end -2.4 2.6)
    (stroke (width 0.12) (type solid)) (layer "F.SilkS") (tstamp d613162c-9d73-456d-806d-764804b38577))
  (fp_line (start -3.4 -2.7) (end 3.4 -2.7)
    (stroke (width 0.05) (type solid)) (layer "F.CrtYd") (tstamp 7c18df1c-6ea5-4a68-a009-7302c5232c79))
  (fp_line (start -3.4 2.7) (end -3.4 -2.7)
    (stroke (width 0.05) (type solid)) (layer "F.CrtYd") (tstamp 1cae4f31-6967-4196-9d70-f8dad23f541d))
  (fp_line (start 3.4 -2.7) (end 3.4 2.7)
    (stroke (width 0.05) (type solid)) (layer "F.CrtYd") (tstamp e1481af0-71b4-4e67-9e58-b988427727f3))
  (fp_line (start 3.4 2.7) (end -3.4 2.7)
    (stroke (width 0.05) (type solid)) (layer "F.CrtYd") (tstamp ac82012c-add4-4715-9f17-2f012f0ebc09))
  (fp_line (start -3 -1.45) (end -3 2.45)
    (stroke (width 0.1) (type solid)) (layer "F.Fab") (tstamp fd96cf09-7fe7-459d-bc54-65e50fa88123))
  (fp_line (start -2 -2.45) (end -3 -1.45)
    (stroke (width 0.1) (type solid)) (layer "F.Fab") (tstamp 62c80152-f75b-4c49-b839-71d9fe1180de))
  (fp_line (start -2 -2.45) (end 3 -2.45)
    (stroke (width 0.1) (type solid)) (layer "F.Fab") (tstamp fc8669f0-bd7e-480f-aaed-c51e3a9d48d3))
  (fp_line (start 3 -2.45) (end 3 2.45)
    (stroke (width 0.1) (type solid)) (layer "F.Fab") (tstamp 3b1128cf-413b-47d1-bedd-bd02c26c8031))
  (fp_line (start 3 2.45) (end -3 2.45)
    (stroke (width 0.1) (type solid)) (layer "F.Fab") (tstamp 5a594b36-f714-4392-83b7-66999dfd283e))
  (pad "" smd rect (at -0.7975 -1.095) (size 1.235 1.57) (layers "F.Paste") (tstamp 147b81b5-0bbb-4485-b4b5-9e71b722c0ad))
  (pad "" smd rect (at -0.7975 1.095) (size 1.235 1.57) (layers "F.Paste") (tstamp 9ef2c6b0-fd73-405e-b5c2-1080fcf82566))
  (pad "" smd rect (at 1.1125 -1.095) (size 1.585 1.57) (layers "F.Paste") (tstamp 0fb5ef10-68b8-4c51-8a34-419d2d7c87d8))
  (pad "" smd rect (at 1.1125 1.095) (size 1.585 1.57) (layers "F.Paste") (tstamp c23707cf-20c6-4922-9bbb-97794d4b363d))
  (pad "1" smd rect (at -2.8 -1.905) (size 0.7 0.7) (layers "F.Cu" "F.Paste" "F.Mask")
    (solder_paste_margin_ratio -0.15) (tstamp bb4c6aec-5b93-4620-b8cc-755bdd6239dd))
  (pad "1" smd rect (at -2.8 -0.635) (size 0.7 0.7) (layers "F.Cu" "F.Paste" "F.Mask")
    (solder_paste_margin_ratio -0.15) (tstamp b021ac8f-d260-47f4-8a1b-7c80f54e5b9f))
  (pad "1" smd rect (at -2.8 0.635) (size 0.7 0.7) (layers "F.Cu" "F.Paste" "F.Mask")
    (solder_paste_margin_ratio -0.15) (tstamp c400d2c5-896a-4fe6-991d-8f2da8faf9e9))
  (pad "2" smd rect (at -2.8 1.905) (size 0.7 0.7) (layers "F.Cu" "F.Paste" "F.Mask")
    (solder_paste_margin_ratio -0.15) (tstamp 3561d2ea-6804-4d98-ab65-55a01c2dfb41))
  (pad "3" smd rect (at 0.33 0) (size 4.35 4.51) (layers "F.Cu" "F.Mask")
    (solder_paste_margin_ratio -0.5) (tstamp 5b5eea71-2e09-4c88-98b9-4fca6760aa31))
  (pad "3" smd rect (at 2.8 -1.905) (size 0.7 0.7) (layers "F.Cu" "F.Paste" "F.Mask")
    (solder_paste_margin_ratio -0.15) (tstamp 524b4e05-74b8-42ad-96d4-379c97ab9b54))
  (pad "3" smd rect (at 2.8 -0.635) (size 0.7 0.7) (layers "F.Cu" "F.Paste" "F.Mask")
    (solder_paste_margin_ratio -0.15) (tstamp 2b465dd1-2faf-468e-80bf-2d79b92a3a29))
  (pad "3" smd rect (at 2.8 0.635) (size 0.7 0.7) (layers "F.Cu" "F.Paste" "F.Mask")
    (solder_paste_margin_ratio -0.15) (tstamp e199d6b4-0cdf-417c-b04d-b7a49dbbe062))
  (pad "3" smd rect (at 2.8 1.905) (size 0.7 0.7) (layers "F.Cu" "F.Paste" "F.Mask")
    (solder_paste_margin_ratio -0.15) (tstamp a3fe726e-d9d2-4586-b39f-5a6a8b235bbe))
  (model "${KICAD6_3DMODEL_DIR}/Package_SON.3dshapes/VSONP-8-1EP_5x6_P1.27mm.wrl"
    (offset (xyz 0 0 0))
    (scale (xyz 1 1 1))
    (rotate (xyz 0 0 0))
  )
)
