(footprint "WSON-12-1EP_3x2mm_P0.5mm_EP1x2.65_ThermalVias" (version 20221018) (generator pcbnew)
  (layer "F.Cu")
  (descr "WSON-12 http://www.ti.com/lit/ds/symlink/lm27762.pdf")
  (tags "WSON-12")
  (attr smd)
  (fp_text reference "REF**" (at 0.635 -2.667) (layer "F.SilkS")
      (effects (font (size 1 1) (thickness 0.15)))
    (tstamp f2cd8487-ae59-4a3a-a258-f0726cbbf9b2)
  )
  (fp_text value "WSON-12-1EP_3x2mm_P0.5mm_EP1x2.65_ThermalVias" (at 0 2.921) (layer "F.Fab")
      (effects (font (size 1 1) (thickness 0.15)))
    (tstamp bf024c4c-4efa-4bed-8e0c-942a67d8fb1c)
  )
  (fp_text user "${REFERENCE}" (at 0 -0.25 90) (layer "F.Fab")
      (effects (font (size 0.5 0.5) (thickness 0.05)))
    (tstamp 21aedc35-d561-4f20-a4c2-38da6b6ec9c8)
  )
  (fp_line (start -1.7 -2) (end -0.5 -2)
    (stroke (width 0.12) (type solid)) (layer "F.SilkS") (tstamp 249b8469-9b37-4c27-8e5e-82475e6769ff))
  (fp_line (start -1.7 -0.5) (end -1.7 -2)
    (stroke (width 0.12) (type solid)) (layer "F.SilkS") (tstamp 2891d69e-bb9a-4a72-9d36-d39afffd95eb))
  (fp_line (start -1.25 -1.62) (end 1.12 -1.62)
    (stroke (width 0.12) (type solid)) (layer "F.SilkS") (tstamp 55a4409b-5b2d-457b-8c00-a0776d8153e2))
  (fp_line (start 0.5 1.62) (end -0.5 1.62)
    (stroke (width 0.12) (type solid)) (layer "F.SilkS") (tstamp 07b5828f-23f0-462f-9ef2-226cf32b6044))
  (fp_line (start -1.45 -1.75) (end 1.45 -1.75)
    (stroke (width 0.05) (type solid)) (layer "F.CrtYd") (tstamp 32648fbd-e368-4324-b13f-7719a7e0e16c))
  (fp_line (start -1.45 1.75) (end -1.45 -1.75)
    (stroke (width 0.05) (type solid)) (layer "F.CrtYd") (tstamp 42bd494c-f22b-4125-a291-666b4bd913c5))
  (fp_line (start 1.45 -1.75) (end 1.45 1.75)
    (stroke (width 0.05) (type solid)) (layer "F.CrtYd") (tstamp d397d9bc-4758-4b8d-8470-7bb161d0b6d1))
  (fp_line (start 1.45 1.75) (end -1.45 1.75)
    (stroke (width 0.05) (type solid)) (layer "F.CrtYd") (tstamp 001b2f8f-938a-4ada-9996-90e1407f3210))
  (fp_line (start -1 -1) (end -0.5 -1.5)
    (stroke (width 0.1) (type solid)) (layer "F.Fab") (tstamp 568ff412-177e-482e-ba9a-a2c2a37342c6))
  (fp_line (start -1 1.5) (end -1 -1)
    (stroke (width 0.1) (type solid)) (layer "F.Fab") (tstamp 662a858a-b08e-4929-9285-07ac5162d3fc))
  (fp_line (start -0.5 -1.5) (end 1 -1.5)
    (stroke (width 0.1) (type solid)) (layer "F.Fab") (tstamp 482bbba8-363b-4630-a256-58b0cb418bfd))
  (fp_line (start 1 -1.5) (end 1 1.5)
    (stroke (width 0.1) (type solid)) (layer "F.Fab") (tstamp 24f6e710-bde4-4371-9bc2-e445dbe89de0))
  (fp_line (start 1 1.5) (end -1 1.5)
    (stroke (width 0.1) (type solid)) (layer "F.Fab") (tstamp faeb74f4-7347-43b7-bfa8-8d2fc2977376))
  (pad "" smd rect (at 0 -0.5) (size 0.95 0.8) (layers "F.Paste") (tstamp 52490879-7df4-4afb-8334-5058c20c169d))
  (pad "" smd rect (at 0 0.5) (size 0.95 0.8) (layers "F.Paste") (tstamp 6fdbc6de-7ae5-4d6e-9715-43e79fdabca1))
  (pad "1" smd rect (at -0.95 -1.25) (size 0.5 0.25) (layers "F.Cu" "F.Paste" "F.Mask") (tstamp c759dd84-5044-4f31-8441-fb50e30c3612))
  (pad "2" smd rect (at -0.95 -0.75) (size 0.5 0.25) (layers "F.Cu" "F.Paste" "F.Mask") (tstamp e4dba167-7ab2-4997-9bab-2184cef92d45))
  (pad "3" smd rect (at -0.95 -0.25) (size 0.5 0.25) (layers "F.Cu" "F.Paste" "F.Mask") (tstamp 309d32a4-d138-434f-b3e5-5566ecc6a4e5))
  (pad "4" smd rect (at -0.95 0.25) (size 0.5 0.25) (layers "F.Cu" "F.Paste" "F.Mask") (tstamp 7d116030-61a7-4536-a396-328d0b617a02))
  (pad "5" smd rect (at -0.95 0.75) (size 0.5 0.25) (layers "F.Cu" "F.Paste" "F.Mask") (tstamp 8e81861b-abca-4711-9057-6eed82ac0a37))
  (pad "6" smd rect (at -0.95 1.25) (size 0.5 0.25) (layers "F.Cu" "F.Paste" "F.Mask") (tstamp 76fc63db-6443-4828-be97-f3dd8a951db0))
  (pad "7" smd rect (at 0.95 1.25) (size 0.5 0.25) (layers "F.Cu" "F.Paste" "F.Mask") (tstamp e0b8aec3-d206-404b-9ae8-5e624bd6c73f))
  (pad "8" smd rect (at 0.95 0.75) (size 0.5 0.25) (layers "F.Cu" "F.Paste" "F.Mask") (tstamp a7b88e6c-9be8-4b79-9607-33ca1544922c))
  (pad "9" smd rect (at 0.95 0.25) (size 0.5 0.25) (layers "F.Cu" "F.Paste" "F.Mask") (tstamp fe81cdd1-3d91-48e9-8d36-3e16204d8dc1))
  (pad "10" smd rect (at 0.95 -0.25) (size 0.5 0.25) (layers "F.Cu" "F.Paste" "F.Mask") (tstamp 0c4e30c8-5b83-471d-bb5e-b95b41e508de))
  (pad "11" smd rect (at 0.95 -0.75) (size 0.5 0.25) (layers "F.Cu" "F.Paste" "F.Mask") (tstamp a5e749e7-8e23-4b05-bc6a-e3a8488f5a24))
  (pad "12" smd rect (at 0.95 -1.25) (size 0.5 0.25) (layers "F.Cu" "F.Paste" "F.Mask") (tstamp 2d912874-7b63-46b4-ac0e-cad1b6360dc9))
  (pad "13" thru_hole circle (at 0 -1 90) (size 0.6 0.6) (drill 0.3) (layers "*.Cu") (tstamp 8b7dfb3f-627a-4eac-9ad4-eaf5e10a3d61))
  (pad "13" thru_hole circle (at 0 0) (size 0.6 0.6) (drill 0.3) (layers "*.Cu") (tstamp a1b76f5f-43fd-4bee-a813-7eaf2f2129ec))
  (pad "13" smd rect (at 0 0) (size 1 2.65) (layers "F.Cu" "F.Mask") (tstamp fcf6c2f5-d057-463d-a78e-ef52ac055f24))
  (pad "13" smd rect (at 0 0) (size 1 2.65) (layers "B.Cu") (tstamp 35d2ac00-261f-498f-80e1-68fe212cd185))
  (pad "13" thru_hole circle (at 0 1) (size 0.6 0.6) (drill 0.3) (layers "*.Cu") (tstamp ba6b4e16-6e28-45b8-8793-315d94f542d2))
  (model "${KICAD6_3DMODEL_DIR}/Package_SON.3dshapes/WSON-12-1EP_3x2mm_P0.5mm_EP1x2.65.wrl"
    (offset (xyz 0 0 0))
    (scale (xyz 1 1 1))
    (rotate (xyz 0 0 0))
  )
)
