(footprint "BGA-256_14.0x14.0mm_Layout16x16_P0.8mm_Ball0.45mm_Pad0.32mm_NSMD" (version 20221018) (generator pcbnew)
  (layer "F.Cu")
  (descr "BGA-256, dimensions: https://www.xilinx.com/support/documentation/package_specs/ft256.pdf, design rules: https://www.xilinx.com/support/documentation/user_guides/ug1099-bga-device-design-rules.pdf")
  (tags "BGA-256")
  (solder_mask_margin 0.075)
  (attr smd)
  (fp_text reference "REF**" (at 0 -8.2) (layer "F.SilkS")
      (effects (font (size 1 1) (thickness 0.15)))
    (tstamp 6dcd66b1-67a4-4af9-a53e-fe919033e965)
  )
  (fp_text value "BGA-256_14.0x14.0mm_Layout16x16_P0.8mm_Ball0.45mm_Pad0.32mm_NSMD" (at 0 8.2) (layer "F.Fab")
      (effects (font (size 1 1) (thickness 0.15)))
    (tstamp af7f2a6d-5fc0-455c-a313-6bb74d898bb4)
  )
  (fp_text user "${REFERENCE}" (at 0 0) (layer "F.Fab")
      (effects (font (size 1 1) (thickness 0.15)))
    (tstamp bb84c00d-1f30-431d-b7f0-83fcfef6785e)
  )
  (fp_line (start -7.3 -7.3) (end -7.3 -6.6)
    (stroke (width 0.12) (type solid)) (layer "F.SilkS") (tstamp 9988cd27-b795-46c3-9b6a-218fab5c8592))
  (fp_line (start -7.1 -7.1) (end -7.1 7.1)
    (stroke (width 0.12) (type solid)) (layer "F.SilkS") (tstamp 689b6704-6e6b-42b4-8db2-fda52cb65900))
  (fp_line (start -7.1 7.1) (end 7.1 7.1)
    (stroke (width 0.12) (type solid)) (layer "F.SilkS") (tstamp 5a20d3f9-ca19-43e1-97c5-aa6e088b2373))
  (fp_line (start -6.6 -7.3) (end -7.3 -7.3)
    (stroke (width 0.12) (type solid)) (layer "F.SilkS") (tstamp 111e2398-ab59-4702-9809-c230e77b024b))
  (fp_line (start 7.1 -7.1) (end -7.1 -7.1)
    (stroke (width 0.12) (type solid)) (layer "F.SilkS") (tstamp 96cfdf05-a23b-47f4-ae57-d75c00ba68a3))
  (fp_line (start 7.1 7.1) (end 7.1 -7.1)
    (stroke (width 0.12) (type solid)) (layer "F.SilkS") (tstamp d6f22fe5-9016-4e25-b009-540cb5322ad7))
  (fp_line (start -8 -8) (end -8 8)
    (stroke (width 0.05) (type solid)) (layer "F.CrtYd") (tstamp 993ed70f-9471-47db-bdcb-1dcea4ab1125))
  (fp_line (start -8 -8) (end 8 -8)
    (stroke (width 0.05) (type solid)) (layer "F.CrtYd") (tstamp 5393f3d8-eb15-424d-bc77-6dc514fd2a91))
  (fp_line (start 8 8) (end -8 8)
    (stroke (width 0.05) (type solid)) (layer "F.CrtYd") (tstamp 7c623e84-7d62-467b-b1f0-24861b699925))
  (fp_line (start 8 8) (end 8 -8)
    (stroke (width 0.05) (type solid)) (layer "F.CrtYd") (tstamp a22ab87f-4b65-47fd-ad29-c2aa93e50ffd))
  (fp_line (start -7 -6) (end -7 7)
    (stroke (width 0.1) (type solid)) (layer "F.Fab") (tstamp bf015d4e-8e4e-48a7-9824-c61744c77b4a))
  (fp_line (start -7 7) (end 7 7)
    (stroke (width 0.1) (type solid)) (layer "F.Fab") (tstamp 64e372dd-30c5-4733-a159-aef82919c216))
  (fp_line (start -6 -7) (end -7 -6)
    (stroke (width 0.1) (type solid)) (layer "F.Fab") (tstamp b19ed015-6a00-46d8-aed1-e9f4bfe4662f))
  (fp_line (start 7 -7) (end -6 -7)
    (stroke (width 0.1) (type solid)) (layer "F.Fab") (tstamp 0b1d8c2c-c2dc-4321-b4cc-cfb63ab43a1b))
  (fp_line (start 7 7) (end 7 -7)
    (stroke (width 0.1) (type solid)) (layer "F.Fab") (tstamp ebe5a0d8-250b-4510-9d0c-3d85d2801eb3))
  (pad "A1" smd circle (at -6 -6) (size 0.32 0.32) (layers "F.Cu" "F.Paste" "F.Mask") (tstamp 78d4ff48-0547-44b8-b4de-4db9e40610ff))
  (pad "A2" smd circle (at -5.2 -6) (size 0.32 0.32) (layers "F.Cu" "F.Paste" "F.Mask") (tstamp 4c5cff01-a27e-45a1-a3f8-b70c79af10e2))
  (pad "A3" smd circle (at -4.4 -6) (size 0.32 0.32) (layers "F.Cu" "F.Paste" "F.Mask") (tstamp d5c4b489-3243-4444-8ad1-b1f94209a1ff))
  (pad "A4" smd circle (at -3.6 -6) (size 0.32 0.32) (layers "F.Cu" "F.Paste" "F.Mask") (tstamp 9ed7289b-8b8d-4fe4-ac60-ee89e6976af4))
  (pad "A5" smd circle (at -2.8 -6) (size 0.32 0.32) (layers "F.Cu" "F.Paste" "F.Mask") (tstamp ac7755b7-d5a3-43b1-a6ab-5f4fb56fe281))
  (pad "A6" smd circle (at -2 -6) (size 0.32 0.32) (layers "F.Cu" "F.Paste" "F.Mask") (tstamp 50e9a9f9-f479-4332-8489-aa1bfe65e7aa))
  (pad "A7" smd circle (at -1.2 -6) (size 0.32 0.32) (layers "F.Cu" "F.Paste" "F.Mask") (tstamp 26a0ea80-1763-4f1c-8e50-34c183a98414))
  (pad "A8" smd circle (at -0.4 -6) (size 0.32 0.32) (layers "F.Cu" "F.Paste" "F.Mask") (tstamp 11055a86-ba9d-4c13-9bc9-40846986d842))
  (pad "A9" smd circle (at 0.4 -6) (size 0.32 0.32) (layers "F.Cu" "F.Paste" "F.Mask") (tstamp 087ff2ef-aff3-4d7b-ac9f-7ed72dc0b3c0))
  (pad "A10" smd circle (at 1.2 -6) (size 0.32 0.32) (layers "F.Cu" "F.Paste" "F.Mask") (tstamp bf146475-3a0f-4a9b-8457-72932fd65976))
  (pad "A11" smd circle (at 2 -6) (size 0.32 0.32) (layers "F.Cu" "F.Paste" "F.Mask") (tstamp d7a2f50c-620c-46e7-96e3-95c07bfc8f6e))
  (pad "A12" smd circle (at 2.8 -6) (size 0.32 0.32) (layers "F.Cu" "F.Paste" "F.Mask") (tstamp 929e613c-827c-49e9-84bb-8a8fec85ea91))
  (pad "A13" smd circle (at 3.6 -6) (size 0.32 0.32) (layers "F.Cu" "F.Paste" "F.Mask") (tstamp 9728c35e-9cec-4aab-9b0e-906421cdb2e3))
  (pad "A14" smd circle (at 4.4 -6) (size 0.32 0.32) (layers "F.Cu" "F.Paste" "F.Mask") (tstamp 5bef0cfe-c460-4a52-8aec-bb7c384a4c14))
  (pad "A15" smd circle (at 5.2 -6) (size 0.32 0.32) (layers "F.Cu" "F.Paste" "F.Mask") (tstamp 54158c53-66bb-4885-b45e-d0804d02b26d))
  (pad "A16" smd circle (at 6 -6) (size 0.32 0.32) (layers "F.Cu" "F.Paste" "F.Mask") (tstamp 2e81c7a4-4938-435c-8466-6394f341d3e8))
  (pad "B1" smd circle (at -6 -5.2) (size 0.32 0.32) (layers "F.Cu" "F.Paste" "F.Mask") (tstamp 5da03441-258d-4749-95ae-28342dc98cc9))
  (pad "B2" smd circle (at -5.2 -5.2) (size 0.32 0.32) (layers "F.Cu" "F.Paste" "F.Mask") (tstamp 5b79dd76-0d62-48cd-9223-e36408979e45))
  (pad "B3" smd circle (at -4.4 -5.2) (size 0.32 0.32) (layers "F.Cu" "F.Paste" "F.Mask") (tstamp 9f310e2e-1c6d-4fba-98d5-79d07da5197b))
  (pad "B4" smd circle (at -3.6 -5.2) (size 0.32 0.32) (layers "F.Cu" "F.Paste" "F.Mask") (tstamp a43450d5-9f71-48c1-a6b0-8cab747e98b8))
  (pad "B5" smd circle (at -2.8 -5.2) (size 0.32 0.32) (layers "F.Cu" "F.Paste" "F.Mask") (tstamp 212a7251-1ddd-4ac7-a913-9060ad389c02))
  (pad "B6" smd circle (at -2 -5.2) (size 0.32 0.32) (layers "F.Cu" "F.Paste" "F.Mask") (tstamp c9f24fd6-c3d4-49d8-8ae4-5f317eb3cab0))
  (pad "B7" smd circle (at -1.2 -5.2) (size 0.32 0.32) (layers "F.Cu" "F.Paste" "F.Mask") (tstamp 698d48da-daa8-4472-bb65-07bc63b2e2de))
  (pad "B8" smd circle (at -0.4 -5.2) (size 0.32 0.32) (layers "F.Cu" "F.Paste" "F.Mask") (tstamp ebbdcb27-ced9-4e97-8abb-05d1d8575bbc))
  (pad "B9" smd circle (at 0.4 -5.2) (size 0.32 0.32) (layers "F.Cu" "F.Paste" "F.Mask") (tstamp f818fbc4-700e-4c47-bce5-6d3d9715e42b))
  (pad "B10" smd circle (at 1.2 -5.2) (size 0.32 0.32) (layers "F.Cu" "F.Paste" "F.Mask") (tstamp 75aa4ee2-2b59-43b8-90be-50c09fdb4c8e))
  (pad "B11" smd circle (at 2 -5.2) (size 0.32 0.32) (layers "F.Cu" "F.Paste" "F.Mask") (tstamp c5251afb-8002-49be-bd5f-2442e7a2ab28))
  (pad "B12" smd circle (at 2.8 -5.2) (size 0.32 0.32) (layers "F.Cu" "F.Paste" "F.Mask") (tstamp 7e15d9b0-62e9-43c1-a0b6-1821a841ba7b))
  (pad "B13" smd circle (at 3.6 -5.2) (size 0.32 0.32) (layers "F.Cu" "F.Paste" "F.Mask") (tstamp b6f47d82-f4c8-4568-80df-27d125242456))
  (pad "B14" smd circle (at 4.4 -5.2) (size 0.32 0.32) (layers "F.Cu" "F.Paste" "F.Mask") (tstamp 2bf5d7fa-a51c-4d76-91b7-0bafd5124b94))
  (pad "B15" smd circle (at 5.2 -5.2) (size 0.32 0.32) (layers "F.Cu" "F.Paste" "F.Mask") (tstamp 0eba9b2f-e9c9-47db-a68b-577583aa6a18))
  (pad "B16" smd circle (at 6 -5.2) (size 0.32 0.32) (layers "F.Cu" "F.Paste" "F.Mask") (tstamp 85b92339-3caf-4b58-b019-d6535cb5b50e))
  (pad "C1" smd circle (at -6 -4.4) (size 0.32 0.32) (layers "F.Cu" "F.Paste" "F.Mask") (tstamp dee3b532-a4b2-478f-9295-3f6325d9aaf3))
  (pad "C2" smd circle (at -5.2 -4.4) (size 0.32 0.32) (layers "F.Cu" "F.Paste" "F.Mask") (tstamp 2fc28593-5213-4fe1-ba53-6b89b57cba7c))
  (pad "C3" smd circle (at -4.4 -4.4) (size 0.32 0.32) (layers "F.Cu" "F.Paste" "F.Mask") (tstamp 568b57d4-3e51-4188-9d30-45eaf04a20b3))
  (pad "C4" smd circle (at -3.6 -4.4) (size 0.32 0.32) (layers "F.Cu" "F.Paste" "F.Mask") (tstamp b0bd5a2d-3f85-4c82-a771-94cd780acd7f))
  (pad "C5" smd circle (at -2.8 -4.4) (size 0.32 0.32) (layers "F.Cu" "F.Paste" "F.Mask") (tstamp 01141f98-fc52-478d-87b2-a8732d1b958e))
  (pad "C6" smd circle (at -2 -4.4) (size 0.32 0.32) (layers "F.Cu" "F.Paste" "F.Mask") (tstamp 92f5154e-409e-4ad6-821d-fa51d14641c1))
  (pad "C7" smd circle (at -1.2 -4.4) (size 0.32 0.32) (layers "F.Cu" "F.Paste" "F.Mask") (tstamp 8139f519-f68c-494f-a66f-81bba728e36d))
  (pad "C8" smd circle (at -0.4 -4.4) (size 0.32 0.32) (layers "F.Cu" "F.Paste" "F.Mask") (tstamp 30057153-14a3-4df9-95a6-40439e27b541))
  (pad "C9" smd circle (at 0.4 -4.4) (size 0.32 0.32) (layers "F.Cu" "F.Paste" "F.Mask") (tstamp ec32a216-0e75-4d27-8998-554b9d270e97))
  (pad "C10" smd circle (at 1.2 -4.4) (size 0.32 0.32) (layers "F.Cu" "F.Paste" "F.Mask") (tstamp 07c69c10-2f10-4f5c-9867-281d63980b75))
  (pad "C11" smd circle (at 2 -4.4) (size 0.32 0.32) (layers "F.Cu" "F.Paste" "F.Mask") (tstamp f42d7dd2-9517-406f-9abf-5bc47f4da0a4))
  (pad "C12" smd circle (at 2.8 -4.4) (size 0.32 0.32) (layers "F.Cu" "F.Paste" "F.Mask") (tstamp 0d3db465-39a0-482a-91fd-d17413c74b4f))
  (pad "C13" smd circle (at 3.6 -4.4) (size 0.32 0.32) (layers "F.Cu" "F.Paste" "F.Mask") (tstamp 3edf48b9-cfc7-4b92-9ae7-c629eac0d362))
  (pad "C14" smd circle (at 4.4 -4.4) (size 0.32 0.32) (layers "F.Cu" "F.Paste" "F.Mask") (tstamp 9b47a770-ed4b-4166-85a5-de2ef2783337))
  (pad "C15" smd circle (at 5.2 -4.4) (size 0.32 0.32) (layers "F.Cu" "F.Paste" "F.Mask") (tstamp 7160fec7-4958-46a8-b4ee-a7ef0fa8ab7f))
  (pad "C16" smd circle (at 6 -4.4) (size 0.32 0.32) (layers "F.Cu" "F.Paste" "F.Mask") (tstamp 4d6d7379-b65f-4f20-8040-cc4cd3ce3906))
  (pad "D1" smd circle (at -6 -3.6) (size 0.32 0.32) (layers "F.Cu" "F.Paste" "F.Mask") (tstamp 77ee3daa-df3d-41d0-beee-6094fea09f6b))
  (pad "D2" smd circle (at -5.2 -3.6) (size 0.32 0.32) (layers "F.Cu" "F.Paste" "F.Mask") (tstamp 81653146-586c-4cce-832a-c0a46fc5ad57))
  (pad "D3" smd circle (at -4.4 -3.6) (size 0.32 0.32) (layers "F.Cu" "F.Paste" "F.Mask") (tstamp efeca07c-7730-41a7-8b67-854b0c6fe5c2))
  (pad "D4" smd circle (at -3.6 -3.6) (size 0.32 0.32) (layers "F.Cu" "F.Paste" "F.Mask") (tstamp da261ec4-a138-45d6-9e89-45de830dde50))
  (pad "D5" smd circle (at -2.8 -3.6) (size 0.32 0.32) (layers "F.Cu" "F.Paste" "F.Mask") (tstamp c5989cd4-9157-4dfb-9ec0-9bba3ff6b31a))
  (pad "D6" smd circle (at -2 -3.6) (size 0.32 0.32) (layers "F.Cu" "F.Paste" "F.Mask") (tstamp ce9708d9-ee5d-4c43-bb89-b72ffcd0bccc))
  (pad "D7" smd circle (at -1.2 -3.6) (size 0.32 0.32) (layers "F.Cu" "F.Paste" "F.Mask") (tstamp 6fcca1b7-c922-42b1-a1b8-d59b75a0aba8))
  (pad "D8" smd circle (at -0.4 -3.6) (size 0.32 0.32) (layers "F.Cu" "F.Paste" "F.Mask") (tstamp b0f18af1-2fcc-4acf-b5dc-d50a725b5ddb))
  (pad "D9" smd circle (at 0.4 -3.6) (size 0.32 0.32) (layers "F.Cu" "F.Paste" "F.Mask") (tstamp 7321862e-aac3-451a-9f99-002a63f59b59))
  (pad "D10" smd circle (at 1.2 -3.6) (size 0.32 0.32) (layers "F.Cu" "F.Paste" "F.Mask") (tstamp 84a15085-710d-482e-a165-e36d272e0f38))
  (pad "D11" smd circle (at 2 -3.6) (size 0.32 0.32) (layers "F.Cu" "F.Paste" "F.Mask") (tstamp 2fe56217-98a1-47ed-b33a-70ce30d7b9c1))
  (pad "D12" smd circle (at 2.8 -3.6) (size 0.32 0.32) (layers "F.Cu" "F.Paste" "F.Mask") (tstamp f703a26a-9ae6-4f4e-8276-5c0e22938595))
  (pad "D13" smd circle (at 3.6 -3.6) (size 0.32 0.32) (layers "F.Cu" "F.Paste" "F.Mask") (tstamp bf0c723c-dd02-4c3e-a46c-eebbbd032186))
  (pad "D14" smd circle (at 4.4 -3.6) (size 0.32 0.32) (layers "F.Cu" "F.Paste" "F.Mask") (tstamp 18aeb3c4-4486-49a7-b472-cc577ebcb16f))
  (pad "D15" smd circle (at 5.2 -3.6) (size 0.32 0.32) (layers "F.Cu" "F.Paste" "F.Mask") (tstamp 6531d0a7-03ad-41f9-a442-66fc88027c36))
  (pad "D16" smd circle (at 6 -3.6) (size 0.32 0.32) (layers "F.Cu" "F.Paste" "F.Mask") (tstamp 1a715984-3cd9-4643-a6e6-d7801a430d8b))
  (pad "E1" smd circle (at -6 -2.8) (size 0.32 0.32) (layers "F.Cu" "F.Paste" "F.Mask") (tstamp 3168fc9f-d7f9-48c5-ac2d-26a2af2df81d))
  (pad "E2" smd circle (at -5.2 -2.8) (size 0.32 0.32) (layers "F.Cu" "F.Paste" "F.Mask") (tstamp 30dfbb7a-5046-47b9-9cf8-d0f69b0361d1))
  (pad "E3" smd circle (at -4.4 -2.8) (size 0.32 0.32) (layers "F.Cu" "F.Paste" "F.Mask") (tstamp 2ff98c12-e809-4cf3-8ec8-40ec882dd056))
  (pad "E4" smd circle (at -3.6 -2.8) (size 0.32 0.32) (layers "F.Cu" "F.Paste" "F.Mask") (tstamp e5879be5-9dda-47db-b68f-465f35b56c04))
  (pad "E5" smd circle (at -2.8 -2.8) (size 0.32 0.32) (layers "F.Cu" "F.Paste" "F.Mask") (tstamp c73d14ae-a312-42c6-a3d9-17fff996088e))
  (pad "E6" smd circle (at -2 -2.8) (size 0.32 0.32) (layers "F.Cu" "F.Paste" "F.Mask") (tstamp 95678c83-1837-4c53-b337-4a156034de47))
  (pad "E7" smd circle (at -1.2 -2.8) (size 0.32 0.32) (layers "F.Cu" "F.Paste" "F.Mask") (tstamp ee6ad366-33b3-473d-a474-e263a631ca38))
  (pad "E8" smd circle (at -0.4 -2.8) (size 0.32 0.32) (layers "F.Cu" "F.Paste" "F.Mask") (tstamp c2c881c7-bff0-498b-bd8d-ef5addfae133))
  (pad "E9" smd circle (at 0.4 -2.8) (size 0.32 0.32) (layers "F.Cu" "F.Paste" "F.Mask") (tstamp 9113dd77-9556-4063-af7f-97fe52077d1e))
  (pad "E10" smd circle (at 1.2 -2.8) (size 0.32 0.32) (layers "F.Cu" "F.Paste" "F.Mask") (tstamp dfc81b40-add7-44dd-be65-281453883c78))
  (pad "E11" smd circle (at 2 -2.8) (size 0.32 0.32) (layers "F.Cu" "F.Paste" "F.Mask") (tstamp 2ebc66ef-284d-4f58-a735-e6c906e1fe1e))
  (pad "E12" smd circle (at 2.8 -2.8) (size 0.32 0.32) (layers "F.Cu" "F.Paste" "F.Mask") (tstamp 0d838a21-5133-4b22-a3dc-af6b14a96b15))
  (pad "E13" smd circle (at 3.6 -2.8) (size 0.32 0.32) (layers "F.Cu" "F.Paste" "F.Mask") (tstamp 794dc1cc-d9af-43b6-aa42-baf9a3cb2779))
  (pad "E14" smd circle (at 4.4 -2.8) (size 0.32 0.32) (layers "F.Cu" "F.Paste" "F.Mask") (tstamp e71f6744-c04f-4f5e-a246-fe5bb6f491a6))
  (pad "E15" smd circle (at 5.2 -2.8) (size 0.32 0.32) (layers "F.Cu" "F.Paste" "F.Mask") (tstamp 3666e8d5-56dd-404b-b4dd-6b8257c1f9e5))
  (pad "E16" smd circle (at 6 -2.8) (size 0.32 0.32) (layers "F.Cu" "F.Paste" "F.Mask") (tstamp 512afca0-2a30-491a-b1ea-814c8f7b0085))
  (pad "F1" smd circle (at -6 -2) (size 0.32 0.32) (layers "F.Cu" "F.Paste" "F.Mask") (tstamp 6afee00a-e65b-4267-8fd0-ce8b6bbad7e4))
  (pad "F2" smd circle (at -5.2 -2) (size 0.32 0.32) (layers "F.Cu" "F.Paste" "F.Mask") (tstamp 046d0a23-3b8f-44f0-9ca0-7783a83a18ac))
  (pad "F3" smd circle (at -4.4 -2) (size 0.32 0.32) (layers "F.Cu" "F.Paste" "F.Mask") (tstamp 7b0ad93c-64af-4990-bb74-300ef307c9a6))
  (pad "F4" smd circle (at -3.6 -2) (size 0.32 0.32) (layers "F.Cu" "F.Paste" "F.Mask") (tstamp 16f84d63-02cf-4451-a79d-f25cfe77786c))
  (pad "F5" smd circle (at -2.8 -2) (size 0.32 0.32) (layers "F.Cu" "F.Paste" "F.Mask") (tstamp f5f69cd2-dee0-4f43-aae4-c8c687d0ec87))
  (pad "F6" smd circle (at -2 -2) (size 0.32 0.32) (layers "F.Cu" "F.Paste" "F.Mask") (tstamp b9076293-58fd-4be0-ad2b-e3138c82792b))
  (pad "F7" smd circle (at -1.2 -2) (size 0.32 0.32) (layers "F.Cu" "F.Paste" "F.Mask") (tstamp bdb7af22-78c9-4d5d-b8d5-15a230b4ec49))
  (pad "F8" smd circle (at -0.4 -2) (size 0.32 0.32) (layers "F.Cu" "F.Paste" "F.Mask") (tstamp 21e06707-6ea8-4339-b2e9-f17f52c1d209))
  (pad "F9" smd circle (at 0.4 -2) (size 0.32 0.32) (layers "F.Cu" "F.Paste" "F.Mask") (tstamp 197b87db-4f57-4a51-ad60-ae3e9b9542a2))
  (pad "F10" smd circle (at 1.2 -2) (size 0.32 0.32) (layers "F.Cu" "F.Paste" "F.Mask") (tstamp e64f9166-05ac-4353-a495-48a362fb8557))
  (pad "F11" smd circle (at 2 -2) (size 0.32 0.32) (layers "F.Cu" "F.Paste" "F.Mask") (tstamp 89ae990b-1818-41d4-a842-f9a7fc8d73e2))
  (pad "F12" smd circle (at 2.8 -2) (size 0.32 0.32) (layers "F.Cu" "F.Paste" "F.Mask") (tstamp 1d11887a-aca3-47df-bfea-e370356d4a72))
  (pad "F13" smd circle (at 3.6 -2) (size 0.32 0.32) (layers "F.Cu" "F.Paste" "F.Mask") (tstamp 7105d8ce-b36c-453c-b850-42fd52e6166a))
  (pad "F14" smd circle (at 4.4 -2) (size 0.32 0.32) (layers "F.Cu" "F.Paste" "F.Mask") (tstamp 0429231d-edd3-4df2-8654-3cd0ef77cb4c))
  (pad "F15" smd circle (at 5.2 -2) (size 0.32 0.32) (layers "F.Cu" "F.Paste" "F.Mask") (tstamp c5437a7a-5447-4c89-801e-b13a84e43c5c))
  (pad "F16" smd circle (at 6 -2) (size 0.32 0.32) (layers "F.Cu" "F.Paste" "F.Mask") (tstamp b25c5eeb-f75e-4726-b15d-8a8a60cce4c5))
  (pad "G1" smd circle (at -6 -1.2) (size 0.32 0.32) (layers "F.Cu" "F.Paste" "F.Mask") (tstamp b222079c-a069-4a1d-bcee-b524ab9ec4f3))
  (pad "G2" smd circle (at -5.2 -1.2) (size 0.32 0.32) (layers "F.Cu" "F.Paste" "F.Mask") (tstamp 793737f6-77ec-4ec9-83b2-08fda3b429ae))
  (pad "G3" smd circle (at -4.4 -1.2) (size 0.32 0.32) (layers "F.Cu" "F.Paste" "F.Mask") (tstamp 0430c018-cea8-474c-805c-da0633d7944b))
  (pad "G4" smd circle (at -3.6 -1.2) (size 0.32 0.32) (layers "F.Cu" "F.Paste" "F.Mask") (tstamp e2a621f7-40db-4c18-ba6b-1bd1c95d5c28))
  (pad "G5" smd circle (at -2.8 -1.2) (size 0.32 0.32) (layers "F.Cu" "F.Paste" "F.Mask") (tstamp 29c0b1a9-7dfb-440e-8bdc-145e96b36d86))
  (pad "G6" smd circle (at -2 -1.2) (size 0.32 0.32) (layers "F.Cu" "F.Paste" "F.Mask") (tstamp fe732920-7177-4f09-8d34-1517b44c2c86))
  (pad "G7" smd circle (at -1.2 -1.2) (size 0.32 0.32) (layers "F.Cu" "F.Paste" "F.Mask") (tstamp 0a0224d6-bf12-4163-9194-f0ebbe185a9b))
  (pad "G8" smd circle (at -0.4 -1.2) (size 0.32 0.32) (layers "F.Cu" "F.Paste" "F.Mask") (tstamp d3acba57-ab4b-4692-8375-f082db8fd98d))
  (pad "G9" smd circle (at 0.4 -1.2) (size 0.32 0.32) (layers "F.Cu" "F.Paste" "F.Mask") (tstamp 60cbd133-04de-4567-b005-5eafbc665829))
  (pad "G10" smd circle (at 1.2 -1.2) (size 0.32 0.32) (layers "F.Cu" "F.Paste" "F.Mask") (tstamp 39e24e8a-1354-423b-a905-f6c3e9383beb))
  (pad "G11" smd circle (at 2 -1.2) (size 0.32 0.32) (layers "F.Cu" "F.Paste" "F.Mask") (tstamp 641c7814-1464-407f-8937-91a1beee0614))
  (pad "G12" smd circle (at 2.8 -1.2) (size 0.32 0.32) (layers "F.Cu" "F.Paste" "F.Mask") (tstamp 1c5a698f-b54a-450c-bda7-bbf6e04df10d))
  (pad "G13" smd circle (at 3.6 -1.2) (size 0.32 0.32) (layers "F.Cu" "F.Paste" "F.Mask") (tstamp 5cdd9d9c-ff5f-47c8-8be4-f4374dd86aee))
  (pad "G14" smd circle (at 4.4 -1.2) (size 0.32 0.32) (layers "F.Cu" "F.Paste" "F.Mask") (tstamp 63da15df-ede6-4bdd-8fe3-33e3d4b2899c))
  (pad "G15" smd circle (at 5.2 -1.2) (size 0.32 0.32) (layers "F.Cu" "F.Paste" "F.Mask") (tstamp f07d231d-a31f-4b5a-a64c-a5ea3b95df8f))
  (pad "G16" smd circle (at 6 -1.2) (size 0.32 0.32) (layers "F.Cu" "F.Paste" "F.Mask") (tstamp 4f2f7f02-85d5-4373-81b7-4929234faf77))
  (pad "H1" smd circle (at -6 -0.4) (size 0.32 0.32) (layers "F.Cu" "F.Paste" "F.Mask") (tstamp 344d791c-8103-49e0-a264-0e3e70b70cad))
  (pad "H2" smd circle (at -5.2 -0.4) (size 0.32 0.32) (layers "F.Cu" "F.Paste" "F.Mask") (tstamp 9002df41-09ca-4dee-b5e0-e026dbe3ab79))
  (pad "H3" smd circle (at -4.4 -0.4) (size 0.32 0.32) (layers "F.Cu" "F.Paste" "F.Mask") (tstamp cdc8ec91-41fe-4b21-aa46-9dc51925b505))
  (pad "H4" smd circle (at -3.6 -0.4) (size 0.32 0.32) (layers "F.Cu" "F.Paste" "F.Mask") (tstamp c246f312-579b-466e-9f34-5ee08f326566))
  (pad "H5" smd circle (at -2.8 -0.4) (size 0.32 0.32) (layers "F.Cu" "F.Paste" "F.Mask") (tstamp 95d62391-3887-4d3d-af20-8376f6bfb35a))
  (pad "H6" smd circle (at -2 -0.4) (size 0.32 0.32) (layers "F.Cu" "F.Paste" "F.Mask") (tstamp df8f2edd-d3fd-4f5f-a559-d513a55da5b0))
  (pad "H7" smd circle (at -1.2 -0.4) (size 0.32 0.32) (layers "F.Cu" "F.Paste" "F.Mask") (tstamp b0b12aaa-f8ca-4b3c-9e4f-3cc5c8f04f8b))
  (pad "H8" smd circle (at -0.4 -0.4) (size 0.32 0.32) (layers "F.Cu" "F.Paste" "F.Mask") (tstamp d3013169-f6cd-4755-aeba-7e0f3db9cdff))
  (pad "H9" smd circle (at 0.4 -0.4) (size 0.32 0.32) (layers "F.Cu" "F.Paste" "F.Mask") (tstamp b01d580d-9984-4376-a8d1-276c5c02f711))
  (pad "H10" smd circle (at 1.2 -0.4) (size 0.32 0.32) (layers "F.Cu" "F.Paste" "F.Mask") (tstamp 3fa09ae9-56e9-473f-8fc3-9d5f664273de))
  (pad "H11" smd circle (at 2 -0.4) (size 0.32 0.32) (layers "F.Cu" "F.Paste" "F.Mask") (tstamp 9d2dd14a-dd84-4aa5-8b86-154f799b3758))
  (pad "H12" smd circle (at 2.8 -0.4) (size 0.32 0.32) (layers "F.Cu" "F.Paste" "F.Mask") (tstamp 0974daca-d621-4f52-b62e-fe80e3c9f620))
  (pad "H13" smd circle (at 3.6 -0.4) (size 0.32 0.32) (layers "F.Cu" "F.Paste" "F.Mask") (tstamp 27cf79b8-fc0c-4801-8322-f901746fff1f))
  (pad "H14" smd circle (at 4.4 -0.4) (size 0.32 0.32) (layers "F.Cu" "F.Paste" "F.Mask") (tstamp 47cea499-d4c2-4cb6-a83a-89111444817c))
  (pad "H15" smd circle (at 5.2 -0.4) (size 0.32 0.32) (layers "F.Cu" "F.Paste" "F.Mask") (tstamp 898a837b-1ae5-40e3-a4dd-0dc2e1bf8b78))
  (pad "H16" smd circle (at 6 -0.4) (size 0.32 0.32) (layers "F.Cu" "F.Paste" "F.Mask") (tstamp ee861aa7-d7d5-4475-8f6e-bac24bed50a1))
  (pad "J1" smd circle (at -6 0.4) (size 0.32 0.32) (layers "F.Cu" "F.Paste" "F.Mask") (tstamp cdf7a76a-5099-4d8c-aa87-8580e5889fce))
  (pad "J2" smd circle (at -5.2 0.4) (size 0.32 0.32) (layers "F.Cu" "F.Paste" "F.Mask") (tstamp 50b2740c-d60b-4152-8430-64ffafd13b41))
  (pad "J3" smd circle (at -4.4 0.4) (size 0.32 0.32) (layers "F.Cu" "F.Paste" "F.Mask") (tstamp bfea67fa-bd74-4954-81a5-ba214a2a0af0))
  (pad "J4" smd circle (at -3.6 0.4) (size 0.32 0.32) (layers "F.Cu" "F.Paste" "F.Mask") (tstamp 0fffd3cf-3001-40db-a76c-8623c7d6992c))
  (pad "J5" smd circle (at -2.8 0.4) (size 0.32 0.32) (layers "F.Cu" "F.Paste" "F.Mask") (tstamp 4ae94516-2b8a-4532-8cf8-d7452530f65f))
  (pad "J6" smd circle (at -2 0.4) (size 0.32 0.32) (layers "F.Cu" "F.Paste" "F.Mask") (tstamp b26a739e-ef68-4339-abdc-7e715ececeb9))
  (pad "J7" smd circle (at -1.2 0.4) (size 0.32 0.32) (layers "F.Cu" "F.Paste" "F.Mask") (tstamp 71592684-c22d-4a59-8671-db239d233db4))
  (pad "J8" smd circle (at -0.4 0.4) (size 0.32 0.32) (layers "F.Cu" "F.Paste" "F.Mask") (tstamp ba211958-15d7-4d8c-821e-80ddc415f27e))
  (pad "J9" smd circle (at 0.4 0.4) (size 0.32 0.32) (layers "F.Cu" "F.Paste" "F.Mask") (tstamp 9a36c7c2-9f78-4ff6-b459-bf635183c66b))
  (pad "J10" smd circle (at 1.2 0.4) (size 0.32 0.32) (layers "F.Cu" "F.Paste" "F.Mask") (tstamp 594964c8-70f4-4faa-a7b8-e534087b8af2))
  (pad "J11" smd circle (at 2 0.4) (size 0.32 0.32) (layers "F.Cu" "F.Paste" "F.Mask") (tstamp e84a8099-2493-47af-9d1d-8065865d0bec))
  (pad "J12" smd circle (at 2.8 0.4) (size 0.32 0.32) (layers "F.Cu" "F.Paste" "F.Mask") (tstamp cb36f293-943c-4bf1-83aa-8ad02deb04db))
  (pad "J13" smd circle (at 3.6 0.4) (size 0.32 0.32) (layers "F.Cu" "F.Paste" "F.Mask") (tstamp 42a62b63-6b72-42ac-9d91-2ed635544327))
  (pad "J14" smd circle (at 4.4 0.4) (size 0.32 0.32) (layers "F.Cu" "F.Paste" "F.Mask") (tstamp bad06311-df4e-4d02-a291-ab6a0f543390))
  (pad "J15" smd circle (at 5.2 0.4) (size 0.32 0.32) (layers "F.Cu" "F.Paste" "F.Mask") (tstamp bc6628ed-f73a-4de5-b0c4-eea3d6ab4298))
  (pad "J16" smd circle (at 6 0.4) (size 0.32 0.32) (layers "F.Cu" "F.Paste" "F.Mask") (tstamp 996a35ac-597e-4111-b497-d905e375506e))
  (pad "K1" smd circle (at -6 1.2) (size 0.32 0.32) (layers "F.Cu" "F.Paste" "F.Mask") (tstamp cfefab9d-9fed-4dae-a553-20793e92061d))
  (pad "K2" smd circle (at -5.2 1.2) (size 0.32 0.32) (layers "F.Cu" "F.Paste" "F.Mask") (tstamp ca821099-61f7-4b6a-9d17-d8e067626a3c))
  (pad "K3" smd circle (at -4.4 1.2) (size 0.32 0.32) (layers "F.Cu" "F.Paste" "F.Mask") (tstamp 9f3951fe-8e26-4841-8427-1b5f8190918c))
  (pad "K4" smd circle (at -3.6 1.2) (size 0.32 0.32) (layers "F.Cu" "F.Paste" "F.Mask") (tstamp 74bfa684-f082-4c2a-b873-480728517852))
  (pad "K5" smd circle (at -2.8 1.2) (size 0.32 0.32) (layers "F.Cu" "F.Paste" "F.Mask") (tstamp baef5cb4-1a2d-41a1-8a5d-0728bf9d7509))
  (pad "K6" smd circle (at -2 1.2) (size 0.32 0.32) (layers "F.Cu" "F.Paste" "F.Mask") (tstamp 3d85db23-b596-412e-bdf1-897e99f3f7e3))
  (pad "K7" smd circle (at -1.2 1.2) (size 0.32 0.32) (layers "F.Cu" "F.Paste" "F.Mask") (tstamp 07624c13-de30-4299-8e53-6934fa3b4a95))
  (pad "K8" smd circle (at -0.4 1.2) (size 0.32 0.32) (layers "F.Cu" "F.Paste" "F.Mask") (tstamp 3bc11e98-d843-4102-b4b3-0ebf4e47ff01))
  (pad "K9" smd circle (at 0.4 1.2) (size 0.32 0.32) (layers "F.Cu" "F.Paste" "F.Mask") (tstamp 4acdd6fe-286f-457d-b860-4e16fe39de59))
  (pad "K10" smd circle (at 1.2 1.2) (size 0.32 0.32) (layers "F.Cu" "F.Paste" "F.Mask") (tstamp d04a2eb5-a374-43c5-b9ba-8baa78f09500))
  (pad "K11" smd circle (at 2 1.2) (size 0.32 0.32) (layers "F.Cu" "F.Paste" "F.Mask") (tstamp 9d4f999d-63fb-41ef-9c83-f8407312a0bc))
  (pad "K12" smd circle (at 2.8 1.2) (size 0.32 0.32) (layers "F.Cu" "F.Paste" "F.Mask") (tstamp ea4986ff-829c-4846-9072-b263093495f0))
  (pad "K13" smd circle (at 3.6 1.2) (size 0.32 0.32) (layers "F.Cu" "F.Paste" "F.Mask") (tstamp 14112a33-7299-4429-8106-634030a520f7))
  (pad "K14" smd circle (at 4.4 1.2) (size 0.32 0.32) (layers "F.Cu" "F.Paste" "F.Mask") (tstamp 2a6fb241-921e-4d0c-848a-9bc9ec068367))
  (pad "K15" smd circle (at 5.2 1.2) (size 0.32 0.32) (layers "F.Cu" "F.Paste" "F.Mask") (tstamp 3a5bfaae-56b6-4d89-8af4-963af56e6e89))
  (pad "K16" smd circle (at 6 1.2) (size 0.32 0.32) (layers "F.Cu" "F.Paste" "F.Mask") (tstamp 153a4f8f-534c-4c0e-b048-9db26cc9e0ab))
  (pad "L1" smd circle (at -6 2) (size 0.32 0.32) (layers "F.Cu" "F.Paste" "F.Mask") (tstamp afb76cdb-d540-44c7-a761-9f472a08806d))
  (pad "L2" smd circle (at -5.2 2) (size 0.32 0.32) (layers "F.Cu" "F.Paste" "F.Mask") (tstamp a0dff0f6-3ab7-4e88-b4a7-9d0abfeee211))
  (pad "L3" smd circle (at -4.4 2) (size 0.32 0.32) (layers "F.Cu" "F.Paste" "F.Mask") (tstamp 808d81e5-508f-4301-b80c-d013895c326f))
  (pad "L4" smd circle (at -3.6 2) (size 0.32 0.32) (layers "F.Cu" "F.Paste" "F.Mask") (tstamp 5360ebb8-a679-4e01-9685-f9c7bce0ded5))
  (pad "L5" smd circle (at -2.8 2) (size 0.32 0.32) (layers "F.Cu" "F.Paste" "F.Mask") (tstamp f4e9bc84-c7b3-44c4-8003-34837ee731fb))
  (pad "L6" smd circle (at -2 2) (size 0.32 0.32) (layers "F.Cu" "F.Paste" "F.Mask") (tstamp d00e91e2-17d7-43cc-95a2-78ca9c5d24a6))
  (pad "L7" smd circle (at -1.2 2) (size 0.32 0.32) (layers "F.Cu" "F.Paste" "F.Mask") (tstamp 73e3c6aa-b62b-4049-892b-e564967c805c))
  (pad "L8" smd circle (at -0.4 2) (size 0.32 0.32) (layers "F.Cu" "F.Paste" "F.Mask") (tstamp 8fb6d29e-cf57-430e-84d8-fc61642a80e1))
  (pad "L9" smd circle (at 0.4 2) (size 0.32 0.32) (layers "F.Cu" "F.Paste" "F.Mask") (tstamp 7175f58e-0917-414c-86e8-db3c2be239bc))
  (pad "L10" smd circle (at 1.2 2) (size 0.32 0.32) (layers "F.Cu" "F.Paste" "F.Mask") (tstamp 8a1f080d-283a-4312-8957-eb2e62b1b91a))
  (pad "L11" smd circle (at 2 2) (size 0.32 0.32) (layers "F.Cu" "F.Paste" "F.Mask") (tstamp 6256a736-493e-431d-8089-4442ca2a4e09))
  (pad "L12" smd circle (at 2.8 2) (size 0.32 0.32) (layers "F.Cu" "F.Paste" "F.Mask") (tstamp 9bba3132-5fbd-4565-89e4-158810e83388))
  (pad "L13" smd circle (at 3.6 2) (size 0.32 0.32) (layers "F.Cu" "F.Paste" "F.Mask") (tstamp 11936c98-8df1-4d2d-be28-a5a23956f3d9))
  (pad "L14" smd circle (at 4.4 2) (size 0.32 0.32) (layers "F.Cu" "F.Paste" "F.Mask") (tstamp 1a73f988-4f7b-456c-b487-3f750a23474c))
  (pad "L15" smd circle (at 5.2 2) (size 0.32 0.32) (layers "F.Cu" "F.Paste" "F.Mask") (tstamp bba5d1a6-6063-44c6-8193-f1e8f433e9f5))
  (pad "L16" smd circle (at 6 2) (size 0.32 0.32) (layers "F.Cu" "F.Paste" "F.Mask") (tstamp c3337f53-0b2f-45a2-8535-ad8220042a6d))
  (pad "M1" smd circle (at -6 2.8) (size 0.32 0.32) (layers "F.Cu" "F.Paste" "F.Mask") (tstamp 6d2b7cdd-11ab-48d6-a3f8-b0dd2ccf9b5e))
  (pad "M2" smd circle (at -5.2 2.8) (size 0.32 0.32) (layers "F.Cu" "F.Paste" "F.Mask") (tstamp 5786b523-c5e9-47ef-9eb2-44495ae7f101))
  (pad "M3" smd circle (at -4.4 2.8) (size 0.32 0.32) (layers "F.Cu" "F.Paste" "F.Mask") (tstamp 61f4f076-f7a3-4bf6-b3d3-e924e52914f8))
  (pad "M4" smd circle (at -3.6 2.8) (size 0.32 0.32) (layers "F.Cu" "F.Paste" "F.Mask") (tstamp 663d7826-ddd4-4b84-962e-8d296abc4c06))
  (pad "M5" smd circle (at -2.8 2.8) (size 0.32 0.32) (layers "F.Cu" "F.Paste" "F.Mask") (tstamp adece5d2-8bdc-4aa2-b78b-d67479630593))
  (pad "M6" smd circle (at -2 2.8) (size 0.32 0.32) (layers "F.Cu" "F.Paste" "F.Mask") (tstamp 8407077a-23f6-45d4-bcc5-1389fa031041))
  (pad "M7" smd circle (at -1.2 2.8) (size 0.32 0.32) (layers "F.Cu" "F.Paste" "F.Mask") (tstamp 9683ce78-f69e-4c82-ade1-cda4c152dc34))
  (pad "M8" smd circle (at -0.4 2.8) (size 0.32 0.32) (layers "F.Cu" "F.Paste" "F.Mask") (tstamp c4878661-f679-49b2-b89b-711cd256aaa3))
  (pad "M9" smd circle (at 0.4 2.8) (size 0.32 0.32) (layers "F.Cu" "F.Paste" "F.Mask") (tstamp f0057c44-faa8-498a-a761-62a4ef453f88))
  (pad "M10" smd circle (at 1.2 2.8) (size 0.32 0.32) (layers "F.Cu" "F.Paste" "F.Mask") (tstamp 0e6986d0-b376-474e-856e-b5166934371c))
  (pad "M11" smd circle (at 2 2.8) (size 0.32 0.32) (layers "F.Cu" "F.Paste" "F.Mask") (tstamp 38f7086a-f48f-46cd-b541-1d9889892c4f))
  (pad "M12" smd circle (at 2.8 2.8) (size 0.32 0.32) (layers "F.Cu" "F.Paste" "F.Mask") (tstamp 75a7efa6-1885-4df3-bcab-8cd7f6a6c718))
  (pad "M13" smd circle (at 3.6 2.8) (size 0.32 0.32) (layers "F.Cu" "F.Paste" "F.Mask") (tstamp 6074997a-f11c-44ef-86ae-df98c682f1be))
  (pad "M14" smd circle (at 4.4 2.8) (size 0.32 0.32) (layers "F.Cu" "F.Paste" "F.Mask") (tstamp 6d270ca2-a3dd-4d4e-8fd9-fc7996ba5179))
  (pad "M15" smd circle (at 5.2 2.8) (size 0.32 0.32) (layers "F.Cu" "F.Paste" "F.Mask") (tstamp 611c1ea4-1f2a-4e8a-be72-c9ce80870ae7))
  (pad "M16" smd circle (at 6 2.8) (size 0.32 0.32) (layers "F.Cu" "F.Paste" "F.Mask") (tstamp 29f8e8ef-759e-476d-9e9d-f15429b73593))
  (pad "N1" smd circle (at -6 3.6) (size 0.32 0.32) (layers "F.Cu" "F.Paste" "F.Mask") (tstamp ee321c5e-3095-4f18-b085-f5d8e4a63537))
  (pad "N2" smd circle (at -5.2 3.6) (size 0.32 0.32) (layers "F.Cu" "F.Paste" "F.Mask") (tstamp 0b0aae30-dfe5-4d14-8027-b381fc46f76f))
  (pad "N3" smd circle (at -4.4 3.6) (size 0.32 0.32) (layers "F.Cu" "F.Paste" "F.Mask") (tstamp 1f3d8f64-a013-4e36-a598-1c6a077986ed))
  (pad "N4" smd circle (at -3.6 3.6) (size 0.32 0.32) (layers "F.Cu" "F.Paste" "F.Mask") (tstamp e877133c-7c23-4fd7-8e0a-364e94e5fce6))
  (pad "N5" smd circle (at -2.8 3.6) (size 0.32 0.32) (layers "F.Cu" "F.Paste" "F.Mask") (tstamp 85fc4811-250f-4bdd-9c36-0cc49060d7f0))
  (pad "N6" smd circle (at -2 3.6) (size 0.32 0.32) (layers "F.Cu" "F.Paste" "F.Mask") (tstamp 54ae72ec-74a1-45e3-a501-9da3f23ddfc4))
  (pad "N7" smd circle (at -1.2 3.6) (size 0.32 0.32) (layers "F.Cu" "F.Paste" "F.Mask") (tstamp 2bf527af-26a2-40e0-888a-2d7464b610fd))
  (pad "N8" smd circle (at -0.4 3.6) (size 0.32 0.32) (layers "F.Cu" "F.Paste" "F.Mask") (tstamp 4b252dbe-989a-4bfc-9815-56adc365ce36))
  (pad "N9" smd circle (at 0.4 3.6) (size 0.32 0.32) (layers "F.Cu" "F.Paste" "F.Mask") (tstamp f8635f57-393a-41aa-a321-27fdf8ef0b43))
  (pad "N10" smd circle (at 1.2 3.6) (size 0.32 0.32) (layers "F.Cu" "F.Paste" "F.Mask") (tstamp 23bd7d69-a35e-4204-a93a-bec4893d6d4b))
  (pad "N11" smd circle (at 2 3.6) (size 0.32 0.32) (layers "F.Cu" "F.Paste" "F.Mask") (tstamp 227051d5-f458-4d2b-8d6f-58516769ce6c))
  (pad "N12" smd circle (at 2.8 3.6) (size 0.32 0.32) (layers "F.Cu" "F.Paste" "F.Mask") (tstamp 63d2277a-8811-4331-b2a5-ac8153c7ca11))
  (pad "N13" smd circle (at 3.6 3.6) (size 0.32 0.32) (layers "F.Cu" "F.Paste" "F.Mask") (tstamp be1e00fd-46be-46c6-9db2-3abe80b58746))
  (pad "N14" smd circle (at 4.4 3.6) (size 0.32 0.32) (layers "F.Cu" "F.Paste" "F.Mask") (tstamp 7dd3477d-a33c-4603-869f-fb39374adfeb))
  (pad "N15" smd circle (at 5.2 3.6) (size 0.32 0.32) (layers "F.Cu" "F.Paste" "F.Mask") (tstamp 2ad8f94b-d48a-4dd1-83b1-aa123affc658))
  (pad "N16" smd circle (at 6 3.6) (size 0.32 0.32) (layers "F.Cu" "F.Paste" "F.Mask") (tstamp f199e6ae-bf89-4338-aa58-39121e6eab45))
  (pad "P1" smd circle (at -6 4.4) (size 0.32 0.32) (layers "F.Cu" "F.Paste" "F.Mask") (tstamp 0e222094-4169-4541-aa74-6e7377327f8c))
  (pad "P2" smd circle (at -5.2 4.4) (size 0.32 0.32) (layers "F.Cu" "F.Paste" "F.Mask") (tstamp 727f46d9-b9e0-4976-b767-860db3e0683b))
  (pad "P3" smd circle (at -4.4 4.4) (size 0.32 0.32) (layers "F.Cu" "F.Paste" "F.Mask") (tstamp b43dc85a-966a-4a62-ac6e-849be7c7d6f8))
  (pad "P4" smd circle (at -3.6 4.4) (size 0.32 0.32) (layers "F.Cu" "F.Paste" "F.Mask") (tstamp 16e311a7-8e8e-4fe4-9828-77dd13b0d55d))
  (pad "P5" smd circle (at -2.8 4.4) (size 0.32 0.32) (layers "F.Cu" "F.Paste" "F.Mask") (tstamp 4a454ed5-af01-4e15-9219-14af40b48364))
  (pad "P6" smd circle (at -2 4.4) (size 0.32 0.32) (layers "F.Cu" "F.Paste" "F.Mask") (tstamp b8ce66f2-5411-4399-89ba-914c0a36b6b6))
  (pad "P7" smd circle (at -1.2 4.4) (size 0.32 0.32) (layers "F.Cu" "F.Paste" "F.Mask") (tstamp 0e6e774e-c97e-4748-a1c0-f74dce7819f8))
  (pad "P8" smd circle (at -0.4 4.4) (size 0.32 0.32) (layers "F.Cu" "F.Paste" "F.Mask") (tstamp c4fe90b8-ef6c-46ff-bec2-5f7496d499ab))
  (pad "P9" smd circle (at 0.4 4.4) (size 0.32 0.32) (layers "F.Cu" "F.Paste" "F.Mask") (tstamp 7ad65176-b19d-44c0-a15f-949d835f7bc6))
  (pad "P10" smd circle (at 1.2 4.4) (size 0.32 0.32) (layers "F.Cu" "F.Paste" "F.Mask") (tstamp 4807a3a6-9f97-446a-82d2-e05389279b4f))
  (pad "P11" smd circle (at 2 4.4) (size 0.32 0.32) (layers "F.Cu" "F.Paste" "F.Mask") (tstamp 076ca3e9-4633-44f4-8b50-40274afb7334))
  (pad "P12" smd circle (at 2.8 4.4) (size 0.32 0.32) (layers "F.Cu" "F.Paste" "F.Mask") (tstamp 8b77a132-d104-4582-935c-28612271c919))
  (pad "P13" smd circle (at 3.6 4.4) (size 0.32 0.32) (layers "F.Cu" "F.Paste" "F.Mask") (tstamp 424b4f39-c10c-4d01-beb4-2c7a0a18edb2))
  (pad "P14" smd circle (at 4.4 4.4) (size 0.32 0.32) (layers "F.Cu" "F.Paste" "F.Mask") (tstamp 502ff16f-3775-4d59-ae35-6d687926574a))
  (pad "P15" smd circle (at 5.2 4.4) (size 0.32 0.32) (layers "F.Cu" "F.Paste" "F.Mask") (tstamp d922fca5-232c-476e-839f-adb52113707c))
  (pad "P16" smd circle (at 6 4.4) (size 0.32 0.32) (layers "F.Cu" "F.Paste" "F.Mask") (tstamp a8efa818-0c30-4080-8f16-050392178a5b))
  (pad "R1" smd circle (at -6 5.2) (size 0.32 0.32) (layers "F.Cu" "F.Paste" "F.Mask") (tstamp 307cd5b0-c0af-450a-b15e-1c8c9eae81d8))
  (pad "R2" smd circle (at -5.2 5.2) (size 0.32 0.32) (layers "F.Cu" "F.Paste" "F.Mask") (tstamp 03c31525-89d3-4722-9f09-7f7e12c516d9))
  (pad "R3" smd circle (at -4.4 5.2) (size 0.32 0.32) (layers "F.Cu" "F.Paste" "F.Mask") (tstamp cc2cc28b-bd6d-448d-9fca-e7edd729ca87))
  (pad "R4" smd circle (at -3.6 5.2) (size 0.32 0.32) (layers "F.Cu" "F.Paste" "F.Mask") (tstamp cff40f51-fbec-4a79-b9eb-7499c5e5ed46))
  (pad "R5" smd circle (at -2.8 5.2) (size 0.32 0.32) (layers "F.Cu" "F.Paste" "F.Mask") (tstamp 0a2a188f-2f47-4b1c-b9cb-ffc6d2f2da1e))
  (pad "R6" smd circle (at -2 5.2) (size 0.32 0.32) (layers "F.Cu" "F.Paste" "F.Mask") (tstamp 5a6f82e4-fcca-46cc-be43-63a0dc6a6481))
  (pad "R7" smd circle (at -1.2 5.2) (size 0.32 0.32) (layers "F.Cu" "F.Paste" "F.Mask") (tstamp 99c2feae-288b-448b-944b-c6556d519a20))
  (pad "R8" smd circle (at -0.4 5.2) (size 0.32 0.32) (layers "F.Cu" "F.Paste" "F.Mask") (tstamp 1cb6754d-85bd-406c-876d-14e66965e810))
  (pad "R9" smd circle (at 0.4 5.2) (size 0.32 0.32) (layers "F.Cu" "F.Paste" "F.Mask") (tstamp b8fa05e3-3319-4a0d-a1f1-fe43519b547e))
  (pad "R10" smd circle (at 1.2 5.2) (size 0.32 0.32) (layers "F.Cu" "F.Paste" "F.Mask") (tstamp 2a8081ce-9c70-4dfa-9491-e0535c20a973))
  (pad "R11" smd circle (at 2 5.2) (size 0.32 0.32) (layers "F.Cu" "F.Paste" "F.Mask") (tstamp 60769aa6-e7ca-4327-b791-739e7de33c51))
  (pad "R12" smd circle (at 2.8 5.2) (size 0.32 0.32) (layers "F.Cu" "F.Paste" "F.Mask") (tstamp 079437ac-2321-48bc-a6aa-c6a243d5d0eb))
  (pad "R13" smd circle (at 3.6 5.2) (size 0.32 0.32) (layers "F.Cu" "F.Paste" "F.Mask") (tstamp f3769e96-c375-4532-a8dd-9cb2bd9ae412))
  (pad "R14" smd circle (at 4.4 5.2) (size 0.32 0.32) (layers "F.Cu" "F.Paste" "F.Mask") (tstamp a40d8c11-65cf-41bc-a617-0b7a9214648e))
  (pad "R15" smd circle (at 5.2 5.2) (size 0.32 0.32) (layers "F.Cu" "F.Paste" "F.Mask") (tstamp fa902887-dfa6-4926-bd13-4d32d3a56be2))
  (pad "R16" smd circle (at 6 5.2) (size 0.32 0.32) (layers "F.Cu" "F.Paste" "F.Mask") (tstamp 6d34f100-3f64-447e-94d4-95c7bf611cab))
  (pad "T1" smd circle (at -6 6) (size 0.32 0.32) (layers "F.Cu" "F.Paste" "F.Mask") (tstamp 27fb796f-8edf-4db1-b8db-2bf576c2d08b))
  (pad "T2" smd circle (at -5.2 6) (size 0.32 0.32) (layers "F.Cu" "F.Paste" "F.Mask") (tstamp 27a25b00-b322-4cf8-b58c-a5a8cd5e7615))
  (pad "T3" smd circle (at -4.4 6) (size 0.32 0.32) (layers "F.Cu" "F.Paste" "F.Mask") (tstamp 11906fd7-f851-4d2c-b8bd-99c94fcdbc1b))
  (pad "T4" smd circle (at -3.6 6) (size 0.32 0.32) (layers "F.Cu" "F.Paste" "F.Mask") (tstamp f424541a-b85a-4194-8dbf-db3398095bb5))
  (pad "T5" smd circle (at -2.8 6) (size 0.32 0.32) (layers "F.Cu" "F.Paste" "F.Mask") (tstamp 798d94ca-ba2c-4e05-b314-a335ecf7dd53))
  (pad "T6" smd circle (at -2 6) (size 0.32 0.32) (layers "F.Cu" "F.Paste" "F.Mask") (tstamp f1dff305-798c-4f93-9cba-272ffe7618bc))
  (pad "T7" smd circle (at -1.2 6) (size 0.32 0.32) (layers "F.Cu" "F.Paste" "F.Mask") (tstamp a419b6ad-e337-4c8d-b0d3-dbdb639c2895))
  (pad "T8" smd circle (at -0.4 6) (size 0.32 0.32) (layers "F.Cu" "F.Paste" "F.Mask") (tstamp 86c5213d-64e8-4cc8-96de-9b52f3ba6cff))
  (pad "T9" smd circle (at 0.4 6) (size 0.32 0.32) (layers "F.Cu" "F.Paste" "F.Mask") (tstamp 5ace3de7-4954-4551-a316-c4186ab33cbf))
  (pad "T10" smd circle (at 1.2 6) (size 0.32 0.32) (layers "F.Cu" "F.Paste" "F.Mask") (tstamp c8d62b22-9092-4b42-acef-23a11c2020e0))
  (pad "T11" smd circle (at 2 6) (size 0.32 0.32) (layers "F.Cu" "F.Paste" "F.Mask") (tstamp b4f070e3-7512-4ce8-82b7-911d56493e0b))
  (pad "T12" smd circle (at 2.8 6) (size 0.32 0.32) (layers "F.Cu" "F.Paste" "F.Mask") (tstamp 670f5616-a3f3-44fe-b7b1-1dfe672b1da9))
  (pad "T13" smd circle (at 3.6 6) (size 0.32 0.32) (layers "F.Cu" "F.Paste" "F.Mask") (tstamp 2f634588-743e-48c1-a9b0-7419918e0278))
  (pad "T14" smd circle (at 4.4 6) (size 0.32 0.32) (layers "F.Cu" "F.Paste" "F.Mask") (tstamp 088e0d63-8516-459c-9603-83512e319b56))
  (pad "T15" smd circle (at 5.2 6) (size 0.32 0.32) (layers "F.Cu" "F.Paste" "F.Mask") (tstamp c03898da-7b8b-4ac0-8b78-fb4e96254974))
  (pad "T16" smd circle (at 6 6) (size 0.32 0.32) (layers "F.Cu" "F.Paste" "F.Mask") (tstamp dd9992bd-121b-49a2-8a2f-c8f24bcc5b54))
  (model "${KICAD6_3DMODEL_DIR}/Package_BGA.3dshapes/BGA-256_14.0x14.0mm_Layout16x16_P0.8mm_Ball0.45mm_Pad0.32mm_NSMD.wrl"
    (offset (xyz 0 0 0))
    (scale (xyz 1 1 1))
    (rotate (xyz 0 0 0))
  )
)
