(footprint "Lattice_caBGA-381_17.0x17.0mm_Layout20x20_P0.8mm_Ball0.4mm_Pad0.4mm_NSMD" (version 20221018) (generator pcbnew)
  (layer "F.Cu")
  (descr "Lattice caBGA-381 footprint for ECP5 FPGAs, based on http://www.latticesemi.com/view_document?document_id=213")
  (tags "BGA 381 0.8")
  (solder_mask_margin 0.075)
  (attr smd)
  (fp_text reference "REF**" (at 0 -9.5) (layer "F.SilkS")
      (effects (font (size 1 1) (thickness 0.15)))
    (tstamp 77733f01-0833-430e-aaae-c627d950afa2)
  )
  (fp_text value "Lattice_caBGA-381_17.0x17.0mm_Layout20x20_P0.8mm_Ball0.4mm_Pad0.4mm_NSMD" (at 0 9.5) (layer "F.Fab")
      (effects (font (size 1 1) (thickness 0.15)))
    (tstamp 1ce7af17-bb7a-4163-b5f7-18e667998ac1)
  )
  (fp_text user "${REFERENCE}" (at 0 0) (layer "F.Fab")
      (effects (font (size 1 1) (thickness 0.15)))
    (tstamp fdffa6f7-37a9-46c2-ad10-235fa582abff)
  )
  (fp_line (start -8.61 8.61) (end -8.61 -7.61)
    (stroke (width 0.12) (type solid)) (layer "F.SilkS") (tstamp 3a20385f-7c82-4a83-ad04-a2afaa852093))
  (fp_line (start -7.61 -8.61) (end 8.61 -8.61)
    (stroke (width 0.12) (type solid)) (layer "F.SilkS") (tstamp 5160cecf-53db-4239-b43b-13401531c5c8))
  (fp_line (start 8.61 -8.61) (end 8.61 8.61)
    (stroke (width 0.12) (type solid)) (layer "F.SilkS") (tstamp 60a01b3b-db32-4fad-8b33-891b8415c588))
  (fp_line (start 8.61 8.61) (end -8.61 8.61)
    (stroke (width 0.12) (type solid)) (layer "F.SilkS") (tstamp fe1bb825-9839-46e9-a56f-d380bb38af64))
  (fp_line (start -9.5 -9.5) (end -9.5 9.5)
    (stroke (width 0.05) (type solid)) (layer "F.CrtYd") (tstamp fe7b3250-c500-4dd4-bf10-59bf8030067d))
  (fp_line (start -9.5 9.5) (end 9.5 9.5)
    (stroke (width 0.05) (type solid)) (layer "F.CrtYd") (tstamp 18566917-7ea2-45dc-a05e-d835645f7cfe))
  (fp_line (start 9.5 -9.5) (end -9.5 -9.5)
    (stroke (width 0.05) (type solid)) (layer "F.CrtYd") (tstamp 11087cc7-a4d7-4c38-80da-231cd36d29ee))
  (fp_line (start 9.5 9.5) (end 9.5 -9.5)
    (stroke (width 0.05) (type solid)) (layer "F.CrtYd") (tstamp 2ab1c15b-c043-42b6-94ee-83c20e0e22eb))
  (fp_line (start -8.5 -7.5) (end -7.5 -8.5)
    (stroke (width 0.1) (type solid)) (layer "F.Fab") (tstamp 2121fb57-ce2e-45c3-bcb4-fe577f80b0a2))
  (fp_line (start -8.5 8.5) (end -8.5 -7.5)
    (stroke (width 0.1) (type solid)) (layer "F.Fab") (tstamp 9f1c4c70-506c-4b7c-a4d5-9cd904a6f8f3))
  (fp_line (start -7.5 -8.5) (end 8.5 -8.5)
    (stroke (width 0.1) (type solid)) (layer "F.Fab") (tstamp 73233397-5c8e-420a-bdaf-cead4326c551))
  (fp_line (start 8.5 -8.5) (end 8.5 8.5)
    (stroke (width 0.1) (type solid)) (layer "F.Fab") (tstamp 7b5e71ae-5710-4163-8c60-aa8526362ebe))
  (fp_line (start 8.5 8.5) (end -8.5 8.5)
    (stroke (width 0.1) (type solid)) (layer "F.Fab") (tstamp ca01dd33-11bd-4107-bc89-ef2cc8f485a3))
  (pad "A2" smd circle (at -6.8 -7.6) (size 0.4 0.4) (layers "F.Cu" "F.Paste" "F.Mask") (tstamp 4880fb25-6bfa-46d4-868f-548582b670d0))
  (pad "A3" smd circle (at -6 -7.6) (size 0.4 0.4) (layers "F.Cu" "F.Paste" "F.Mask") (tstamp 5bb950f7-5428-4439-9d9e-4cc1ea62f62c))
  (pad "A4" smd circle (at -5.2 -7.6) (size 0.4 0.4) (layers "F.Cu" "F.Paste" "F.Mask") (tstamp 54e66aef-1d05-449a-9ee7-84ae144d62a5))
  (pad "A5" smd circle (at -4.4 -7.6) (size 0.4 0.4) (layers "F.Cu" "F.Paste" "F.Mask") (tstamp 324b5d7b-ea1b-462c-a4fe-194a7ba3ff3b))
  (pad "A6" smd circle (at -3.6 -7.6) (size 0.4 0.4) (layers "F.Cu" "F.Paste" "F.Mask") (tstamp da62158e-e9a5-4aad-80ab-3bbfa3eac97d))
  (pad "A7" smd circle (at -2.8 -7.6) (size 0.4 0.4) (layers "F.Cu" "F.Paste" "F.Mask") (tstamp ddac6b76-8a49-4746-b492-228bb4afbf8c))
  (pad "A8" smd circle (at -2 -7.6) (size 0.4 0.4) (layers "F.Cu" "F.Paste" "F.Mask") (tstamp 952ed4da-e2b4-4f7a-8c0d-e9ba32368a37))
  (pad "A9" smd circle (at -1.2 -7.6) (size 0.4 0.4) (layers "F.Cu" "F.Paste" "F.Mask") (tstamp 7d22b1c3-1184-4583-b5d0-f29d1b94411d))
  (pad "A10" smd circle (at -0.4 -7.6) (size 0.4 0.4) (layers "F.Cu" "F.Paste" "F.Mask") (tstamp b1c10af7-b273-4cd2-93bd-a1c12350b8c5))
  (pad "A11" smd circle (at 0.4 -7.6) (size 0.4 0.4) (layers "F.Cu" "F.Paste" "F.Mask") (tstamp ceef662e-65f6-4390-8716-bc673026a3d3))
  (pad "A12" smd circle (at 1.2 -7.6) (size 0.4 0.4) (layers "F.Cu" "F.Paste" "F.Mask") (tstamp 12c6c6be-7968-4fd3-a6c3-b65fbbcb0a04))
  (pad "A13" smd circle (at 2 -7.6) (size 0.4 0.4) (layers "F.Cu" "F.Paste" "F.Mask") (tstamp aa61fbfc-e41a-4f01-926d-1941627a0186))
  (pad "A14" smd circle (at 2.8 -7.6) (size 0.4 0.4) (layers "F.Cu" "F.Paste" "F.Mask") (tstamp e890ed99-162f-4196-b4b4-6afb132eef86))
  (pad "A15" smd circle (at 3.6 -7.6) (size 0.4 0.4) (layers "F.Cu" "F.Paste" "F.Mask") (tstamp 4a0d6dcf-e951-4672-8791-9de87156cf2f))
  (pad "A16" smd circle (at 4.4 -7.6) (size 0.4 0.4) (layers "F.Cu" "F.Paste" "F.Mask") (tstamp 7d2dbd90-debe-46e2-83e0-de3b3c811ae0))
  (pad "A17" smd circle (at 5.2 -7.6) (size 0.4 0.4) (layers "F.Cu" "F.Paste" "F.Mask") (tstamp fbecc4a5-37f2-4dca-a6be-7a4168584e49))
  (pad "A18" smd circle (at 6 -7.6) (size 0.4 0.4) (layers "F.Cu" "F.Paste" "F.Mask") (tstamp ba80daa5-bde7-49bc-86ef-521a864bbbd3))
  (pad "A19" smd circle (at 6.8 -7.6) (size 0.4 0.4) (layers "F.Cu" "F.Paste" "F.Mask") (tstamp ab92a98a-28f1-40e2-b83a-bd343585e242))
  (pad "B1" smd circle (at -7.6 -6.8) (size 0.4 0.4) (layers "F.Cu" "F.Paste" "F.Mask") (tstamp 3c398391-c4d9-417c-b837-527e039d4c73))
  (pad "B2" smd circle (at -6.8 -6.8) (size 0.4 0.4) (layers "F.Cu" "F.Paste" "F.Mask") (tstamp eb06955f-3aae-44dd-b794-25edef6250fd))
  (pad "B3" smd circle (at -6 -6.8) (size 0.4 0.4) (layers "F.Cu" "F.Paste" "F.Mask") (tstamp 9969d66e-8f84-4fb2-b087-b3e97e3ac89b))
  (pad "B4" smd circle (at -5.2 -6.8) (size 0.4 0.4) (layers "F.Cu" "F.Paste" "F.Mask") (tstamp 0fbf3d47-6ee0-4882-b85f-c5ed5d890d60))
  (pad "B5" smd circle (at -4.4 -6.8) (size 0.4 0.4) (layers "F.Cu" "F.Paste" "F.Mask") (tstamp e9c05eae-2968-4883-b8e0-07badd94b461))
  (pad "B6" smd circle (at -3.6 -6.8) (size 0.4 0.4) (layers "F.Cu" "F.Paste" "F.Mask") (tstamp a4d757a3-a4d9-447e-9abe-0710255c2517))
  (pad "B7" smd circle (at -2.8 -6.8) (size 0.4 0.4) (layers "F.Cu" "F.Paste" "F.Mask") (tstamp 3057e708-19ac-4e37-933a-bf03e1e199fe))
  (pad "B8" smd circle (at -2 -6.8) (size 0.4 0.4) (layers "F.Cu" "F.Paste" "F.Mask") (tstamp 8a380b49-880c-49fb-a1d0-e618d1f665a7))
  (pad "B9" smd circle (at -1.2 -6.8) (size 0.4 0.4) (layers "F.Cu" "F.Paste" "F.Mask") (tstamp 828cd2eb-620b-4665-843c-aa1d89340cfb))
  (pad "B10" smd circle (at -0.4 -6.8) (size 0.4 0.4) (layers "F.Cu" "F.Paste" "F.Mask") (tstamp 13bec3b0-3663-4b99-a8a1-7c6ed83fea74))
  (pad "B11" smd circle (at 0.4 -6.8) (size 0.4 0.4) (layers "F.Cu" "F.Paste" "F.Mask") (tstamp ea7b75ec-c5c7-4475-b55a-f2e753ab791d))
  (pad "B12" smd circle (at 1.2 -6.8) (size 0.4 0.4) (layers "F.Cu" "F.Paste" "F.Mask") (tstamp f72c569d-0e99-4644-938f-fa2fe4858e3d))
  (pad "B13" smd circle (at 2 -6.8) (size 0.4 0.4) (layers "F.Cu" "F.Paste" "F.Mask") (tstamp cae46af1-af0a-4961-a596-afd29d301da9))
  (pad "B14" smd circle (at 2.8 -6.8) (size 0.4 0.4) (layers "F.Cu" "F.Paste" "F.Mask") (tstamp 3d624b61-ad95-4396-a232-418767c23881))
  (pad "B15" smd circle (at 3.6 -6.8) (size 0.4 0.4) (layers "F.Cu" "F.Paste" "F.Mask") (tstamp 7d7dd953-c639-4edb-a18d-d1274e85bf32))
  (pad "B16" smd circle (at 4.4 -6.8) (size 0.4 0.4) (layers "F.Cu" "F.Paste" "F.Mask") (tstamp 5d8b0f96-2f90-4b7d-bc49-b1709f92e98b))
  (pad "B17" smd circle (at 5.2 -6.8) (size 0.4 0.4) (layers "F.Cu" "F.Paste" "F.Mask") (tstamp 2ac9fa5f-f03d-4597-80a2-572006fe2558))
  (pad "B18" smd circle (at 6 -6.8) (size 0.4 0.4) (layers "F.Cu" "F.Paste" "F.Mask") (tstamp 5ab95bfd-5777-4bd5-a40d-ee0cc64296c5))
  (pad "B19" smd circle (at 6.8 -6.8) (size 0.4 0.4) (layers "F.Cu" "F.Paste" "F.Mask") (tstamp c87882c4-2ccd-4c11-b269-e54838ee0747))
  (pad "B20" smd circle (at 7.6 -6.8) (size 0.4 0.4) (layers "F.Cu" "F.Paste" "F.Mask") (tstamp c4b23553-e2a2-4967-9a4c-878816f5e619))
  (pad "C1" smd circle (at -7.6 -6) (size 0.4 0.4) (layers "F.Cu" "F.Paste" "F.Mask") (tstamp 3046d1ea-72b4-443e-b975-04ab45a0d2ec))
  (pad "C2" smd circle (at -6.8 -6) (size 0.4 0.4) (layers "F.Cu" "F.Paste" "F.Mask") (tstamp 4079c999-00b3-4676-8e8e-feeb7182408d))
  (pad "C3" smd circle (at -6 -6) (size 0.4 0.4) (layers "F.Cu" "F.Paste" "F.Mask") (tstamp 5e744971-6eb5-4417-90e7-a294694d9c21))
  (pad "C4" smd circle (at -5.2 -6) (size 0.4 0.4) (layers "F.Cu" "F.Paste" "F.Mask") (tstamp 98e4f866-a975-4b98-8e41-d170ec9efda7))
  (pad "C5" smd circle (at -4.4 -6) (size 0.4 0.4) (layers "F.Cu" "F.Paste" "F.Mask") (tstamp ff84e399-cd49-493b-95d7-719d31bad28a))
  (pad "C6" smd circle (at -3.6 -6) (size 0.4 0.4) (layers "F.Cu" "F.Paste" "F.Mask") (tstamp c8d04bf6-2100-4541-a39f-3e9bd53fa5af))
  (pad "C7" smd circle (at -2.8 -6) (size 0.4 0.4) (layers "F.Cu" "F.Paste" "F.Mask") (tstamp 3c1485c3-9d29-4fd6-9c34-c927d8e4beec))
  (pad "C8" smd circle (at -2 -6) (size 0.4 0.4) (layers "F.Cu" "F.Paste" "F.Mask") (tstamp 8b910138-122b-4802-b3ea-7f5541047af3))
  (pad "C9" smd circle (at -1.2 -6) (size 0.4 0.4) (layers "F.Cu" "F.Paste" "F.Mask") (tstamp 07cc49e4-a0b2-4e0b-82e7-6cb18c303dee))
  (pad "C10" smd circle (at -0.4 -6) (size 0.4 0.4) (layers "F.Cu" "F.Paste" "F.Mask") (tstamp c632b25c-3b05-4fce-a7cb-850d678f6eb4))
  (pad "C11" smd circle (at 0.4 -6) (size 0.4 0.4) (layers "F.Cu" "F.Paste" "F.Mask") (tstamp c635517c-f682-49bd-822f-05c80f44547b))
  (pad "C12" smd circle (at 1.2 -6) (size 0.4 0.4) (layers "F.Cu" "F.Paste" "F.Mask") (tstamp ef059a78-cb1b-4804-970e-f16b00bff368))
  (pad "C13" smd circle (at 2 -6) (size 0.4 0.4) (layers "F.Cu" "F.Paste" "F.Mask") (tstamp 64678149-645e-4274-af53-1fbe17074ed3))
  (pad "C14" smd circle (at 2.8 -6) (size 0.4 0.4) (layers "F.Cu" "F.Paste" "F.Mask") (tstamp c3db5f73-c192-4af7-a0c3-6bb07a8da4e2))
  (pad "C15" smd circle (at 3.6 -6) (size 0.4 0.4) (layers "F.Cu" "F.Paste" "F.Mask") (tstamp 120e213d-7487-4b02-b90a-ccfb0665dc93))
  (pad "C16" smd circle (at 4.4 -6) (size 0.4 0.4) (layers "F.Cu" "F.Paste" "F.Mask") (tstamp f7bb4ee8-1aa7-48ff-9004-2bcfad41d51b))
  (pad "C17" smd circle (at 5.2 -6) (size 0.4 0.4) (layers "F.Cu" "F.Paste" "F.Mask") (tstamp 9236bea3-98c9-46d5-ad06-12569f459d28))
  (pad "C18" smd circle (at 6 -6) (size 0.4 0.4) (layers "F.Cu" "F.Paste" "F.Mask") (tstamp 33a7a10d-6b9d-43cf-8e2e-5bc2c77f7128))
  (pad "C19" smd circle (at 6.8 -6) (size 0.4 0.4) (layers "F.Cu" "F.Paste" "F.Mask") (tstamp 3c69e95a-12b8-48d5-9ce6-75929cd6b976))
  (pad "C20" smd circle (at 7.6 -6) (size 0.4 0.4) (layers "F.Cu" "F.Paste" "F.Mask") (tstamp 7eee935d-b763-4a9f-a364-b4b4eed3f45f))
  (pad "D1" smd circle (at -7.6 -5.2) (size 0.4 0.4) (layers "F.Cu" "F.Paste" "F.Mask") (tstamp ac4b79b1-c2d4-4a35-a98a-96cb243a49a7))
  (pad "D2" smd circle (at -6.8 -5.2) (size 0.4 0.4) (layers "F.Cu" "F.Paste" "F.Mask") (tstamp 5495d37e-e1f0-4d1c-94b5-0801cbcba4b5))
  (pad "D3" smd circle (at -6 -5.2) (size 0.4 0.4) (layers "F.Cu" "F.Paste" "F.Mask") (tstamp bfadcb9d-0638-4d30-9690-acfb1c6d0ead))
  (pad "D4" smd circle (at -5.2 -5.2) (size 0.4 0.4) (layers "F.Cu" "F.Paste" "F.Mask") (tstamp c9776f60-a468-4ec8-ade6-0b5ab63ad6ba))
  (pad "D5" smd circle (at -4.4 -5.2) (size 0.4 0.4) (layers "F.Cu" "F.Paste" "F.Mask") (tstamp 46bb94b3-cc6b-466c-a9b9-462c06117b9e))
  (pad "D6" smd circle (at -3.6 -5.2) (size 0.4 0.4) (layers "F.Cu" "F.Paste" "F.Mask") (tstamp f30dfbc8-a108-4861-860a-5726432dee64))
  (pad "D7" smd circle (at -2.8 -5.2) (size 0.4 0.4) (layers "F.Cu" "F.Paste" "F.Mask") (tstamp bd828a85-5ca5-433f-93b1-90eaedc77617))
  (pad "D8" smd circle (at -2 -5.2) (size 0.4 0.4) (layers "F.Cu" "F.Paste" "F.Mask") (tstamp 24d8fcd2-5fd3-4aac-8397-6aacf96d0a21))
  (pad "D9" smd circle (at -1.2 -5.2) (size 0.4 0.4) (layers "F.Cu" "F.Paste" "F.Mask") (tstamp b85d048b-230e-4077-945a-aea5d1df1bd1))
  (pad "D10" smd circle (at -0.4 -5.2) (size 0.4 0.4) (layers "F.Cu" "F.Paste" "F.Mask") (tstamp bf772216-2730-40b1-9d35-9e45f8b66a9d))
  (pad "D11" smd circle (at 0.4 -5.2) (size 0.4 0.4) (layers "F.Cu" "F.Paste" "F.Mask") (tstamp fff21d08-39c3-431a-a8ac-04c366ec3239))
  (pad "D12" smd circle (at 1.2 -5.2) (size 0.4 0.4) (layers "F.Cu" "F.Paste" "F.Mask") (tstamp 7d228ea1-8cd9-4e4f-aecb-a0dc7a5cdefa))
  (pad "D13" smd circle (at 2 -5.2) (size 0.4 0.4) (layers "F.Cu" "F.Paste" "F.Mask") (tstamp 90b29696-5fec-4d61-884c-5e16be6bb971))
  (pad "D14" smd circle (at 2.8 -5.2) (size 0.4 0.4) (layers "F.Cu" "F.Paste" "F.Mask") (tstamp b3df943c-c8d1-4ac7-85c7-bf2f061fc44a))
  (pad "D15" smd circle (at 3.6 -5.2) (size 0.4 0.4) (layers "F.Cu" "F.Paste" "F.Mask") (tstamp ca37f209-2f52-4bc8-bb3d-cbebb50a499a))
  (pad "D16" smd circle (at 4.4 -5.2) (size 0.4 0.4) (layers "F.Cu" "F.Paste" "F.Mask") (tstamp 922ebb5d-4a23-40ce-8176-12e7604f01e1))
  (pad "D17" smd circle (at 5.2 -5.2) (size 0.4 0.4) (layers "F.Cu" "F.Paste" "F.Mask") (tstamp 03cc557e-9182-4e96-b8f0-fa470ad8e6b7))
  (pad "D18" smd circle (at 6 -5.2) (size 0.4 0.4) (layers "F.Cu" "F.Paste" "F.Mask") (tstamp 903a60ad-6670-4c07-ba31-39bbe500cf45))
  (pad "D19" smd circle (at 6.8 -5.2) (size 0.4 0.4) (layers "F.Cu" "F.Paste" "F.Mask") (tstamp f81494f1-8df1-47cb-bbcd-17d768861d08))
  (pad "D20" smd circle (at 7.6 -5.2) (size 0.4 0.4) (layers "F.Cu" "F.Paste" "F.Mask") (tstamp d3eccf00-d02a-4c70-b34c-ae05c62237e3))
  (pad "E1" smd circle (at -7.6 -4.4) (size 0.4 0.4) (layers "F.Cu" "F.Paste" "F.Mask") (tstamp 77241fde-bd0b-425f-9ec0-d9c0f9e08abd))
  (pad "E2" smd circle (at -6.8 -4.4) (size 0.4 0.4) (layers "F.Cu" "F.Paste" "F.Mask") (tstamp 8473bf50-7c6c-49de-a650-d5e65ff880f3))
  (pad "E3" smd circle (at -6 -4.4) (size 0.4 0.4) (layers "F.Cu" "F.Paste" "F.Mask") (tstamp 5e3237fc-6701-4bf4-a281-235d1d02277e))
  (pad "E4" smd circle (at -5.2 -4.4) (size 0.4 0.4) (layers "F.Cu" "F.Paste" "F.Mask") (tstamp 1428c4e3-af36-4e28-80e1-630341aa116b))
  (pad "E5" smd circle (at -4.4 -4.4) (size 0.4 0.4) (layers "F.Cu" "F.Paste" "F.Mask") (tstamp 61c6bfd8-7633-4f35-84c7-7b3c2942f3d2))
  (pad "E6" smd circle (at -3.6 -4.4) (size 0.4 0.4) (layers "F.Cu" "F.Paste" "F.Mask") (tstamp 35803e9c-945d-4619-ba1b-a9f13f9bb2dd))
  (pad "E7" smd circle (at -2.8 -4.4) (size 0.4 0.4) (layers "F.Cu" "F.Paste" "F.Mask") (tstamp 3395f17e-9789-40e4-bd4a-361cc2f6b31d))
  (pad "E8" smd circle (at -2 -4.4) (size 0.4 0.4) (layers "F.Cu" "F.Paste" "F.Mask") (tstamp 0faca937-ac0a-4aa9-9cac-42534e8bd362))
  (pad "E9" smd circle (at -1.2 -4.4) (size 0.4 0.4) (layers "F.Cu" "F.Paste" "F.Mask") (tstamp 392f680d-1c66-4359-96c9-66ef380b935b))
  (pad "E10" smd circle (at -0.4 -4.4) (size 0.4 0.4) (layers "F.Cu" "F.Paste" "F.Mask") (tstamp 2cb960e1-9c3a-44ca-9080-ec29c5fb3803))
  (pad "E11" smd circle (at 0.4 -4.4) (size 0.4 0.4) (layers "F.Cu" "F.Paste" "F.Mask") (tstamp 74fd4b46-2845-4d23-beef-a23774f24e65))
  (pad "E12" smd circle (at 1.2 -4.4) (size 0.4 0.4) (layers "F.Cu" "F.Paste" "F.Mask") (tstamp c8c4b09d-5bac-41a3-a9d0-bf39ec31fce5))
  (pad "E13" smd circle (at 2 -4.4) (size 0.4 0.4) (layers "F.Cu" "F.Paste" "F.Mask") (tstamp 560e1735-d29f-4c4d-b8e6-1072369c0b42))
  (pad "E14" smd circle (at 2.8 -4.4) (size 0.4 0.4) (layers "F.Cu" "F.Paste" "F.Mask") (tstamp 265fb745-9889-4f46-b99c-a09251486922))
  (pad "E15" smd circle (at 3.6 -4.4) (size 0.4 0.4) (layers "F.Cu" "F.Paste" "F.Mask") (tstamp 7d1188ca-c5eb-43ff-ac5f-28a772e45baf))
  (pad "E16" smd circle (at 4.4 -4.4) (size 0.4 0.4) (layers "F.Cu" "F.Paste" "F.Mask") (tstamp 058a9d54-28b8-4f68-95f8-28758ac30be7))
  (pad "E17" smd circle (at 5.2 -4.4) (size 0.4 0.4) (layers "F.Cu" "F.Paste" "F.Mask") (tstamp 01b3b825-3c17-4ddb-bb73-d8e0dc625220))
  (pad "E18" smd circle (at 6 -4.4) (size 0.4 0.4) (layers "F.Cu" "F.Paste" "F.Mask") (tstamp e50e83fc-a467-406e-b8ab-02b5667f5f3a))
  (pad "E19" smd circle (at 6.8 -4.4) (size 0.4 0.4) (layers "F.Cu" "F.Paste" "F.Mask") (tstamp 24559b11-823b-4aba-b0a2-eef0b1b27041))
  (pad "E20" smd circle (at 7.6 -4.4) (size 0.4 0.4) (layers "F.Cu" "F.Paste" "F.Mask") (tstamp 8f78a498-f42f-4aeb-aa40-37e14585c7ef))
  (pad "F1" smd circle (at -7.6 -3.6) (size 0.4 0.4) (layers "F.Cu" "F.Paste" "F.Mask") (tstamp 9621090a-eb94-4287-a1ea-909d0749bfd8))
  (pad "F2" smd circle (at -6.8 -3.6) (size 0.4 0.4) (layers "F.Cu" "F.Paste" "F.Mask") (tstamp 11e88aad-93a3-4d8c-964d-c13eba8b09f0))
  (pad "F3" smd circle (at -6 -3.6) (size 0.4 0.4) (layers "F.Cu" "F.Paste" "F.Mask") (tstamp 0868038e-98e5-4cc5-a831-f22f21650c58))
  (pad "F4" smd circle (at -5.2 -3.6) (size 0.4 0.4) (layers "F.Cu" "F.Paste" "F.Mask") (tstamp 284b3680-2d72-444f-8f97-32528375f21b))
  (pad "F5" smd circle (at -4.4 -3.6) (size 0.4 0.4) (layers "F.Cu" "F.Paste" "F.Mask") (tstamp 53e0004f-b3de-4384-b4ab-eeb14537a666))
  (pad "F6" smd circle (at -3.6 -3.6) (size 0.4 0.4) (layers "F.Cu" "F.Paste" "F.Mask") (tstamp 7ecea532-0868-4bc4-bbee-8c46cbb13a97))
  (pad "F7" smd circle (at -2.8 -3.6) (size 0.4 0.4) (layers "F.Cu" "F.Paste" "F.Mask") (tstamp e9830b84-07b8-4b1d-a254-746705202868))
  (pad "F8" smd circle (at -2 -3.6) (size 0.4 0.4) (layers "F.Cu" "F.Paste" "F.Mask") (tstamp 8ac0d34a-e7d6-4a6c-b04a-b812fdefdee6))
  (pad "F9" smd circle (at -1.2 -3.6) (size 0.4 0.4) (layers "F.Cu" "F.Paste" "F.Mask") (tstamp 57d9e3e8-02da-490c-b744-0c8f19f94d99))
  (pad "F10" smd circle (at -0.4 -3.6) (size 0.4 0.4) (layers "F.Cu" "F.Paste" "F.Mask") (tstamp 3f8c4edf-9462-4ebc-9f4b-9f87d4ac148f))
  (pad "F11" smd circle (at 0.4 -3.6) (size 0.4 0.4) (layers "F.Cu" "F.Paste" "F.Mask") (tstamp 28da7c11-f95c-437e-ac03-085124d6087c))
  (pad "F12" smd circle (at 1.2 -3.6) (size 0.4 0.4) (layers "F.Cu" "F.Paste" "F.Mask") (tstamp c5b36f62-5dc8-4278-832f-58c6e1e72f51))
  (pad "F13" smd circle (at 2 -3.6) (size 0.4 0.4) (layers "F.Cu" "F.Paste" "F.Mask") (tstamp 7aa858b3-1780-4cdf-afb0-bb995d22d631))
  (pad "F14" smd circle (at 2.8 -3.6) (size 0.4 0.4) (layers "F.Cu" "F.Paste" "F.Mask") (tstamp 754c24a2-dff2-4d39-919a-3bb4db8198a0))
  (pad "F15" smd circle (at 3.6 -3.6) (size 0.4 0.4) (layers "F.Cu" "F.Paste" "F.Mask") (tstamp 586a15b8-2bce-430f-b5b1-97ec1e3d3792))
  (pad "F16" smd circle (at 4.4 -3.6) (size 0.4 0.4) (layers "F.Cu" "F.Paste" "F.Mask") (tstamp e7023603-6253-4e4e-a9cc-dc6fc2e9661d))
  (pad "F17" smd circle (at 5.2 -3.6) (size 0.4 0.4) (layers "F.Cu" "F.Paste" "F.Mask") (tstamp f5fef23c-b929-4741-a98c-00079170ba8d))
  (pad "F18" smd circle (at 6 -3.6) (size 0.4 0.4) (layers "F.Cu" "F.Paste" "F.Mask") (tstamp 2931688d-df13-4e82-9184-79c2aa0d8cf3))
  (pad "F19" smd circle (at 6.8 -3.6) (size 0.4 0.4) (layers "F.Cu" "F.Paste" "F.Mask") (tstamp 455c4bc9-e598-45c8-aac1-203fee14ad9f))
  (pad "F20" smd circle (at 7.6 -3.6) (size 0.4 0.4) (layers "F.Cu" "F.Paste" "F.Mask") (tstamp 746642fc-11b1-494f-9880-bc2aee3f6ae4))
  (pad "G1" smd circle (at -7.6 -2.8) (size 0.4 0.4) (layers "F.Cu" "F.Paste" "F.Mask") (tstamp 6d6c5a59-19d2-4810-a659-5577d95d4153))
  (pad "G2" smd circle (at -6.8 -2.8) (size 0.4 0.4) (layers "F.Cu" "F.Paste" "F.Mask") (tstamp 70fba416-a538-43c8-80e9-db625621eb14))
  (pad "G3" smd circle (at -6 -2.8) (size 0.4 0.4) (layers "F.Cu" "F.Paste" "F.Mask") (tstamp 310328df-f291-4151-b16e-2a30cb6b7298))
  (pad "G4" smd circle (at -5.2 -2.8) (size 0.4 0.4) (layers "F.Cu" "F.Paste" "F.Mask") (tstamp 816443e6-4362-4e25-9428-30a193f289de))
  (pad "G5" smd circle (at -4.4 -2.8) (size 0.4 0.4) (layers "F.Cu" "F.Paste" "F.Mask") (tstamp 5576e059-6d7e-44dd-b1d6-3140069a2d2f))
  (pad "G6" smd circle (at -3.6 -2.8) (size 0.4 0.4) (layers "F.Cu" "F.Paste" "F.Mask") (tstamp 2120bd72-424e-4c98-bc35-916af93f023f))
  (pad "G7" smd circle (at -2.8 -2.8) (size 0.4 0.4) (layers "F.Cu" "F.Paste" "F.Mask") (tstamp b2181f53-437b-447a-a01c-ad8d6696c01c))
  (pad "G8" smd circle (at -2 -2.8) (size 0.4 0.4) (layers "F.Cu" "F.Paste" "F.Mask") (tstamp d3b16d89-7531-4c8c-9701-bec3ce1827a7))
  (pad "G9" smd circle (at -1.2 -2.8) (size 0.4 0.4) (layers "F.Cu" "F.Paste" "F.Mask") (tstamp 06592f3e-3180-4e55-843a-c6babfe6ae3a))
  (pad "G10" smd circle (at -0.4 -2.8) (size 0.4 0.4) (layers "F.Cu" "F.Paste" "F.Mask") (tstamp 4adedc08-6791-4309-a583-57abb4887465))
  (pad "G11" smd circle (at 0.4 -2.8) (size 0.4 0.4) (layers "F.Cu" "F.Paste" "F.Mask") (tstamp 2c75583f-cc04-40ae-bea4-c0ebb3c2f65a))
  (pad "G12" smd circle (at 1.2 -2.8) (size 0.4 0.4) (layers "F.Cu" "F.Paste" "F.Mask") (tstamp 017c714c-daa0-46b4-a893-050c6a868842))
  (pad "G13" smd circle (at 2 -2.8) (size 0.4 0.4) (layers "F.Cu" "F.Paste" "F.Mask") (tstamp 6fdb8ccc-7cc7-4c66-a290-25688cdeff9e))
  (pad "G14" smd circle (at 2.8 -2.8) (size 0.4 0.4) (layers "F.Cu" "F.Paste" "F.Mask") (tstamp 5609d4ce-64c8-46c9-b2bb-490eccdc9797))
  (pad "G15" smd circle (at 3.6 -2.8) (size 0.4 0.4) (layers "F.Cu" "F.Paste" "F.Mask") (tstamp f79a90a8-8122-48d1-a10d-f085f6eddf25))
  (pad "G16" smd circle (at 4.4 -2.8) (size 0.4 0.4) (layers "F.Cu" "F.Paste" "F.Mask") (tstamp 5065ed05-3355-4b1e-819b-bb94d6f0acce))
  (pad "G17" smd circle (at 5.2 -2.8) (size 0.4 0.4) (layers "F.Cu" "F.Paste" "F.Mask") (tstamp 191cd108-7688-4c4a-a8b1-d41adbe3c55f))
  (pad "G18" smd circle (at 6 -2.8) (size 0.4 0.4) (layers "F.Cu" "F.Paste" "F.Mask") (tstamp 755c99e6-3389-4e9b-9b21-33c3928899ee))
  (pad "G19" smd circle (at 6.8 -2.8) (size 0.4 0.4) (layers "F.Cu" "F.Paste" "F.Mask") (tstamp 43a4b16f-9533-4fb8-bf67-69ba4bb8aeab))
  (pad "G20" smd circle (at 7.6 -2.8) (size 0.4 0.4) (layers "F.Cu" "F.Paste" "F.Mask") (tstamp 795a9cb1-a4e7-40d3-b7d7-dab39da895ca))
  (pad "H1" smd circle (at -7.6 -2) (size 0.4 0.4) (layers "F.Cu" "F.Paste" "F.Mask") (tstamp 317966d8-3571-464a-98fd-ad21deab1f48))
  (pad "H2" smd circle (at -6.8 -2) (size 0.4 0.4) (layers "F.Cu" "F.Paste" "F.Mask") (tstamp 21d47a0d-e6a9-40ba-afab-f71ba446d7af))
  (pad "H3" smd circle (at -6 -2) (size 0.4 0.4) (layers "F.Cu" "F.Paste" "F.Mask") (tstamp 4789b937-97fc-4d9f-a663-020dad4efac6))
  (pad "H4" smd circle (at -5.2 -2) (size 0.4 0.4) (layers "F.Cu" "F.Paste" "F.Mask") (tstamp 13ecefc2-9755-49fd-b5bd-ade6b663a3bb))
  (pad "H5" smd circle (at -4.4 -2) (size 0.4 0.4) (layers "F.Cu" "F.Paste" "F.Mask") (tstamp 63a7e219-5dff-4033-93bc-ad69b7140e19))
  (pad "H6" smd circle (at -3.6 -2) (size 0.4 0.4) (layers "F.Cu" "F.Paste" "F.Mask") (tstamp 3b63a334-f629-48ee-96dd-7b1befa6771b))
  (pad "H7" smd circle (at -2.8 -2) (size 0.4 0.4) (layers "F.Cu" "F.Paste" "F.Mask") (tstamp 2c376f29-366d-45cc-be5d-05083193c494))
  (pad "H8" smd circle (at -2 -2) (size 0.4 0.4) (layers "F.Cu" "F.Paste" "F.Mask") (tstamp f611f6aa-dec9-452f-b679-c71dca4cc487))
  (pad "H9" smd circle (at -1.2 -2) (size 0.4 0.4) (layers "F.Cu" "F.Paste" "F.Mask") (tstamp 7f1bf5d3-0195-41e1-b052-cd68592fc168))
  (pad "H10" smd circle (at -0.4 -2) (size 0.4 0.4) (layers "F.Cu" "F.Paste" "F.Mask") (tstamp 0cfcdc91-a893-4c00-a318-20102006480c))
  (pad "H11" smd circle (at 0.4 -2) (size 0.4 0.4) (layers "F.Cu" "F.Paste" "F.Mask") (tstamp ca9f5fe7-6e54-4eaf-95e7-dfd6e9e45c79))
  (pad "H12" smd circle (at 1.2 -2) (size 0.4 0.4) (layers "F.Cu" "F.Paste" "F.Mask") (tstamp e475316e-272a-4903-b318-8eb8c72e215a))
  (pad "H13" smd circle (at 2 -2) (size 0.4 0.4) (layers "F.Cu" "F.Paste" "F.Mask") (tstamp 806e72df-3cfe-41f1-9d1a-fc7a3935e2dd))
  (pad "H14" smd circle (at 2.8 -2) (size 0.4 0.4) (layers "F.Cu" "F.Paste" "F.Mask") (tstamp 56e6dfdf-59f7-43c8-9a0d-ddb6b75a8ca8))
  (pad "H15" smd circle (at 3.6 -2) (size 0.4 0.4) (layers "F.Cu" "F.Paste" "F.Mask") (tstamp 9aa1433e-edbb-42c6-8278-a353e0bac555))
  (pad "H16" smd circle (at 4.4 -2) (size 0.4 0.4) (layers "F.Cu" "F.Paste" "F.Mask") (tstamp 2f319172-fd6f-4ace-9494-a8d411bfdb66))
  (pad "H17" smd circle (at 5.2 -2) (size 0.4 0.4) (layers "F.Cu" "F.Paste" "F.Mask") (tstamp 1150cd62-f5ad-489a-9ba9-bbda6a8a376b))
  (pad "H18" smd circle (at 6 -2) (size 0.4 0.4) (layers "F.Cu" "F.Paste" "F.Mask") (tstamp ce3cfda1-f183-4ae3-8a7b-4f334c7890c8))
  (pad "H19" smd circle (at 6.8 -2) (size 0.4 0.4) (layers "F.Cu" "F.Paste" "F.Mask") (tstamp b47b1365-e62c-45f6-aed5-641bd9ff7d8a))
  (pad "H20" smd circle (at 7.6 -2) (size 0.4 0.4) (layers "F.Cu" "F.Paste" "F.Mask") (tstamp b4c60780-be6a-4758-ab0d-887c5eafd779))
  (pad "J1" smd circle (at -7.6 -1.2) (size 0.4 0.4) (layers "F.Cu" "F.Paste" "F.Mask") (tstamp c0c00506-5920-4036-8398-4d76a8c80077))
  (pad "J2" smd circle (at -6.8 -1.2) (size 0.4 0.4) (layers "F.Cu" "F.Paste" "F.Mask") (tstamp fcdc61cb-d67c-40d5-b066-5dabacef75b5))
  (pad "J3" smd circle (at -6 -1.2) (size 0.4 0.4) (layers "F.Cu" "F.Paste" "F.Mask") (tstamp 62d5d37a-a13b-481e-b3d7-5de17b19cf4b))
  (pad "J4" smd circle (at -5.2 -1.2) (size 0.4 0.4) (layers "F.Cu" "F.Paste" "F.Mask") (tstamp dff3e040-d1fc-4747-801c-2ec5c0fabbb3))
  (pad "J5" smd circle (at -4.4 -1.2) (size 0.4 0.4) (layers "F.Cu" "F.Paste" "F.Mask") (tstamp 97ff353d-09b8-4169-898d-adca2279175d))
  (pad "J6" smd circle (at -3.6 -1.2) (size 0.4 0.4) (layers "F.Cu" "F.Paste" "F.Mask") (tstamp 23c358a4-0589-4200-8a5c-95e85cf52531))
  (pad "J7" smd circle (at -2.8 -1.2) (size 0.4 0.4) (layers "F.Cu" "F.Paste" "F.Mask") (tstamp a2d8c31e-091f-46a9-ab33-56a0f689aa41))
  (pad "J8" smd circle (at -2 -1.2) (size 0.4 0.4) (layers "F.Cu" "F.Paste" "F.Mask") (tstamp 0f52fd55-e3a3-43b9-bf9c-f2f6b896de07))
  (pad "J9" smd circle (at -1.2 -1.2) (size 0.4 0.4) (layers "F.Cu" "F.Paste" "F.Mask") (tstamp da519211-e66d-4b27-b545-2b2ba8f21da4))
  (pad "J10" smd circle (at -0.4 -1.2) (size 0.4 0.4) (layers "F.Cu" "F.Paste" "F.Mask") (tstamp 1e284d59-8f78-40d6-b4dc-b49ffc5901df))
  (pad "J11" smd circle (at 0.4 -1.2) (size 0.4 0.4) (layers "F.Cu" "F.Paste" "F.Mask") (tstamp a4a7e98a-f133-42f7-90ac-c2fc36ea8dd5))
  (pad "J12" smd circle (at 1.2 -1.2) (size 0.4 0.4) (layers "F.Cu" "F.Paste" "F.Mask") (tstamp 975a1cf6-321f-4ba0-b230-a5cb2631b1d9))
  (pad "J13" smd circle (at 2 -1.2) (size 0.4 0.4) (layers "F.Cu" "F.Paste" "F.Mask") (tstamp dcc17f8a-e76e-4b9a-8b34-127f18d4509e))
  (pad "J14" smd circle (at 2.8 -1.2) (size 0.4 0.4) (layers "F.Cu" "F.Paste" "F.Mask") (tstamp cf374a5c-3305-4cdb-b8ab-4c903ce38107))
  (pad "J15" smd circle (at 3.6 -1.2) (size 0.4 0.4) (layers "F.Cu" "F.Paste" "F.Mask") (tstamp 95ed00c9-4f72-410e-a327-5c92b06cb8be))
  (pad "J16" smd circle (at 4.4 -1.2) (size 0.4 0.4) (layers "F.Cu" "F.Paste" "F.Mask") (tstamp 5c731d34-8f14-4b52-bae4-c227256e9be6))
  (pad "J17" smd circle (at 5.2 -1.2) (size 0.4 0.4) (layers "F.Cu" "F.Paste" "F.Mask") (tstamp 326edc6a-a478-4129-a82e-d07008a6d154))
  (pad "J18" smd circle (at 6 -1.2) (size 0.4 0.4) (layers "F.Cu" "F.Paste" "F.Mask") (tstamp 99da15d7-8ae1-487c-b10c-979f740ec957))
  (pad "J19" smd circle (at 6.8 -1.2) (size 0.4 0.4) (layers "F.Cu" "F.Paste" "F.Mask") (tstamp 4bc1d34b-7dae-4244-89d7-ab2730e8acee))
  (pad "J20" smd circle (at 7.6 -1.2) (size 0.4 0.4) (layers "F.Cu" "F.Paste" "F.Mask") (tstamp 6b30cbe7-0dc2-48ca-bed1-19068a609356))
  (pad "K1" smd circle (at -7.6 -0.4) (size 0.4 0.4) (layers "F.Cu" "F.Paste" "F.Mask") (tstamp c854bd39-631c-4acb-bab0-4d7e80327210))
  (pad "K2" smd circle (at -6.8 -0.4) (size 0.4 0.4) (layers "F.Cu" "F.Paste" "F.Mask") (tstamp f62f8aa6-c3d3-4b27-9c46-9c095be24650))
  (pad "K3" smd circle (at -6 -0.4) (size 0.4 0.4) (layers "F.Cu" "F.Paste" "F.Mask") (tstamp 9583504b-d8a1-49ba-93c9-259d598020a5))
  (pad "K4" smd circle (at -5.2 -0.4) (size 0.4 0.4) (layers "F.Cu" "F.Paste" "F.Mask") (tstamp f8274b6b-f19a-4d7f-8225-406c4714f650))
  (pad "K5" smd circle (at -4.4 -0.4) (size 0.4 0.4) (layers "F.Cu" "F.Paste" "F.Mask") (tstamp 5eee7906-ab6b-40fb-b4cb-7cebf19ab6b6))
  (pad "K6" smd circle (at -3.6 -0.4) (size 0.4 0.4) (layers "F.Cu" "F.Paste" "F.Mask") (tstamp 60a8954f-81a9-4823-ade0-2384ccb20c19))
  (pad "K7" smd circle (at -2.8 -0.4) (size 0.4 0.4) (layers "F.Cu" "F.Paste" "F.Mask") (tstamp 6809c11d-9fd7-4efd-bd81-6ccb85c99e2d))
  (pad "K8" smd circle (at -2 -0.4) (size 0.4 0.4) (layers "F.Cu" "F.Paste" "F.Mask") (tstamp 98a3c2e5-5b11-4b47-9f7e-6dec6bf5dd1d))
  (pad "K9" smd circle (at -1.2 -0.4) (size 0.4 0.4) (layers "F.Cu" "F.Paste" "F.Mask") (tstamp 453a7a9a-a079-4ba7-bb3d-7849eda97d40))
  (pad "K10" smd circle (at -0.4 -0.4) (size 0.4 0.4) (layers "F.Cu" "F.Paste" "F.Mask") (tstamp 2afc1b1b-4e90-466b-9b6b-d479b4d84a59))
  (pad "K11" smd circle (at 0.4 -0.4) (size 0.4 0.4) (layers "F.Cu" "F.Paste" "F.Mask") (tstamp 638c2b46-ad7f-4cc3-a5a2-d548ac6f40f6))
  (pad "K12" smd circle (at 1.2 -0.4) (size 0.4 0.4) (layers "F.Cu" "F.Paste" "F.Mask") (tstamp 7891cfc1-f80c-43af-b509-1a32c8d800cf))
  (pad "K13" smd circle (at 2 -0.4) (size 0.4 0.4) (layers "F.Cu" "F.Paste" "F.Mask") (tstamp ccce87d0-e04c-478a-8f18-d53bb00f4a1b))
  (pad "K14" smd circle (at 2.8 -0.4) (size 0.4 0.4) (layers "F.Cu" "F.Paste" "F.Mask") (tstamp d0f1dbc8-8193-4c99-84a0-fe94b9237a6a))
  (pad "K15" smd circle (at 3.6 -0.4) (size 0.4 0.4) (layers "F.Cu" "F.Paste" "F.Mask") (tstamp 7db9eb2f-fc05-4c72-85f0-13d481a48cf4))
  (pad "K16" smd circle (at 4.4 -0.4) (size 0.4 0.4) (layers "F.Cu" "F.Paste" "F.Mask") (tstamp af81e536-23e9-4caf-bab2-b483451540a5))
  (pad "K17" smd circle (at 5.2 -0.4) (size 0.4 0.4) (layers "F.Cu" "F.Paste" "F.Mask") (tstamp 6016da41-0099-4685-be41-ddfd46b1dc75))
  (pad "K18" smd circle (at 6 -0.4) (size 0.4 0.4) (layers "F.Cu" "F.Paste" "F.Mask") (tstamp f9cd8994-10b1-4ec9-aa8c-8f348a5ccdfb))
  (pad "K19" smd circle (at 6.8 -0.4) (size 0.4 0.4) (layers "F.Cu" "F.Paste" "F.Mask") (tstamp 03c5d26b-8af1-42c4-863c-40c95798b6af))
  (pad "K20" smd circle (at 7.6 -0.4) (size 0.4 0.4) (layers "F.Cu" "F.Paste" "F.Mask") (tstamp fd3fd036-f66b-4331-86fa-70ea72c74078))
  (pad "L1" smd circle (at -7.6 0.4) (size 0.4 0.4) (layers "F.Cu" "F.Paste" "F.Mask") (tstamp 62858983-55b8-4a05-8e1f-497db8233982))
  (pad "L2" smd circle (at -6.8 0.4) (size 0.4 0.4) (layers "F.Cu" "F.Paste" "F.Mask") (tstamp e0a65874-26a6-4197-9ca7-d9c8eed84cc7))
  (pad "L3" smd circle (at -6 0.4) (size 0.4 0.4) (layers "F.Cu" "F.Paste" "F.Mask") (tstamp 88b81c95-2830-4cf2-9849-603b5569ba39))
  (pad "L4" smd circle (at -5.2 0.4) (size 0.4 0.4) (layers "F.Cu" "F.Paste" "F.Mask") (tstamp b233f771-69ca-418d-a8b7-9e633c99f7f6))
  (pad "L5" smd circle (at -4.4 0.4) (size 0.4 0.4) (layers "F.Cu" "F.Paste" "F.Mask") (tstamp 9c7b1414-5242-4774-988c-88128e8dc374))
  (pad "L6" smd circle (at -3.6 0.4) (size 0.4 0.4) (layers "F.Cu" "F.Paste" "F.Mask") (tstamp 9deef5a7-b169-4344-af9b-c4de5ca81d12))
  (pad "L7" smd circle (at -2.8 0.4) (size 0.4 0.4) (layers "F.Cu" "F.Paste" "F.Mask") (tstamp d439d766-96d5-40de-92dc-1356b909279d))
  (pad "L8" smd circle (at -2 0.4) (size 0.4 0.4) (layers "F.Cu" "F.Paste" "F.Mask") (tstamp edadc748-c882-481c-aca2-174ad089e870))
  (pad "L9" smd circle (at -1.2 0.4) (size 0.4 0.4) (layers "F.Cu" "F.Paste" "F.Mask") (tstamp dca98aab-2eb8-4b20-a274-3f92e024ff39))
  (pad "L10" smd circle (at -0.4 0.4) (size 0.4 0.4) (layers "F.Cu" "F.Paste" "F.Mask") (tstamp 22dc27a0-d0bf-4f40-953a-f4d90c3e03ee))
  (pad "L11" smd circle (at 0.4 0.4) (size 0.4 0.4) (layers "F.Cu" "F.Paste" "F.Mask") (tstamp fab5544e-78e6-4465-95e1-c1e0079ffd23))
  (pad "L12" smd circle (at 1.2 0.4) (size 0.4 0.4) (layers "F.Cu" "F.Paste" "F.Mask") (tstamp 08387a49-d984-4adf-9fae-ac8c4314d92e))
  (pad "L13" smd circle (at 2 0.4) (size 0.4 0.4) (layers "F.Cu" "F.Paste" "F.Mask") (tstamp d53f2232-0ac0-41c2-9748-b3957b6df659))
  (pad "L14" smd circle (at 2.8 0.4) (size 0.4 0.4) (layers "F.Cu" "F.Paste" "F.Mask") (tstamp 3144cf73-5f1d-4865-b8b6-ec74662d75cb))
  (pad "L15" smd circle (at 3.6 0.4) (size 0.4 0.4) (layers "F.Cu" "F.Paste" "F.Mask") (tstamp 9f43b7dd-0e55-4a19-b119-25beda1dbb49))
  (pad "L16" smd circle (at 4.4 0.4) (size 0.4 0.4) (layers "F.Cu" "F.Paste" "F.Mask") (tstamp 72ccaa5c-27be-4da0-b5b3-eba27b23df2a))
  (pad "L17" smd circle (at 5.2 0.4) (size 0.4 0.4) (layers "F.Cu" "F.Paste" "F.Mask") (tstamp 9082928a-7b92-4760-9345-0e0262db69c8))
  (pad "L18" smd circle (at 6 0.4) (size 0.4 0.4) (layers "F.Cu" "F.Paste" "F.Mask") (tstamp 3aa1830a-309c-4c18-b15d-0518c1080fcb))
  (pad "L19" smd circle (at 6.8 0.4) (size 0.4 0.4) (layers "F.Cu" "F.Paste" "F.Mask") (tstamp 3d1929fe-7633-4c55-bd31-a8c1d1fc9d84))
  (pad "L20" smd circle (at 7.6 0.4) (size 0.4 0.4) (layers "F.Cu" "F.Paste" "F.Mask") (tstamp 21ec8387-11c3-4ee1-9601-7c81eefa6268))
  (pad "M1" smd circle (at -7.6 1.2) (size 0.4 0.4) (layers "F.Cu" "F.Paste" "F.Mask") (tstamp 1bc00530-f34f-415d-ac74-3a770601ebfd))
  (pad "M2" smd circle (at -6.8 1.2) (size 0.4 0.4) (layers "F.Cu" "F.Paste" "F.Mask") (tstamp 6e79e76f-ddbf-4d40-8c8c-7bc5cedb50d7))
  (pad "M3" smd circle (at -6 1.2) (size 0.4 0.4) (layers "F.Cu" "F.Paste" "F.Mask") (tstamp a1bb0f6e-debc-4d5e-ab61-bd8127b6e36e))
  (pad "M4" smd circle (at -5.2 1.2) (size 0.4 0.4) (layers "F.Cu" "F.Paste" "F.Mask") (tstamp a0a4cf07-8b7f-45f8-b5f8-d37e521c7963))
  (pad "M5" smd circle (at -4.4 1.2) (size 0.4 0.4) (layers "F.Cu" "F.Paste" "F.Mask") (tstamp 45281896-a83a-472a-89cd-13fc988bd17e))
  (pad "M6" smd circle (at -3.6 1.2) (size 0.4 0.4) (layers "F.Cu" "F.Paste" "F.Mask") (tstamp e146c874-8a53-404b-a2f9-70088e06d8a7))
  (pad "M7" smd circle (at -2.8 1.2) (size 0.4 0.4) (layers "F.Cu" "F.Paste" "F.Mask") (tstamp b4f4cd7c-6c7d-4355-b301-685887597e25))
  (pad "M8" smd circle (at -2 1.2) (size 0.4 0.4) (layers "F.Cu" "F.Paste" "F.Mask") (tstamp 4d59be0e-7534-4e37-890b-cc849e9d7524))
  (pad "M9" smd circle (at -1.2 1.2) (size 0.4 0.4) (layers "F.Cu" "F.Paste" "F.Mask") (tstamp bf31daa7-cb7f-4d71-9c23-def93851e7ab))
  (pad "M10" smd circle (at -0.4 1.2) (size 0.4 0.4) (layers "F.Cu" "F.Paste" "F.Mask") (tstamp d0e3b509-f910-4803-82af-555f157a4eb6))
  (pad "M11" smd circle (at 0.4 1.2) (size 0.4 0.4) (layers "F.Cu" "F.Paste" "F.Mask") (tstamp 85931cf4-a3a4-46b4-9c92-6969f10b6ad7))
  (pad "M12" smd circle (at 1.2 1.2) (size 0.4 0.4) (layers "F.Cu" "F.Paste" "F.Mask") (tstamp 75644da5-e3ad-4136-84bd-28368eed7a7e))
  (pad "M13" smd circle (at 2 1.2) (size 0.4 0.4) (layers "F.Cu" "F.Paste" "F.Mask") (tstamp 93f812df-961c-4954-bb99-23f4b4085413))
  (pad "M14" smd circle (at 2.8 1.2) (size 0.4 0.4) (layers "F.Cu" "F.Paste" "F.Mask") (tstamp b6c1ec6a-583a-4c3e-854a-cb5180086f8e))
  (pad "M15" smd circle (at 3.6 1.2) (size 0.4 0.4) (layers "F.Cu" "F.Paste" "F.Mask") (tstamp 4dbd008c-bf28-44dd-b21c-29a5ecf0a9e1))
  (pad "M16" smd circle (at 4.4 1.2) (size 0.4 0.4) (layers "F.Cu" "F.Paste" "F.Mask") (tstamp a349b284-1941-4de2-a558-ed98d32aef0f))
  (pad "M17" smd circle (at 5.2 1.2) (size 0.4 0.4) (layers "F.Cu" "F.Paste" "F.Mask") (tstamp 5b326487-f31e-4d79-afa6-1796f6bf1279))
  (pad "M18" smd circle (at 6 1.2) (size 0.4 0.4) (layers "F.Cu" "F.Paste" "F.Mask") (tstamp a907e3a4-b463-41f3-b873-efa8acd847b2))
  (pad "M19" smd circle (at 6.8 1.2) (size 0.4 0.4) (layers "F.Cu" "F.Paste" "F.Mask") (tstamp bb904ff6-b740-42c8-ba1b-ea1b7b6704c9))
  (pad "M20" smd circle (at 7.6 1.2) (size 0.4 0.4) (layers "F.Cu" "F.Paste" "F.Mask") (tstamp 23a55d74-f250-40eb-bb52-a18a74c0e553))
  (pad "N1" smd circle (at -7.6 2) (size 0.4 0.4) (layers "F.Cu" "F.Paste" "F.Mask") (tstamp ef15bdaa-7f3f-4410-925d-addb7fe98a66))
  (pad "N2" smd circle (at -6.8 2) (size 0.4 0.4) (layers "F.Cu" "F.Paste" "F.Mask") (tstamp 22e86b62-2ae6-43d5-93f2-999f2963ae70))
  (pad "N3" smd circle (at -6 2) (size 0.4 0.4) (layers "F.Cu" "F.Paste" "F.Mask") (tstamp 762cae27-98a1-46aa-b1c0-83c02f9a1476))
  (pad "N4" smd circle (at -5.2 2) (size 0.4 0.4) (layers "F.Cu" "F.Paste" "F.Mask") (tstamp b4ef7eaa-dbe3-4e74-977b-23337e53bbc8))
  (pad "N5" smd circle (at -4.4 2) (size 0.4 0.4) (layers "F.Cu" "F.Paste" "F.Mask") (tstamp f0bb6f79-ecc6-48bb-980a-ab0c34ef70ec))
  (pad "N6" smd circle (at -3.6 2) (size 0.4 0.4) (layers "F.Cu" "F.Paste" "F.Mask") (tstamp 068a14ad-21ab-43f2-959a-8bf98cc56a97))
  (pad "N7" smd circle (at -2.8 2) (size 0.4 0.4) (layers "F.Cu" "F.Paste" "F.Mask") (tstamp 4569ce47-bb2d-48f0-9829-91b969566d18))
  (pad "N8" smd circle (at -2 2) (size 0.4 0.4) (layers "F.Cu" "F.Paste" "F.Mask") (tstamp 13a11083-214b-49d4-8172-d0808aa007c6))
  (pad "N9" smd circle (at -1.2 2) (size 0.4 0.4) (layers "F.Cu" "F.Paste" "F.Mask") (tstamp 7e815ce4-e845-4541-b42f-9abded5696ef))
  (pad "N10" smd circle (at -0.4 2) (size 0.4 0.4) (layers "F.Cu" "F.Paste" "F.Mask") (tstamp d395b769-1c50-4bfb-a877-996ff5a0f29c))
  (pad "N11" smd circle (at 0.4 2) (size 0.4 0.4) (layers "F.Cu" "F.Paste" "F.Mask") (tstamp 2599eacf-447f-44f7-8c5f-c3f68be7501d))
  (pad "N12" smd circle (at 1.2 2) (size 0.4 0.4) (layers "F.Cu" "F.Paste" "F.Mask") (tstamp b829ec71-9a1c-456d-84ba-2c6d71d042e2))
  (pad "N13" smd circle (at 2 2) (size 0.4 0.4) (layers "F.Cu" "F.Paste" "F.Mask") (tstamp e6030e34-2be6-4b41-afcb-5c9ff8cc320d))
  (pad "N14" smd circle (at 2.8 2) (size 0.4 0.4) (layers "F.Cu" "F.Paste" "F.Mask") (tstamp d5ac10ba-8bc7-4f0c-b6a5-d8e3dd089c60))
  (pad "N15" smd circle (at 3.6 2) (size 0.4 0.4) (layers "F.Cu" "F.Paste" "F.Mask") (tstamp f3c56330-e0de-4201-bcc7-ebe2dcd1e323))
  (pad "N16" smd circle (at 4.4 2) (size 0.4 0.4) (layers "F.Cu" "F.Paste" "F.Mask") (tstamp 018a0b12-417e-4703-bc8f-556c37f1d15f))
  (pad "N17" smd circle (at 5.2 2) (size 0.4 0.4) (layers "F.Cu" "F.Paste" "F.Mask") (tstamp fe42df48-7c2f-4437-b9df-1a91ff583fd5))
  (pad "N18" smd circle (at 6 2) (size 0.4 0.4) (layers "F.Cu" "F.Paste" "F.Mask") (tstamp 77830e29-bd87-487c-8e5f-b6f9ce6bf357))
  (pad "N19" smd circle (at 6.8 2) (size 0.4 0.4) (layers "F.Cu" "F.Paste" "F.Mask") (tstamp 7ddb22bc-498d-4702-aaac-1ad0fcfa84ef))
  (pad "N20" smd circle (at 7.6 2) (size 0.4 0.4) (layers "F.Cu" "F.Paste" "F.Mask") (tstamp 989ab00a-4f80-4ecc-a707-8e934c2d2bfe))
  (pad "P1" smd circle (at -7.6 2.8) (size 0.4 0.4) (layers "F.Cu" "F.Paste" "F.Mask") (tstamp 69a1089c-8ebd-4881-b0ae-1f92b68b1306))
  (pad "P2" smd circle (at -6.8 2.8) (size 0.4 0.4) (layers "F.Cu" "F.Paste" "F.Mask") (tstamp 638a94f4-0685-405a-a91f-70c5db123870))
  (pad "P3" smd circle (at -6 2.8) (size 0.4 0.4) (layers "F.Cu" "F.Paste" "F.Mask") (tstamp 1ef495a9-a10e-46f2-88bb-52ae000fdc7a))
  (pad "P4" smd circle (at -5.2 2.8) (size 0.4 0.4) (layers "F.Cu" "F.Paste" "F.Mask") (tstamp 6f06603e-3123-4775-95b7-27dc7c215f5b))
  (pad "P5" smd circle (at -4.4 2.8) (size 0.4 0.4) (layers "F.Cu" "F.Paste" "F.Mask") (tstamp 0603cbbd-d02e-4b14-800f-3c95cb4429d9))
  (pad "P6" smd circle (at -3.6 2.8) (size 0.4 0.4) (layers "F.Cu" "F.Paste" "F.Mask") (tstamp 772e4da4-c431-4134-871e-435c0375691a))
  (pad "P7" smd circle (at -2.8 2.8) (size 0.4 0.4) (layers "F.Cu" "F.Paste" "F.Mask") (tstamp 8e4bdfd2-d168-49da-aecb-e3dbe11484ca))
  (pad "P8" smd circle (at -2 2.8) (size 0.4 0.4) (layers "F.Cu" "F.Paste" "F.Mask") (tstamp 3c993cd1-5dd3-4a00-abc4-3d5f7375cfd1))
  (pad "P9" smd circle (at -1.2 2.8) (size 0.4 0.4) (layers "F.Cu" "F.Paste" "F.Mask") (tstamp 969c4d15-6a61-49dc-8f1a-b8690aee821d))
  (pad "P10" smd circle (at -0.4 2.8) (size 0.4 0.4) (layers "F.Cu" "F.Paste" "F.Mask") (tstamp 8bc522f8-6eef-4b70-bbb6-2a4532295fcf))
  (pad "P11" smd circle (at 0.4 2.8) (size 0.4 0.4) (layers "F.Cu" "F.Paste" "F.Mask") (tstamp d263dc32-a56d-49dc-be10-1748dc5bec9a))
  (pad "P12" smd circle (at 1.2 2.8) (size 0.4 0.4) (layers "F.Cu" "F.Paste" "F.Mask") (tstamp 93774d73-14fa-499d-8c7b-d61c4235dc4f))
  (pad "P13" smd circle (at 2 2.8) (size 0.4 0.4) (layers "F.Cu" "F.Paste" "F.Mask") (tstamp f99893dd-0d58-4e21-8e4d-f741d1a172d0))
  (pad "P14" smd circle (at 2.8 2.8) (size 0.4 0.4) (layers "F.Cu" "F.Paste" "F.Mask") (tstamp 180d566a-875d-4418-9f6e-28eb47e27e19))
  (pad "P15" smd circle (at 3.6 2.8) (size 0.4 0.4) (layers "F.Cu" "F.Paste" "F.Mask") (tstamp 6b8f5785-b6cb-48aa-9e02-5f5763789bad))
  (pad "P16" smd circle (at 4.4 2.8) (size 0.4 0.4) (layers "F.Cu" "F.Paste" "F.Mask") (tstamp 80389709-ae90-4e70-8bed-1d380a3e7fdd))
  (pad "P17" smd circle (at 5.2 2.8) (size 0.4 0.4) (layers "F.Cu" "F.Paste" "F.Mask") (tstamp 285989c3-f65d-4d5d-aee6-575f4a42d6c0))
  (pad "P18" smd circle (at 6 2.8) (size 0.4 0.4) (layers "F.Cu" "F.Paste" "F.Mask") (tstamp e525a490-9fc2-4afa-a347-809c6f601711))
  (pad "P19" smd circle (at 6.8 2.8) (size 0.4 0.4) (layers "F.Cu" "F.Paste" "F.Mask") (tstamp 32060c0a-0997-4a1e-9484-96642cbf3f02))
  (pad "P20" smd circle (at 7.6 2.8) (size 0.4 0.4) (layers "F.Cu" "F.Paste" "F.Mask") (tstamp f73996cd-40bd-4674-8bc4-14c9089536a4))
  (pad "R1" smd circle (at -7.6 3.6) (size 0.4 0.4) (layers "F.Cu" "F.Paste" "F.Mask") (tstamp 15f6aa19-4a1c-4617-918e-ee4c89be3532))
  (pad "R2" smd circle (at -6.8 3.6) (size 0.4 0.4) (layers "F.Cu" "F.Paste" "F.Mask") (tstamp a6fb815e-b8e3-425d-af51-5b905de4d013))
  (pad "R3" smd circle (at -6 3.6) (size 0.4 0.4) (layers "F.Cu" "F.Paste" "F.Mask") (tstamp 5dfccda8-642f-4cef-8add-42eb5b55635c))
  (pad "R4" smd circle (at -5.2 3.6) (size 0.4 0.4) (layers "F.Cu" "F.Paste" "F.Mask") (tstamp a8a90b31-7b46-4b15-ba64-a363a0f51015))
  (pad "R5" smd circle (at -4.4 3.6) (size 0.4 0.4) (layers "F.Cu" "F.Paste" "F.Mask") (tstamp d6030cb5-6ee2-4d28-8036-021b7d8b0c54))
  (pad "R16" smd circle (at 4.4 3.6) (size 0.4 0.4) (layers "F.Cu" "F.Paste" "F.Mask") (tstamp c7fe78c0-45a1-4b90-8cad-c24f333be838))
  (pad "R17" smd circle (at 5.2 3.6) (size 0.4 0.4) (layers "F.Cu" "F.Paste" "F.Mask") (tstamp f3997c48-a705-495a-9cf0-5367a8b9b442))
  (pad "R18" smd circle (at 6 3.6) (size 0.4 0.4) (layers "F.Cu" "F.Paste" "F.Mask") (tstamp fca63fc5-aa55-4337-ac84-a951e2d7afaa))
  (pad "R19" smd circle (at 6.8 3.6) (size 0.4 0.4) (layers "F.Cu" "F.Paste" "F.Mask") (tstamp 641a2777-8990-4fa3-9d8e-74e7e0c41a38))
  (pad "R20" smd circle (at 7.6 3.6) (size 0.4 0.4) (layers "F.Cu" "F.Paste" "F.Mask") (tstamp 8e6768ed-ea7a-4528-ba90-3d211c8de06a))
  (pad "T1" smd circle (at -7.6 4.4) (size 0.4 0.4) (layers "F.Cu" "F.Paste" "F.Mask") (tstamp 0234694d-3c5a-445d-b112-8f793505b606))
  (pad "T2" smd circle (at -6.8 4.4) (size 0.4 0.4) (layers "F.Cu" "F.Paste" "F.Mask") (tstamp 24747e7e-acd9-4f29-a210-4d4607015e6a))
  (pad "T3" smd circle (at -6 4.4) (size 0.4 0.4) (layers "F.Cu" "F.Paste" "F.Mask") (tstamp 8de4e361-de59-4a25-8c2a-e292bec054d4))
  (pad "T4" smd circle (at -5.2 4.4) (size 0.4 0.4) (layers "F.Cu" "F.Paste" "F.Mask") (tstamp cf3b6546-3b93-4ce1-b62c-7b66b649e791))
  (pad "T5" smd circle (at -4.4 4.4) (size 0.4 0.4) (layers "F.Cu" "F.Paste" "F.Mask") (tstamp 6e5902f0-094b-472a-8342-9f0a90aedcf4))
  (pad "T6" smd circle (at -3.6 4.4) (size 0.4 0.4) (layers "F.Cu" "F.Paste" "F.Mask") (tstamp 6b55f259-e53f-457f-9275-f7d15fd8fc3f))
  (pad "T7" smd circle (at -2.8 4.4) (size 0.4 0.4) (layers "F.Cu" "F.Paste" "F.Mask") (tstamp 0237da37-6204-44dd-9497-f37a4629e501))
  (pad "T8" smd circle (at -2 4.4) (size 0.4 0.4) (layers "F.Cu" "F.Paste" "F.Mask") (tstamp f9c2ffcf-bc3d-47c6-a0ed-70298131b72c))
  (pad "T9" smd circle (at -1.2 4.4) (size 0.4 0.4) (layers "F.Cu" "F.Paste" "F.Mask") (tstamp 2f428eb7-7613-4629-a0e0-8a46732dcc6f))
  (pad "T10" smd circle (at -0.4 4.4) (size 0.4 0.4) (layers "F.Cu" "F.Paste" "F.Mask") (tstamp f0c4aaea-d239-407b-ad8a-85af38e77b59))
  (pad "T11" smd circle (at 0.4 4.4) (size 0.4 0.4) (layers "F.Cu" "F.Paste" "F.Mask") (tstamp 30d2eb41-f58a-4989-a698-16635c39f83c))
  (pad "T12" smd circle (at 1.2 4.4) (size 0.4 0.4) (layers "F.Cu" "F.Paste" "F.Mask") (tstamp bb2f7a2b-bd63-4bcb-96cc-b84689aae3f7))
  (pad "T13" smd circle (at 2 4.4) (size 0.4 0.4) (layers "F.Cu" "F.Paste" "F.Mask") (tstamp 04f6d4ec-fb9a-4924-b041-bfbc66e6f09b))
  (pad "T14" smd circle (at 2.8 4.4) (size 0.4 0.4) (layers "F.Cu" "F.Paste" "F.Mask") (tstamp 230ad008-3fb1-4161-b1fc-5e8cdeac073c))
  (pad "T15" smd circle (at 3.6 4.4) (size 0.4 0.4) (layers "F.Cu" "F.Paste" "F.Mask") (tstamp 2dd13b07-0503-4340-a062-7f470f2b4b5b))
  (pad "T16" smd circle (at 4.4 4.4) (size 0.4 0.4) (layers "F.Cu" "F.Paste" "F.Mask") (tstamp 6c685af7-d138-4839-80de-61a15979a502))
  (pad "T17" smd circle (at 5.2 4.4) (size 0.4 0.4) (layers "F.Cu" "F.Paste" "F.Mask") (tstamp 2bc30838-3076-49b9-bc33-8cc7bfd57714))
  (pad "T18" smd circle (at 6 4.4) (size 0.4 0.4) (layers "F.Cu" "F.Paste" "F.Mask") (tstamp 7105fc5a-d456-40ed-bc40-1336dd71c2f6))
  (pad "T19" smd circle (at 6.8 4.4) (size 0.4 0.4) (layers "F.Cu" "F.Paste" "F.Mask") (tstamp a6327b60-749d-4a19-89cc-2354855fe692))
  (pad "T20" smd circle (at 7.6 4.4) (size 0.4 0.4) (layers "F.Cu" "F.Paste" "F.Mask") (tstamp ad666208-e4af-4c7e-860d-c628a04bd379))
  (pad "U1" smd circle (at -7.6 5.2) (size 0.4 0.4) (layers "F.Cu" "F.Paste" "F.Mask") (tstamp 91a1e461-8ddc-44aa-aebb-70e052f9d6cf))
  (pad "U2" smd circle (at -6.8 5.2) (size 0.4 0.4) (layers "F.Cu" "F.Paste" "F.Mask") (tstamp efd3f07a-efea-4a23-8afe-d0a27fd4900d))
  (pad "U3" smd circle (at -6 5.2) (size 0.4 0.4) (layers "F.Cu" "F.Paste" "F.Mask") (tstamp 0bbd278a-5c2f-4f64-b019-83fb7e1a9a67))
  (pad "U4" smd circle (at -5.2 5.2) (size 0.4 0.4) (layers "F.Cu" "F.Paste" "F.Mask") (tstamp d6cbb501-fd2d-4926-b181-f2116ad9bc21))
  (pad "U5" smd circle (at -4.4 5.2) (size 0.4 0.4) (layers "F.Cu" "F.Paste" "F.Mask") (tstamp f48894d1-0053-419b-beff-befa0006bc31))
  (pad "U6" smd circle (at -3.6 5.2) (size 0.4 0.4) (layers "F.Cu" "F.Paste" "F.Mask") (tstamp 87dcddda-5561-4115-ad6a-976f1cce054e))
  (pad "U7" smd circle (at -2.8 5.2) (size 0.4 0.4) (layers "F.Cu" "F.Paste" "F.Mask") (tstamp 841afedc-4369-4b67-940e-9bb8d9758336))
  (pad "U8" smd circle (at -2 5.2) (size 0.4 0.4) (layers "F.Cu" "F.Paste" "F.Mask") (tstamp 7cc72f4f-16fc-4df1-898d-2abf4fc1adcc))
  (pad "U9" smd circle (at -1.2 5.2) (size 0.4 0.4) (layers "F.Cu" "F.Paste" "F.Mask") (tstamp 6f707c35-de7a-423f-a41d-f28c4b132bc1))
  (pad "U10" smd circle (at -0.4 5.2) (size 0.4 0.4) (layers "F.Cu" "F.Paste" "F.Mask") (tstamp 2582e73a-1e03-4801-9eef-f870db37219e))
  (pad "U11" smd circle (at 0.4 5.2) (size 0.4 0.4) (layers "F.Cu" "F.Paste" "F.Mask") (tstamp 171df179-8517-4383-9f81-1fe3f0865f9e))
  (pad "U12" smd circle (at 1.2 5.2) (size 0.4 0.4) (layers "F.Cu" "F.Paste" "F.Mask") (tstamp d3d1731e-3974-4045-ace4-9c3ddbaeda0a))
  (pad "U13" smd circle (at 2 5.2) (size 0.4 0.4) (layers "F.Cu" "F.Paste" "F.Mask") (tstamp 604fbbc0-0399-4895-9f59-230ca07fa2a9))
  (pad "U14" smd circle (at 2.8 5.2) (size 0.4 0.4) (layers "F.Cu" "F.Paste" "F.Mask") (tstamp 93ed56e7-8ffb-42d8-8120-9af1461e8f84))
  (pad "U15" smd circle (at 3.6 5.2) (size 0.4 0.4) (layers "F.Cu" "F.Paste" "F.Mask") (tstamp e5a06c63-20da-489a-9d17-0d9e73c76796))
  (pad "U16" smd circle (at 4.4 5.2) (size 0.4 0.4) (layers "F.Cu" "F.Paste" "F.Mask") (tstamp ff20bbc3-de2c-4c97-9f92-8a506c85a4b2))
  (pad "U17" smd circle (at 5.2 5.2) (size 0.4 0.4) (layers "F.Cu" "F.Paste" "F.Mask") (tstamp 5c198760-556c-443d-a0b7-bedfdc05c674))
  (pad "U18" smd circle (at 6 5.2) (size 0.4 0.4) (layers "F.Cu" "F.Paste" "F.Mask") (tstamp f246434a-9ea8-41bf-9fb9-745f47ef9a15))
  (pad "U19" smd circle (at 6.8 5.2) (size 0.4 0.4) (layers "F.Cu" "F.Paste" "F.Mask") (tstamp 0753bf4c-1ff6-436d-8e21-f57fdb6d8448))
  (pad "U20" smd circle (at 7.6 5.2) (size 0.4 0.4) (layers "F.Cu" "F.Paste" "F.Mask") (tstamp f7d98ac0-42b5-440a-a09f-286e3bde5699))
  (pad "V1" smd circle (at -7.6 6) (size 0.4 0.4) (layers "F.Cu" "F.Paste" "F.Mask") (tstamp bead9d7c-4108-4bc1-8a9d-7777d4271f08))
  (pad "V2" smd circle (at -6.8 6) (size 0.4 0.4) (layers "F.Cu" "F.Paste" "F.Mask") (tstamp b99b723e-1dc6-430a-8da7-267e79c35f5f))
  (pad "V3" smd circle (at -6 6) (size 0.4 0.4) (layers "F.Cu" "F.Paste" "F.Mask") (tstamp daf64999-3222-4723-ab74-a5f24737aba5))
  (pad "V4" smd circle (at -5.2 6) (size 0.4 0.4) (layers "F.Cu" "F.Paste" "F.Mask") (tstamp b3167229-99e5-4444-8056-d6749b5e07b8))
  (pad "V5" smd circle (at -4.4 6) (size 0.4 0.4) (layers "F.Cu" "F.Paste" "F.Mask") (tstamp 0cf135bb-dfa3-4750-a268-15846ed24f59))
  (pad "V6" smd circle (at -3.6 6) (size 0.4 0.4) (layers "F.Cu" "F.Paste" "F.Mask") (tstamp 740634d8-0488-4150-9f49-af142150a4ad))
  (pad "V7" smd circle (at -2.8 6) (size 0.4 0.4) (layers "F.Cu" "F.Paste" "F.Mask") (tstamp f5462fb7-d682-4739-a58a-ba21cdf76246))
  (pad "V8" smd circle (at -2 6) (size 0.4 0.4) (layers "F.Cu" "F.Paste" "F.Mask") (tstamp ae2b52b8-804f-4b24-b424-71a2a2e511c5))
  (pad "V9" smd circle (at -1.2 6) (size 0.4 0.4) (layers "F.Cu" "F.Paste" "F.Mask") (tstamp 8e54d5f9-b5a1-475d-beda-7e2a9119aa67))
  (pad "V10" smd circle (at -0.4 6) (size 0.4 0.4) (layers "F.Cu" "F.Paste" "F.Mask") (tstamp e865f49c-1821-4be2-a59e-4b56abc9a2fb))
  (pad "V11" smd circle (at 0.4 6) (size 0.4 0.4) (layers "F.Cu" "F.Paste" "F.Mask") (tstamp 50d72d69-189f-4a5a-b3f5-e62ec8625a16))
  (pad "V12" smd circle (at 1.2 6) (size 0.4 0.4) (layers "F.Cu" "F.Paste" "F.Mask") (tstamp 1c25ffe5-9294-4277-89d5-c340f04b9618))
  (pad "V13" smd circle (at 2 6) (size 0.4 0.4) (layers "F.Cu" "F.Paste" "F.Mask") (tstamp abfecbea-048d-4d4d-afaf-7859f538904c))
  (pad "V14" smd circle (at 2.8 6) (size 0.4 0.4) (layers "F.Cu" "F.Paste" "F.Mask") (tstamp 619c402d-3b20-446a-bc8f-f83ca79de442))
  (pad "V15" smd circle (at 3.6 6) (size 0.4 0.4) (layers "F.Cu" "F.Paste" "F.Mask") (tstamp 8cdf67f9-3b06-49f6-af9c-5850d3fc21fc))
  (pad "V16" smd circle (at 4.4 6) (size 0.4 0.4) (layers "F.Cu" "F.Paste" "F.Mask") (tstamp 9fcc82d5-0802-484d-a65c-eb77b32c68ce))
  (pad "V17" smd circle (at 5.2 6) (size 0.4 0.4) (layers "F.Cu" "F.Paste" "F.Mask") (tstamp 86e026c8-cf75-4b04-a35c-42e8c2a37ed3))
  (pad "V18" smd circle (at 6 6) (size 0.4 0.4) (layers "F.Cu" "F.Paste" "F.Mask") (tstamp 239a1027-f064-4eda-b3ed-9b27887131ad))
  (pad "V19" smd circle (at 6.8 6) (size 0.4 0.4) (layers "F.Cu" "F.Paste" "F.Mask") (tstamp 3e530f3a-98b1-435d-ad40-311ed76b473d))
  (pad "V20" smd circle (at 7.6 6) (size 0.4 0.4) (layers "F.Cu" "F.Paste" "F.Mask") (tstamp 4b4d48ce-330b-49ae-b87d-25a06d3fc663))
  (pad "W1" smd circle (at -7.6 6.8) (size 0.4 0.4) (layers "F.Cu" "F.Paste" "F.Mask") (tstamp d2dedc37-b28f-4a20-a27e-f3dda2b91f7d))
  (pad "W2" smd circle (at -6.8 6.8) (size 0.4 0.4) (layers "F.Cu" "F.Paste" "F.Mask") (tstamp 9b3cbda1-0d09-4856-9b7c-fc0504844553))
  (pad "W3" smd circle (at -6 6.8) (size 0.4 0.4) (layers "F.Cu" "F.Paste" "F.Mask") (tstamp a6b80692-e3f3-4336-9d60-b361c73e5fc7))
  (pad "W4" smd circle (at -5.2 6.8) (size 0.4 0.4) (layers "F.Cu" "F.Paste" "F.Mask") (tstamp 161b8345-c1e3-437c-809a-0ffa4df2c1c5))
  (pad "W5" smd circle (at -4.4 6.8) (size 0.4 0.4) (layers "F.Cu" "F.Paste" "F.Mask") (tstamp 679f401f-70e1-4f52-b1e4-27fb5548f63b))
  (pad "W6" smd circle (at -3.6 6.8) (size 0.4 0.4) (layers "F.Cu" "F.Paste" "F.Mask") (tstamp 5823dce1-7050-4902-940c-963a2983e96b))
  (pad "W7" smd circle (at -2.8 6.8) (size 0.4 0.4) (layers "F.Cu" "F.Paste" "F.Mask") (tstamp 45338b90-05cd-4bb2-b723-2a7a7b3f0f20))
  (pad "W8" smd circle (at -2 6.8) (size 0.4 0.4) (layers "F.Cu" "F.Paste" "F.Mask") (tstamp dccdc701-1e09-42ec-8ec8-eeca83c620a6))
  (pad "W9" smd circle (at -1.2 6.8) (size 0.4 0.4) (layers "F.Cu" "F.Paste" "F.Mask") (tstamp 325f0a37-7258-4f8d-be16-6d2e6716c475))
  (pad "W10" smd circle (at -0.4 6.8) (size 0.4 0.4) (layers "F.Cu" "F.Paste" "F.Mask") (tstamp 0508c31c-58ae-440c-b4e3-9c930eeb7335))
  (pad "W11" smd circle (at 0.4 6.8) (size 0.4 0.4) (layers "F.Cu" "F.Paste" "F.Mask") (tstamp ca80e78e-ea7e-43b1-ae57-bb45418e6ec1))
  (pad "W12" smd circle (at 1.2 6.8) (size 0.4 0.4) (layers "F.Cu" "F.Paste" "F.Mask") (tstamp 3381a8b8-ac1c-42f3-9c14-94f922c8a1d7))
  (pad "W13" smd circle (at 2 6.8) (size 0.4 0.4) (layers "F.Cu" "F.Paste" "F.Mask") (tstamp 288a0f61-7a6c-476d-aad4-881854a36b47))
  (pad "W14" smd circle (at 2.8 6.8) (size 0.4 0.4) (layers "F.Cu" "F.Paste" "F.Mask") (tstamp 0340a89c-4a30-401c-83c2-5383e424d4ec))
  (pad "W15" smd circle (at 3.6 6.8) (size 0.4 0.4) (layers "F.Cu" "F.Paste" "F.Mask") (tstamp 6980bcf3-43c3-45bd-94f5-daa7a1091792))
  (pad "W16" smd circle (at 4.4 6.8) (size 0.4 0.4) (layers "F.Cu" "F.Paste" "F.Mask") (tstamp c1d06572-43fe-4be7-8347-c12a0e2031b9))
  (pad "W17" smd circle (at 5.2 6.8) (size 0.4 0.4) (layers "F.Cu" "F.Paste" "F.Mask") (tstamp fe7cc318-ca44-4a0f-a6f3-394464bd9e10))
  (pad "W18" smd circle (at 6 6.8) (size 0.4 0.4) (layers "F.Cu" "F.Paste" "F.Mask") (tstamp 9dc9483f-2651-4e72-b814-9531ce6beb7c))
  (pad "W19" smd circle (at 6.8 6.8) (size 0.4 0.4) (layers "F.Cu" "F.Paste" "F.Mask") (tstamp 56f30d73-b22b-47dc-b4a9-b00b45d2bd11))
  (pad "W20" smd circle (at 7.6 6.8) (size 0.4 0.4) (layers "F.Cu" "F.Paste" "F.Mask") (tstamp 1adfb069-9e0a-4fa3-96d8-4e618ebd1596))
  (pad "Y2" smd circle (at -6.8 7.6) (size 0.4 0.4) (layers "F.Cu" "F.Paste" "F.Mask") (tstamp b19bcf7c-ea12-4c00-aa17-d6b28e6fe8ff))
  (pad "Y3" smd circle (at -6 7.6) (size 0.4 0.4) (layers "F.Cu" "F.Paste" "F.Mask") (tstamp b44ef4a4-d45f-484b-bf24-ff79e4b33913))
  (pad "Y5" smd circle (at -4.4 7.6) (size 0.4 0.4) (layers "F.Cu" "F.Paste" "F.Mask") (tstamp 52b7013f-2333-4cd3-a067-0748805bfc58))
  (pad "Y6" smd circle (at -3.6 7.6) (size 0.4 0.4) (layers "F.Cu" "F.Paste" "F.Mask") (tstamp 46133b28-27d6-479e-a518-51a1bb705eea))
  (pad "Y7" smd circle (at -2.8 7.6) (size 0.4 0.4) (layers "F.Cu" "F.Paste" "F.Mask") (tstamp 060938ad-2c31-44cd-b659-a4e2b507b065))
  (pad "Y8" smd circle (at -2 7.6) (size 0.4 0.4) (layers "F.Cu" "F.Paste" "F.Mask") (tstamp c599bc42-2971-44be-8f56-d7e19bb90c0b))
  (pad "Y11" smd circle (at 0.4 7.6) (size 0.4 0.4) (layers "F.Cu" "F.Paste" "F.Mask") (tstamp 966b9050-507b-40c4-bb8f-5b747179606f))
  (pad "Y12" smd circle (at 1.2 7.6) (size 0.4 0.4) (layers "F.Cu" "F.Paste" "F.Mask") (tstamp 137298fd-c20d-4cba-8afc-81bbfb069420))
  (pad "Y14" smd circle (at 2.8 7.6) (size 0.4 0.4) (layers "F.Cu" "F.Paste" "F.Mask") (tstamp 5bc6910f-7f3a-4b82-b92b-6c538fc5a072))
  (pad "Y15" smd circle (at 3.6 7.6) (size 0.4 0.4) (layers "F.Cu" "F.Paste" "F.Mask") (tstamp 1d561698-cd30-4d31-85f0-2f1b454daf69))
  (pad "Y16" smd circle (at 4.4 7.6) (size 0.4 0.4) (layers "F.Cu" "F.Paste" "F.Mask") (tstamp 7c6cc452-831b-4d2a-ac1c-59d48ad87666))
  (pad "Y17" smd circle (at 5.2 7.6) (size 0.4 0.4) (layers "F.Cu" "F.Paste" "F.Mask") (tstamp 719d0847-d1c0-4596-b584-8db7f3b58647))
  (pad "Y19" smd circle (at 6.8 7.6) (size 0.4 0.4) (layers "F.Cu" "F.Paste" "F.Mask") (tstamp e07e995e-a018-4121-84aa-b77ec20e3a69))
  (model "${KICAD6_3DMODEL_DIR}/Package_BGA.3dshapes/Lattice_caBGA-381_17.0x17.0mm_Layout20x20_P0.8mm_Ball0.4mm_Pad0.4mm_NSMD.wrl"
    (offset (xyz 0 0 0))
    (scale (xyz 1 1 1))
    (rotate (xyz 0 0 0))
  )
)
