(footprint "Texas_DSBGA-9_1.4715x1.4715mm_Layout3x3_P0.5mm" (version 20221018) (generator pcbnew)
  (layer "F.Cu")
  (descr "Texas Instruments, DSBGA, 1.4715x1.4715mm, 9 bump 3x3 array, NSMD pad definition (http://www.ti.com/lit/ds/symlink/lm4990.pdf, http://www.ti.com/lit/an/snva009ag/snva009ag.pdf)")
  (tags "Texas Instruments DSBGA BGA YZR0009")
  (solder_mask_margin 0.05)
  (attr smd)
  (fp_text reference "REF**" (at 0 -2) (layer "F.SilkS")
      (effects (font (size 1 1) (thickness 0.15)))
    (tstamp 503624d4-92f8-49b5-af5d-8103111de69b)
  )
  (fp_text value "Texas_DSBGA-9_1.4715x1.4715mm_Layout3x3_P0.5mm" (at 0 2) (layer "F.Fab")
      (effects (font (size 1 1) (thickness 0.15)))
    (tstamp 509af688-68f1-4f81-baec-296c8d23f2af)
  )
  (fp_text user "${REFERENCE}" (at 0 0) (layer "F.Fab")
      (effects (font (size 0.3 0.3) (thickness 0.04)))
    (tstamp bb7f7954-7926-462e-b67c-d16e93b27746)
  )
  (fp_line (start -1.05 -1.05) (end -1.05 -0.075)
    (stroke (width 0.12) (type solid)) (layer "F.SilkS") (tstamp 77ed44e0-0888-4a66-a55b-2528e91e9e91))
  (fp_line (start -0.85 -0.85) (end -0.85 0.85)
    (stroke (width 0.12) (type solid)) (layer "F.SilkS") (tstamp c907f2a2-7db9-417e-a5b1-7eacefa8a76a))
  (fp_line (start -0.85 -0.85) (end 0.85 -0.85)
    (stroke (width 0.12) (type solid)) (layer "F.SilkS") (tstamp 08edac16-cf87-4b6d-9fd0-cc578040ffcc))
  (fp_line (start -0.075 -1.05) (end -1.05 -1.05)
    (stroke (width 0.12) (type solid)) (layer "F.SilkS") (tstamp 589e7758-0a51-47ab-841a-eda769c59b04))
  (fp_line (start 0.85 -0.85) (end 0.85 0.85)
    (stroke (width 0.12) (type solid)) (layer "F.SilkS") (tstamp 81e531fe-8aa0-408a-84fe-e45fc5f75782))
  (fp_line (start 0.85 0.85) (end -0.85 0.85)
    (stroke (width 0.12) (type solid)) (layer "F.SilkS") (tstamp 2279e90f-aac1-4bd6-8ea7-a05be79578a7))
  (fp_line (start -1.74 -1.74) (end -1.74 1.74)
    (stroke (width 0.05) (type solid)) (layer "F.CrtYd") (tstamp 966def2b-e5ef-459c-98df-4a8f1a715b2f))
  (fp_line (start -1.74 1.74) (end 1.74 1.74)
    (stroke (width 0.05) (type solid)) (layer "F.CrtYd") (tstamp e176f3fb-77bc-414f-8b16-412a812c51d1))
  (fp_line (start 1.74 -1.74) (end -1.74 -1.74)
    (stroke (width 0.05) (type solid)) (layer "F.CrtYd") (tstamp e5a3d24b-d289-48ec-873c-4564713fdc82))
  (fp_line (start 1.74 1.74) (end 1.74 -1.74)
    (stroke (width 0.05) (type solid)) (layer "F.CrtYd") (tstamp 91167832-7315-43dc-97ca-56d513ce1366))
  (fp_line (start -0.73575 -0.23575) (end -0.73575 0.73575)
    (stroke (width 0.1) (type solid)) (layer "F.Fab") (tstamp 6274d07c-feff-463d-af3f-09c83ceba45f))
  (fp_line (start -0.73575 -0.23575) (end -0.23575 -0.73575)
    (stroke (width 0.1) (type solid)) (layer "F.Fab") (tstamp 3c12cab2-325e-413a-bc56-ffe464104fbe))
  (fp_line (start -0.73575 0.73575) (end 0.73575 0.73575)
    (stroke (width 0.1) (type solid)) (layer "F.Fab") (tstamp df9fb6d3-1a12-415e-be08-fdb7440e65e1))
  (fp_line (start 0.73575 -0.73575) (end -0.23575 -0.73575)
    (stroke (width 0.1) (type solid)) (layer "F.Fab") (tstamp 2f7aab9a-5651-4195-a7f2-731db76a3824))
  (fp_line (start 0.73575 0.73575) (end 0.73575 -0.73575)
    (stroke (width 0.1) (type solid)) (layer "F.Fab") (tstamp 63305b28-e1ed-45a2-a23f-405777eca576))
  (pad "" smd rect (at -0.5 -0.5) (size 0.3 0.3) (layers "F.Paste") (tstamp 40cc1afa-74af-4fd5-8fae-df210c279c56))
  (pad "" smd rect (at -0.5 0) (size 0.3 0.3) (layers "F.Paste") (tstamp 1583971d-e569-4b2a-a397-afc5e8d93aeb))
  (pad "" smd rect (at -0.5 0.5) (size 0.3 0.3) (layers "F.Paste") (tstamp 0f52f74a-46d8-4605-9301-b48a3cd96036))
  (pad "" smd rect (at 0 -0.5) (size 0.3 0.3) (layers "F.Paste") (tstamp a266b756-6db2-4a0a-b32a-3f4e9452a38e))
  (pad "" smd rect (at 0 0) (size 0.3 0.3) (layers "F.Paste") (tstamp 5e8d5315-33ec-4826-bd44-c9bfaf60eb35))
  (pad "" smd rect (at 0 0.5) (size 0.3 0.3) (layers "F.Paste") (tstamp 8c269d2b-7b9f-4ffd-854b-e632fd71e257))
  (pad "" smd rect (at 0.5 -0.5) (size 0.3 0.3) (layers "F.Paste") (tstamp 6f2d53eb-baaf-4425-8167-caa8d9f45e15))
  (pad "" smd rect (at 0.5 0) (size 0.3 0.3) (layers "F.Paste") (tstamp d29f0810-b24a-4d77-88b5-ad571f203147))
  (pad "" smd rect (at 0.5 0.5) (size 0.3 0.3) (layers "F.Paste") (tstamp 281badd2-30b5-4c73-8e8f-52dd26693391))
  (pad "A1" smd circle (at -0.5 -0.5) (size 0.165 0.165) (layers "F.Cu" "F.Mask") (tstamp f7b5e520-4fed-4b2e-a31a-7188131b8c59))
  (pad "A2" smd circle (at 0 -0.5) (size 0.165 0.165) (layers "F.Cu" "F.Mask") (tstamp c2d4a5e5-ef2f-47e2-98bc-5a3b2ea41aa2))
  (pad "A3" smd circle (at 0.5 -0.5) (size 0.165 0.165) (layers "F.Cu" "F.Mask") (tstamp 698f4cbb-6d11-4de3-99c0-cdada48980da))
  (pad "B1" smd circle (at -0.5 0) (size 0.165 0.165) (layers "F.Cu" "F.Mask") (tstamp 14ce7f30-a7ff-4671-bd57-2c26eac970ec))
  (pad "B2" smd circle (at 0 0) (size 0.165 0.165) (layers "F.Cu" "F.Mask") (tstamp 390ffb54-e48f-43be-9822-3da2a8410ab8))
  (pad "B3" smd circle (at 0.5 0) (size 0.165 0.165) (layers "F.Cu" "F.Paste" "F.Mask") (tstamp adc427c3-2b94-4973-9be3-bac903c1e3e0))
  (pad "C1" smd circle (at -0.5 0.5) (size 0.165 0.165) (layers "F.Cu" "F.Mask") (tstamp 0cff1b29-a904-4bc6-a387-2ae3baf69a5d))
  (pad "C2" smd circle (at 0 0.5) (size 0.165 0.165) (layers "F.Cu" "F.Mask") (tstamp 4a7ad7f6-06e7-43ac-b373-e2deedae3973))
  (pad "C3" smd circle (at 0.5 0.5) (size 0.165 0.165) (layers "F.Cu" "F.Mask") (tstamp 80265cad-4a9d-4cc8-9b6c-fdca371add69))
  (model "${KICAD6_3DMODEL_DIR}/Package_BGA.3dshapes/Texas_DSBGA-9_1.4715x1.4715mm_Layout3x3_P0.5mm.wrl"
    (offset (xyz 0 0 0))
    (scale (xyz 1 1 1))
    (rotate (xyz 0 0 0))
  )
)
