(footprint "UFBGA-15_3.0x3.0mm_Layout4x4_P0.65mm" (version 20221018) (generator pcbnew)
  (layer "F.Cu")
  (descr "UFBGA-15, 4x4, 3x3mm package, pitch 0.65mm")
  (tags "UFBGA-15")
  (attr smd)
  (fp_text reference "REF**" (at 0 -3.25) (layer "F.SilkS")
      (effects (font (size 1 1) (thickness 0.15)))
    (tstamp 7a2b3347-1cac-4b4c-ad55-cef4c592c3f9)
  )
  (fp_text value "UFBGA-15_3.0x3.0mm_Layout4x4_P0.65mm" (at 0 3.25) (layer "F.Fab")
      (effects (font (size 1 1) (thickness 0.15)))
    (tstamp a3a35046-3b4f-48e7-9648-156ffc3d0a9d)
  )
  (fp_text user "${REFERENCE}" (at 0 0) (layer "F.Fab")
      (effects (font (size 0.65 0.65) (thickness 0.12)))
    (tstamp 5d4a04fc-39c9-4f09-b33c-d5641758b3c7)
  )
  (fp_line (start -1.82 -1.82) (end -1.82 -0.82)
    (stroke (width 0.12) (type solid)) (layer "F.SilkS") (tstamp 1e77afa8-8abb-4b0c-98d1-457d9375c249))
  (fp_line (start -1.62 -1.62) (end 1.62 -1.62)
    (stroke (width 0.12) (type solid)) (layer "F.SilkS") (tstamp 02ec4d95-528d-426c-8b32-505a1d8b0ae7))
  (fp_line (start -1.62 1.62) (end -1.62 -1.62)
    (stroke (width 0.12) (type solid)) (layer "F.SilkS") (tstamp 0c905988-0502-4bfc-af2a-b737c6ec7e77))
  (fp_line (start -0.82 -1.82) (end -1.82 -1.82)
    (stroke (width 0.12) (type solid)) (layer "F.SilkS") (tstamp a31b957e-7200-49f9-984d-c98eed9e7a91))
  (fp_line (start 1.62 -1.62) (end 1.62 1.62)
    (stroke (width 0.12) (type solid)) (layer "F.SilkS") (tstamp fa108e43-133f-49a9-adac-3b5fd3d5fa1c))
  (fp_line (start 1.62 1.62) (end -1.62 1.62)
    (stroke (width 0.12) (type solid)) (layer "F.SilkS") (tstamp 95811c32-ce93-4058-ad63-bb1c668d123a))
  (fp_line (start -2.5 -2.5) (end -2.5 2.5)
    (stroke (width 0.05) (type solid)) (layer "F.CrtYd") (tstamp ab826196-9566-4c64-b4d4-336248e498fc))
  (fp_line (start -2.5 -2.5) (end 2.5 -2.5)
    (stroke (width 0.05) (type solid)) (layer "F.CrtYd") (tstamp 1c8d6e5b-7f9e-4718-8a7c-e12d7456c60e))
  (fp_line (start 2.5 2.5) (end -2.5 2.5)
    (stroke (width 0.05) (type solid)) (layer "F.CrtYd") (tstamp 898d6bf0-ecc6-4d7c-9a56-201d8bbd66b9))
  (fp_line (start 2.5 2.5) (end 2.5 -2.5)
    (stroke (width 0.05) (type solid)) (layer "F.CrtYd") (tstamp d1c130a8-cafd-4a41-8672-52cb7362849e))
  (fp_line (start -1.5 -0.5) (end -0.5 -1.5)
    (stroke (width 0.1) (type solid)) (layer "F.Fab") (tstamp 2399c8d3-95ac-4868-8ffd-815e0618d6ef))
  (fp_line (start -1.5 1.5) (end -1.5 -0.5)
    (stroke (width 0.1) (type solid)) (layer "F.Fab") (tstamp 465deb9f-f4d8-480b-944a-0b04f835192d))
  (fp_line (start -0.5 -1.5) (end 1.5 -1.5)
    (stroke (width 0.1) (type solid)) (layer "F.Fab") (tstamp ae681271-d635-493e-b9ee-0609a83907fb))
  (fp_line (start 1.5 -1.5) (end 1.5 1.5)
    (stroke (width 0.1) (type solid)) (layer "F.Fab") (tstamp 3c516ab0-e311-4675-8321-f839e300495b))
  (fp_line (start 1.5 1.5) (end -1.5 1.5)
    (stroke (width 0.1) (type solid)) (layer "F.Fab") (tstamp 4b9e5f00-4868-4865-8613-6d90c743cd0d))
  (pad "A2" smd circle (at -0.325 -0.975) (size 0.25 0.25) (layers "F.Cu" "F.Paste" "F.Mask") (tstamp 6e0b9b1c-174a-4b49-9a06-ebff8b96fac8))
  (pad "A3" smd circle (at 0.325 -0.975) (size 0.25 0.25) (layers "F.Cu" "F.Paste" "F.Mask") (tstamp 087ef2c1-f7f3-4561-ae1f-a96eda9c27ef))
  (pad "A4" smd circle (at 0.975 -0.975) (size 0.25 0.25) (layers "F.Cu" "F.Paste" "F.Mask") (tstamp b9b465a5-cf5d-4c4b-8acf-6909af337c7a))
  (pad "B1" smd circle (at -0.975 -0.325) (size 0.25 0.25) (layers "F.Cu" "F.Paste" "F.Mask") (tstamp 507ce835-70b0-448f-bfeb-6c361fc0ff40))
  (pad "B2" smd circle (at -0.325 -0.325) (size 0.25 0.25) (layers "F.Cu" "F.Paste" "F.Mask") (tstamp 10cc8782-0748-4b44-a0ae-de253d3b8c0d))
  (pad "B3" smd circle (at 0.325 -0.325) (size 0.25 0.25) (layers "F.Cu" "F.Paste" "F.Mask") (tstamp 3f9ac8cd-15a5-4231-9e8a-92f7fe6e7784))
  (pad "B4" smd circle (at 0.975 -0.325) (size 0.25 0.25) (layers "F.Cu" "F.Paste" "F.Mask") (tstamp bfd27b80-baac-4ca4-b866-edb815c3baa4))
  (pad "C1" smd circle (at -0.975 0.325) (size 0.25 0.25) (layers "F.Cu" "F.Paste" "F.Mask") (tstamp e2640b7d-c6b8-4b0c-9164-2e4dd8eb3d2c))
  (pad "C2" smd circle (at -0.325 0.325) (size 0.25 0.25) (layers "F.Cu" "F.Paste" "F.Mask") (tstamp becfc1a7-2bed-40b2-ab79-a178c250fe35))
  (pad "C3" smd circle (at 0.325 0.325) (size 0.25 0.25) (layers "F.Cu" "F.Paste" "F.Mask") (tstamp 4e8c9942-ef35-4f4a-b734-fbb8f3fe4a10))
  (pad "C4" smd circle (at 0.975 0.325) (size 0.25 0.25) (layers "F.Cu" "F.Paste" "F.Mask") (tstamp 31f71e4d-ba08-4001-a1aa-cbd8c16e4e50))
  (pad "D1" smd circle (at -0.975 0.975) (size 0.25 0.25) (layers "F.Cu" "F.Paste" "F.Mask") (tstamp 2e7c2688-ed20-41c5-b19a-72e63f9bbfce))
  (pad "D2" smd circle (at -0.325 0.975) (size 0.25 0.25) (layers "F.Cu" "F.Paste" "F.Mask") (tstamp ecf5d230-06ec-4198-94d1-e76b289885d5))
  (pad "D3" smd circle (at 0.325 0.975) (size 0.25 0.25) (layers "F.Cu" "F.Paste" "F.Mask") (tstamp cc21cfb7-1de6-4375-8c41-282da3931d47))
  (pad "D4" smd circle (at 0.975 0.975) (size 0.25 0.25) (layers "F.Cu" "F.Paste" "F.Mask") (tstamp 940bdd82-426e-4b04-b3c3-184132d93634))
  (model "${KICAD6_3DMODEL_DIR}/Package_BGA.3dshapes/UFBGA-15_3.0x3.0mm_Layout4x4_P0.65mm.wrl"
    (offset (xyz 0 0 0))
    (scale (xyz 1 1 1))
    (rotate (xyz 0 0 0))
  )
)
