(footprint "DFN-18-1EP_4x5mm_P0.5mm_EP2.44x4.34mm" (version 20221018) (generator pcbnew)
  (layer "F.Cu")
  (descr "DHD Package; 18-Lead Plastic DFN (5mm x 4mm) (see Linear Technology DFN_18_05-08-1778.pdf)")
  (tags "DFN 0.5")
  (attr smd)
  (fp_text reference "REF**" (at 0 -3.55) (layer "F.SilkS")
      (effects (font (size 1 1) (thickness 0.15)))
    (tstamp 1777166b-40c7-49ad-bade-303829f8b6d1)
  )
  (fp_text value "DFN-18-1EP_4x5mm_P0.5mm_EP2.44x4.34mm" (at 0 3.55) (layer "F.Fab")
      (effects (font (size 1 1) (thickness 0.15)))
    (tstamp 01a0534a-c841-46ad-85ba-a7d98d4c0742)
  )
  (fp_text user "${REFERENCE}" (at 0 0) (layer "F.Fab")
      (effects (font (size 1 1) (thickness 0.15)))
    (tstamp 892c3177-61e7-40ed-b7d1-b59a79fe591c)
  )
  (fp_line (start -2 2.625) (end 2 2.625)
    (stroke (width 0.15) (type solid)) (layer "F.SilkS") (tstamp 2781ae0b-077f-4204-b542-4e5e6954ac0d))
  (fp_line (start 0 -2.625) (end 2 -2.625)
    (stroke (width 0.15) (type solid)) (layer "F.SilkS") (tstamp 9440729c-4400-4b0f-ae33-11cb74ae9d39))
  (fp_line (start -2.5 -2.8) (end -2.5 2.8)
    (stroke (width 0.05) (type solid)) (layer "F.CrtYd") (tstamp 77e0ed75-21fd-42b0-a8bd-f4706c457831))
  (fp_line (start -2.5 -2.8) (end 2.5 -2.8)
    (stroke (width 0.05) (type solid)) (layer "F.CrtYd") (tstamp 096db062-3a9d-4136-adbe-d7b143698c75))
  (fp_line (start -2.5 2.8) (end 2.5 2.8)
    (stroke (width 0.05) (type solid)) (layer "F.CrtYd") (tstamp bb87f6ae-273f-44fd-b1a6-fdfb37b71c17))
  (fp_line (start 2.5 -2.8) (end 2.5 2.8)
    (stroke (width 0.05) (type solid)) (layer "F.CrtYd") (tstamp e8dd9b17-8adc-4f5b-9136-8d30189c15e1))
  (fp_line (start -2 -1.5) (end -1 -2.5)
    (stroke (width 0.15) (type solid)) (layer "F.Fab") (tstamp cff02486-a03d-42a8-b796-6ed1094a6efb))
  (fp_line (start -2 2.5) (end -2 -1.5)
    (stroke (width 0.15) (type solid)) (layer "F.Fab") (tstamp 7f1976cd-af60-4337-9701-45797996c5c1))
  (fp_line (start -1 -2.5) (end 2 -2.5)
    (stroke (width 0.15) (type solid)) (layer "F.Fab") (tstamp 5b93f6ff-b948-4ebe-b3d1-ec7a6d1de591))
  (fp_line (start 2 -2.5) (end 2 2.5)
    (stroke (width 0.15) (type solid)) (layer "F.Fab") (tstamp c7fbed58-9440-4921-81fc-c253b9cfeeb6))
  (fp_line (start 2 2.5) (end -2 2.5)
    (stroke (width 0.15) (type solid)) (layer "F.Fab") (tstamp 1e2b7d7c-caf1-43a1-b5e8-35a432a9fd3b))
  (pad "" smd rect (at -0.61 -1.6275) (size 1 0.86) (layers "F.Paste") (tstamp eaf3071c-7ab9-4ad0-8850-1072825f3bcc))
  (pad "" smd rect (at -0.61 -0.5425) (size 1 0.86) (layers "F.Paste") (tstamp fa8fd7a7-feb1-42f4-902e-04941c2a129e))
  (pad "" smd rect (at -0.61 0.5425) (size 1 0.86) (layers "F.Paste") (tstamp 7be6dc95-59cb-445a-bf45-b0b57eb13278))
  (pad "" smd rect (at -0.61 1.6275) (size 1 0.86) (layers "F.Paste") (tstamp e2168ec4-6c68-455f-9425-fbbae1395d6f))
  (pad "" smd rect (at 0.61 -1.6275) (size 1 0.86) (layers "F.Paste") (tstamp 4314ae7b-84c0-4ef1-85a2-a1ce9447b603))
  (pad "" smd rect (at 0.61 -0.5425) (size 1 0.86) (layers "F.Paste") (tstamp 09c5a986-9d90-49f1-adb8-ac3465d0ce05))
  (pad "" smd rect (at 0.61 0.5425) (size 1 0.86) (layers "F.Paste") (tstamp 367cdba4-1c5a-4b37-a274-46d4f8078b17))
  (pad "" smd rect (at 0.61 1.6275) (size 1 0.86) (layers "F.Paste") (tstamp 9b93f6f5-6e07-4226-97da-cd02c0e466b9))
  (pad "1" smd rect (at -1.9 -2) (size 0.7 0.25) (layers "F.Cu" "F.Paste" "F.Mask") (tstamp 46a439be-b303-483d-a9be-248c5cbd27dc))
  (pad "2" smd rect (at -1.9 -1.5) (size 0.7 0.25) (layers "F.Cu" "F.Paste" "F.Mask") (tstamp 54a55eba-feba-40a5-962e-142580c57512))
  (pad "3" smd rect (at -1.9 -1) (size 0.7 0.25) (layers "F.Cu" "F.Paste" "F.Mask") (tstamp bc6a3a61-cc6c-452a-911b-d57d35b770a4))
  (pad "4" smd rect (at -1.9 -0.5) (size 0.7 0.25) (layers "F.Cu" "F.Paste" "F.Mask") (tstamp 2f7d2da9-7311-4f12-9c1e-753f8f59e96a))
  (pad "5" smd rect (at -1.9 0) (size 0.7 0.25) (layers "F.Cu" "F.Paste" "F.Mask") (tstamp bf96ff2f-6804-45ac-87c2-14a406918f62))
  (pad "6" smd rect (at -1.9 0.5) (size 0.7 0.25) (layers "F.Cu" "F.Paste" "F.Mask") (tstamp 8360a740-7d78-47fb-b4d0-0d897bc99af7))
  (pad "7" smd rect (at -1.9 1) (size 0.7 0.25) (layers "F.Cu" "F.Paste" "F.Mask") (tstamp 68527a38-dce4-4cf0-bf28-8575c3331264))
  (pad "8" smd rect (at -1.9 1.5) (size 0.7 0.25) (layers "F.Cu" "F.Paste" "F.Mask") (tstamp 9fa104f1-4a81-44ad-9669-db1adba0bd1d))
  (pad "9" smd rect (at -1.9 2) (size 0.7 0.25) (layers "F.Cu" "F.Paste" "F.Mask") (tstamp 16ce7d95-222d-4bd6-ae39-74b893e24b28))
  (pad "10" smd rect (at 1.9 2) (size 0.7 0.25) (layers "F.Cu" "F.Paste" "F.Mask") (tstamp 03da838e-1872-4b46-b07e-a628e89b425b))
  (pad "11" smd rect (at 1.9 1.5) (size 0.7 0.25) (layers "F.Cu" "F.Paste" "F.Mask") (tstamp 11ad4616-f628-4355-8c71-e44463ea6010))
  (pad "12" smd rect (at 1.9 1) (size 0.7 0.25) (layers "F.Cu" "F.Paste" "F.Mask") (tstamp acbfe6ec-7159-4c05-8c7b-c5b1f472a2ef))
  (pad "13" smd rect (at 1.9 0.5) (size 0.7 0.25) (layers "F.Cu" "F.Paste" "F.Mask") (tstamp 016d5c8d-161e-41a4-b1b9-71c23e768605))
  (pad "14" smd rect (at 1.9 0) (size 0.7 0.25) (layers "F.Cu" "F.Paste" "F.Mask") (tstamp 080da567-418f-4405-a2a0-8381086852a7))
  (pad "15" smd rect (at 1.9 -0.5) (size 0.7 0.25) (layers "F.Cu" "F.Paste" "F.Mask") (tstamp b803692a-6bb3-41b2-91db-d9b85a24e12c))
  (pad "16" smd rect (at 1.9 -1) (size 0.7 0.25) (layers "F.Cu" "F.Paste" "F.Mask") (tstamp c2de397f-e880-4edf-b9c5-e593b5942d57))
  (pad "17" smd rect (at 1.9 -1.5) (size 0.7 0.25) (layers "F.Cu" "F.Paste" "F.Mask") (tstamp 50606687-18b6-4870-bd3f-6274a72a80a5))
  (pad "18" smd rect (at 1.9 -2) (size 0.7 0.25) (layers "F.Cu" "F.Paste" "F.Mask") (tstamp 35787428-dc69-4921-b958-aadb1d2d9710))
  (pad "19" smd rect (at 0 0) (size 2.44 4.34) (layers "F.Cu" "F.Mask") (tstamp 00a4588b-28ed-4d4d-a992-58aba734734e))
  (model "${KICAD6_3DMODEL_DIR}/Package_DFN_QFN.3dshapes/DFN-18-1EP_4x5mm_P0.5mm_EP2.44x4.34mm.wrl"
    (offset (xyz 0 0 0))
    (scale (xyz 1 1 1))
    (rotate (xyz 0 0 0))
  )
)
