(footprint "Diodes_DFN1006-3" (version 20221018) (generator pcbnew)
  (layer "F.Cu")
  (descr "DFN package size 1006 3 pins")
  (tags "DFN package size 1006 3 pins")
  (attr smd)
  (fp_text reference "REF**" (at 0 -1.6) (layer "F.SilkS")
      (effects (font (size 1 1) (thickness 0.15)))
    (tstamp 30dba547-3ee3-4b72-aa9c-e04a76dafc8e)
  )
  (fp_text value "Diodes_DFN1006-3" (at 0 1.6) (layer "F.Fab")
      (effects (font (size 1 1) (thickness 0.15)))
    (tstamp 78131c28-7ed9-42da-9a8a-9ae4fb201c3a)
  )
  (fp_text user "${REFERENCE}" (at 0 -1.6) (layer "F.Fab")
      (effects (font (size 1 1) (thickness 0.15)))
    (tstamp 5285e66e-b787-4bea-a6b1-deeef392190c)
  )
  (fp_line (start -0.7 -0.5) (end -0.7 0)
    (stroke (width 0.12) (type solid)) (layer "F.SilkS") (tstamp 1a20b35c-6a46-42aa-9d0c-96f5b3a1bc77))
  (fp_line (start -0.2 -0.5) (end -0.7 -0.5)
    (stroke (width 0.12) (type solid)) (layer "F.SilkS") (tstamp 1f0f4113-88cf-4391-97d2-57c04dc241f8))
  (fp_line (start -0.8 -0.6) (end 0.8 -0.6)
    (stroke (width 0.05) (type solid)) (layer "F.CrtYd") (tstamp 24ffb408-cd7a-498c-b522-4c9d3eef4737))
  (fp_line (start -0.8 0.6) (end -0.8 -0.6)
    (stroke (width 0.05) (type solid)) (layer "F.CrtYd") (tstamp 77e1c94f-2764-4b60-b6f7-f5d5cb0c707c))
  (fp_line (start 0.8 -0.6) (end 0.8 0.6)
    (stroke (width 0.05) (type solid)) (layer "F.CrtYd") (tstamp 46c9a15a-98b2-4437-ae35-559ed7fe32db))
  (fp_line (start 0.8 0.6) (end -0.8 0.6)
    (stroke (width 0.05) (type solid)) (layer "F.CrtYd") (tstamp 0ab028f8-285c-4326-8a94-06c2ecaeb50f))
  (fp_line (start -0.5 0.3) (end -0.5 -0.15)
    (stroke (width 0.1) (type solid)) (layer "F.Fab") (tstamp a0009dd7-c3b5-41a2-9264-4935360c7aee))
  (fp_line (start -0.35 -0.3) (end -0.5 -0.15)
    (stroke (width 0.1) (type solid)) (layer "F.Fab") (tstamp 6159edfd-95e3-443f-b37a-9b72b164d74c))
  (fp_line (start -0.35 -0.3) (end 0.5 -0.3)
    (stroke (width 0.1) (type solid)) (layer "F.Fab") (tstamp f1c5f024-c97d-4a1f-bb88-a5c4d9bedbdb))
  (fp_line (start 0.5 -0.3) (end 0.5 0.3)
    (stroke (width 0.1) (type solid)) (layer "F.Fab") (tstamp beb23440-8fc8-4b02-b843-f091056cbfcc))
  (fp_line (start 0.5 0.3) (end -0.5 0.3)
    (stroke (width 0.1) (type solid)) (layer "F.Fab") (tstamp 86159865-a1aa-49f0-93d6-97da26c99870))
  (pad "1" smd rect (at -0.35 -0.225 270) (size 0.25 0.4) (layers "F.Cu" "F.Paste" "F.Mask") (tstamp efeb73e5-01a6-4797-bf31-7a87e00b4faa))
  (pad "2" smd rect (at -0.35 0.225 270) (size 0.25 0.4) (layers "F.Cu" "F.Paste" "F.Mask") (tstamp 50274a8c-1f5d-4552-9e37-f59368946d84))
  (pad "3" smd rect (at 0.35 0 270) (size 0.7 0.4) (layers "F.Cu" "F.Paste" "F.Mask") (tstamp 68185bfd-a946-4ce5-8acd-cd49692bb628))
  (model "${KICAD6_3DMODEL_DIR}/Package_DFN_QFN.3dshapes/Diodes_DFN1006-3.wrl"
    (offset (xyz 0 0 0))
    (scale (xyz 1 1 1))
    (rotate (xyz 0 0 0))
  )
)
