(footprint "Microsemi_QFN-40-32-2EP_6x8mm_P0.5mm" (version 20221018) (generator pcbnew)
  (layer "F.Cu")
  (descr "40-Lead (32-Lead Populated) Plastic Quad Flat, No Lead Package - 6x8x0.9mm Body (https://www.microsemi.com/document-portal/doc_download/131677-pd70224-data-sheet)")
  (tags "QFN 0.5")
  (attr smd)
  (fp_text reference "REF**" (at 0 -5.2) (layer "F.SilkS")
      (effects (font (size 1 1) (thickness 0.15)))
    (tstamp d03a5fba-976c-419e-a6aa-5483c034000d)
  )
  (fp_text value "Microsemi_QFN-40-32-2EP_6x8mm_P0.5mm" (at 0 5.2) (layer "F.Fab")
      (effects (font (size 1 1) (thickness 0.15)))
    (tstamp 846f2d63-ac9a-4789-ba97-cd6a6b7e7ec9)
  )
  (fp_text user "${REFERENCE}" (at 0 0) (layer "F.Fab")
      (effects (font (size 1 1) (thickness 0.15)))
    (tstamp b6f11c87-eccf-4c7c-bb0e-d6e3a9fb4681)
  )
  (fp_line (start -3.15 -4.15) (end -2.25 -4.15)
    (stroke (width 0.15) (type solid)) (layer "F.SilkS") (tstamp 0ec9be00-07b4-4138-aedf-74a4af312f45))
  (fp_line (start -3.15 4.15) (end -3.15 3.25)
    (stroke (width 0.15) (type solid)) (layer "F.SilkS") (tstamp 2f564c83-01f4-44d7-9b21-5d4be4ea138f))
  (fp_line (start -3.15 4.15) (end -2.25 4.15)
    (stroke (width 0.15) (type solid)) (layer "F.SilkS") (tstamp 2cfe71c6-23bb-4cfd-92dc-36d1f0d4b2dd))
  (fp_line (start 3.15 -4.15) (end 2.25 -4.15)
    (stroke (width 0.15) (type solid)) (layer "F.SilkS") (tstamp bb56ae39-8246-4199-978d-9ea0bfc3f92e))
  (fp_line (start 3.15 -4.15) (end 3.15 -3.25)
    (stroke (width 0.15) (type solid)) (layer "F.SilkS") (tstamp b52e6418-24eb-4d38-b595-bb5e2ae6665e))
  (fp_line (start 3.15 4.15) (end 2.25 4.15)
    (stroke (width 0.15) (type solid)) (layer "F.SilkS") (tstamp b2a0db2c-0ec2-4b7f-b6a1-b61820c94f84))
  (fp_line (start 3.15 4.15) (end 3.15 3.25)
    (stroke (width 0.15) (type solid)) (layer "F.SilkS") (tstamp 2f0626e0-118f-4e87-8822-a9f370220708))
  (fp_line (start -3.45 -4.46) (end -3.45 4.46)
    (stroke (width 0.05) (type solid)) (layer "F.CrtYd") (tstamp e6be7360-4d9f-48c7-a31d-6a92f9e1531b))
  (fp_line (start -3.45 -4.46) (end 3.45 -4.46)
    (stroke (width 0.05) (type solid)) (layer "F.CrtYd") (tstamp c21f384c-039f-4b9e-a06e-79d8ddf2f45a))
  (fp_line (start -3.45 4.46) (end 3.45 4.46)
    (stroke (width 0.05) (type solid)) (layer "F.CrtYd") (tstamp 3d9d46c0-6272-4996-b354-490840a44506))
  (fp_line (start 3.45 -4.46) (end 3.45 4.46)
    (stroke (width 0.05) (type solid)) (layer "F.CrtYd") (tstamp 010a61d0-88bb-46de-9f7a-7497551331dd))
  (fp_line (start -3 -3) (end -2 -4)
    (stroke (width 0.15) (type solid)) (layer "F.Fab") (tstamp 4ad183e0-69e4-4b06-863b-6a9c12d453b2))
  (fp_line (start -3 4) (end -3 -3)
    (stroke (width 0.15) (type solid)) (layer "F.Fab") (tstamp a50edd62-1c1f-42a7-adc5-2c1dc5c6f749))
  (fp_line (start -2 -4) (end 3 -4)
    (stroke (width 0.15) (type solid)) (layer "F.Fab") (tstamp 648199c4-c29b-4697-bba6-f0620fffdf1f))
  (fp_line (start 3 -4) (end 3 4)
    (stroke (width 0.15) (type solid)) (layer "F.Fab") (tstamp 1bf6af46-2274-40bb-89d7-4111aed6ed2b))
  (fp_line (start 3 4) (end -3 4)
    (stroke (width 0.15) (type solid)) (layer "F.Fab") (tstamp af4cc6a9-81a6-443f-ba47-199be4bc33a1))
  (pad "" smd rect (at -1.04 -2.06) (size 1.68 1.68) (layers "F.Paste")
    (solder_paste_margin_ratio -0.2) (tstamp 20d03f94-bf28-4798-9de6-5c5fd2742bca))
  (pad "" smd rect (at -1.04 1.425) (size 1.68 2.95) (layers "F.Paste")
    (solder_paste_margin_ratio -0.2) (tstamp e727b7ec-421a-4547-8c00-6ed4eee6a951))
  (pad "" smd rect (at 1.04 -2.06) (size 1.68 1.68) (layers "F.Paste")
    (solder_paste_margin_ratio -0.2) (tstamp 82742d29-60a0-4300-9289-74ec4ca12b61))
  (pad "" smd rect (at 1.04 1.425) (size 1.68 2.95) (layers "F.Paste")
    (solder_paste_margin_ratio -0.2) (tstamp f0dd0fa4-5bba-4edb-af4f-ad0e953d96dd))
  (pad "1" smd rect (at -2.92 -2.75) (size 0.56 0.28) (layers "F.Cu" "F.Paste" "F.Mask") (tstamp 1eab29e3-c23e-4b35-8360-b61aec0c088d))
  (pad "1" smd circle (at -2.64 -2.75) (size 0.28 0.28) (layers "F.Cu" "F.Paste" "F.Mask") (tstamp 0bce1c88-b91a-47c8-8dc3-80f12b777354))
  (pad "2" smd rect (at -2.92 -2.25) (size 0.56 0.28) (layers "F.Cu" "F.Paste" "F.Mask") (tstamp c7d6719d-d6c7-4aa2-8d79-2981f692e49d))
  (pad "2" smd circle (at -2.64 -2.25) (size 0.28 0.28) (layers "F.Cu" "F.Paste" "F.Mask") (tstamp 59446e67-61a1-45fc-8599-44edf655ed9a))
  (pad "3" smd rect (at -2.92 -1.75) (size 0.56 0.28) (layers "F.Cu" "F.Paste" "F.Mask") (tstamp 826244d7-076f-4c75-8d86-f076a73434b1))
  (pad "3" smd circle (at -2.64 -1.75) (size 0.28 0.28) (layers "F.Cu" "F.Paste" "F.Mask") (tstamp 8e0ca37a-1e09-41d4-933b-3aa4657982c4))
  (pad "4" smd rect (at -2.92 -0.75) (size 0.56 0.28) (layers "F.Cu" "F.Paste" "F.Mask") (tstamp dbe30ac4-c175-4c1f-b34a-1b941ceabcfe))
  (pad "4" smd circle (at -2.64 -0.75) (size 0.28 0.28) (layers "F.Cu" "F.Paste" "F.Mask") (tstamp 1118d902-8fed-45ed-a886-618a147c6930))
  (pad "5" smd rect (at -2.92 -0.25) (size 0.56 0.28) (layers "F.Cu" "F.Paste" "F.Mask") (tstamp 622f80a1-634c-4d5b-b319-696f253d486f))
  (pad "5" smd circle (at -2.64 -0.25) (size 0.28 0.28) (layers "F.Cu" "F.Paste" "F.Mask") (tstamp 6e8f1fcf-05e4-4ef5-8ec9-2e481df67796))
  (pad "6" smd rect (at -2.92 0.25) (size 0.56 0.28) (layers "F.Cu" "F.Paste" "F.Mask") (tstamp 4ce64d83-b63b-4618-95c8-4451015299ff))
  (pad "6" smd circle (at -2.64 0.25) (size 0.28 0.28) (layers "F.Cu" "F.Paste" "F.Mask") (tstamp 29f50de6-656a-4e9e-a0fa-037b0f283e5e))
  (pad "7" smd rect (at -2.92 0.75) (size 0.56 0.28) (layers "F.Cu" "F.Paste" "F.Mask") (tstamp 1a3fd7b7-4a19-4657-a598-697eb7491eb2))
  (pad "7" smd circle (at -2.64 0.75) (size 0.28 0.28) (layers "F.Cu" "F.Paste" "F.Mask") (tstamp 54c6c13f-3707-4ec5-b189-82007a93a0cf))
  (pad "8" smd rect (at -2.92 1.75) (size 0.56 0.28) (layers "F.Cu" "F.Paste" "F.Mask") (tstamp 2b311be9-26cf-41c1-8556-ac7a768a03c2))
  (pad "8" smd circle (at -2.64 1.75) (size 0.28 0.28) (layers "F.Cu" "F.Paste" "F.Mask") (tstamp 50de283e-4861-473a-8d78-4e79e89ca696))
  (pad "9" smd rect (at -2.92 2.25) (size 0.56 0.28) (layers "F.Cu" "F.Paste" "F.Mask") (tstamp fba7fd4d-02b3-44aa-8d66-36a49d0ca0b0))
  (pad "9" smd circle (at -2.64 2.25) (size 0.28 0.28) (layers "F.Cu" "F.Paste" "F.Mask") (tstamp b01bc68b-d98e-4afc-9eda-05aeeda55ceb))
  (pad "10" smd rect (at -2.92 2.75) (size 0.56 0.28) (layers "F.Cu" "F.Paste" "F.Mask") (tstamp 16bf1d9b-7596-47de-bd28-6ef7fb95d095))
  (pad "10" smd circle (at -2.64 2.75) (size 0.28 0.28) (layers "F.Cu" "F.Paste" "F.Mask") (tstamp 4fcec6df-77e1-44ae-80ac-fa4adb2b25ac))
  (pad "11" smd circle (at -1.75 3.645) (size 0.28 0.28) (layers "F.Cu" "F.Paste" "F.Mask") (tstamp fe87d972-89da-499a-88d6-0d8a1e9123c3))
  (pad "11" smd rect (at -1.75 3.925) (size 0.28 0.56) (layers "F.Cu" "F.Paste" "F.Mask") (tstamp b86aa64b-9016-4921-83f3-7245105ceef9))
  (pad "12" smd circle (at -1.25 3.645) (size 0.28 0.28) (layers "F.Cu" "F.Paste" "F.Mask") (tstamp 7badf0d3-6c26-4eb3-99b3-fe612fbb43ac))
  (pad "12" smd rect (at -1.25 3.925) (size 0.28 0.56) (layers "F.Cu" "F.Paste" "F.Mask") (tstamp 0aa115b8-06b5-4d1c-9871-c71326936f8e))
  (pad "13" smd circle (at -0.25 3.645) (size 0.28 0.28) (layers "F.Cu" "F.Paste" "F.Mask") (tstamp 2aefb6f5-2373-48ab-802d-a23cfa13081f))
  (pad "13" smd rect (at -0.25 3.925) (size 0.28 0.56) (layers "F.Cu" "F.Paste" "F.Mask") (tstamp 33c747cc-e6aa-4b7f-be38-8d64d8d5479a))
  (pad "14" smd circle (at 0.25 3.645) (size 0.28 0.28) (layers "F.Cu" "F.Paste" "F.Mask") (tstamp f70e7918-ec07-448e-9205-2659e2528f25))
  (pad "14" smd rect (at 0.25 3.925) (size 0.28 0.56) (layers "F.Cu" "F.Paste" "F.Mask") (tstamp f3632d8a-b051-4e38-a506-62f9517f4914))
  (pad "15" smd circle (at 1.25 3.645) (size 0.28 0.28) (layers "F.Cu" "F.Paste" "F.Mask") (tstamp 60fccbf5-725c-4789-a0ad-c9eb82b216b9))
  (pad "15" smd rect (at 1.25 3.925) (size 0.28 0.56) (layers "F.Cu" "F.Paste" "F.Mask") (tstamp 512a9bab-83e1-4d0b-8049-6bf2cebfdd1e))
  (pad "16" smd circle (at 1.75 3.645) (size 0.28 0.28) (layers "F.Cu" "F.Paste" "F.Mask") (tstamp 06a77d39-e49d-4d0f-b475-c89c21a6f398))
  (pad "16" smd rect (at 1.75 3.925) (size 0.28 0.56) (layers "F.Cu" "F.Paste" "F.Mask") (tstamp 969cc13b-8a1d-494f-88dd-4f5ea3d9781a))
  (pad "17" smd circle (at 2.64 2.75) (size 0.28 0.28) (layers "F.Cu" "F.Paste" "F.Mask") (tstamp 248c7e6d-79ef-43b4-ae6e-71150d8520b3))
  (pad "17" smd rect (at 2.92 2.75) (size 0.56 0.28) (layers "F.Cu" "F.Paste" "F.Mask") (tstamp f87b30ca-5a2c-45a5-916e-e96947f8a44a))
  (pad "18" smd circle (at 2.64 2.25) (size 0.28 0.28) (layers "F.Cu" "F.Paste" "F.Mask") (tstamp 38b4eeaa-4357-41f2-9165-31e7d14b4381))
  (pad "18" smd rect (at 2.92 2.25) (size 0.56 0.28) (layers "F.Cu" "F.Paste" "F.Mask") (tstamp da1afd7e-7504-43d8-9fbd-fe39411f7be3))
  (pad "19" smd circle (at 2.64 1.75) (size 0.28 0.28) (layers "F.Cu" "F.Paste" "F.Mask") (tstamp 2119d5d0-0ce0-4d08-8479-6f8af5c89713))
  (pad "19" smd rect (at 2.92 1.75) (size 0.56 0.28) (layers "F.Cu" "F.Paste" "F.Mask") (tstamp 8d90e02c-7410-4ef0-818f-69fdbe188d28))
  (pad "20" smd circle (at 2.64 0.75) (size 0.28 0.28) (layers "F.Cu" "F.Paste" "F.Mask") (tstamp 4a4b71da-3cbd-48e4-9b7e-28d72dbd3ef6))
  (pad "20" smd rect (at 2.92 0.75) (size 0.56 0.28) (layers "F.Cu" "F.Paste" "F.Mask") (tstamp 60db27de-8431-4799-ba0a-5348621a55b2))
  (pad "21" smd circle (at 2.64 0.25) (size 0.28 0.28) (layers "F.Cu" "F.Paste" "F.Mask") (tstamp fa88abc4-750c-4448-a297-136aff248ec6))
  (pad "21" smd rect (at 2.92 0.25) (size 0.56 0.28) (layers "F.Cu" "F.Paste" "F.Mask") (tstamp 49ac1104-c1dd-40e6-91ff-a91f398083c2))
  (pad "22" smd circle (at 2.64 -0.25) (size 0.28 0.28) (layers "F.Cu" "F.Paste" "F.Mask") (tstamp 3c56d80b-0b20-46f3-892b-3733c666c089))
  (pad "22" smd rect (at 2.92 -0.25) (size 0.56 0.28) (layers "F.Cu" "F.Paste" "F.Mask") (tstamp 703701b9-209e-4e4f-9b77-02b225de022f))
  (pad "23" smd circle (at 2.64 -0.75) (size 0.28 0.28) (layers "F.Cu" "F.Paste" "F.Mask") (tstamp 444c3e58-deaf-46aa-ba99-62041ffba4fc))
  (pad "23" smd rect (at 2.92 -0.75) (size 0.56 0.28) (layers "F.Cu" "F.Paste" "F.Mask") (tstamp 14a3013d-f38e-4011-a931-08b057608a5e))
  (pad "24" smd circle (at 2.64 -1.75) (size 0.28 0.28) (layers "F.Cu" "F.Paste" "F.Mask") (tstamp cd1d1874-62d1-41d8-a088-6993739fa364))
  (pad "24" smd rect (at 2.92 -1.75) (size 0.56 0.28) (layers "F.Cu" "F.Paste" "F.Mask") (tstamp 4af4c407-2a1b-4550-bf1e-d41c759d7a53))
  (pad "25" smd circle (at 2.64 -2.25) (size 0.28 0.28) (layers "F.Cu" "F.Paste" "F.Mask") (tstamp b93db88d-ba52-42fa-8135-bf6dbbeea617))
  (pad "25" smd rect (at 2.92 -2.25) (size 0.56 0.28) (layers "F.Cu" "F.Paste" "F.Mask") (tstamp 5808bed6-0ac3-48bd-ad13-f27cdbff4659))
  (pad "26" smd circle (at 2.64 -2.75) (size 0.28 0.28) (layers "F.Cu" "F.Paste" "F.Mask") (tstamp d207cede-bac6-4f90-b436-696f90155a2a))
  (pad "26" smd rect (at 2.92 -2.75) (size 0.56 0.28) (layers "F.Cu" "F.Paste" "F.Mask") (tstamp 90b0ac76-3515-4ba5-82da-9eb9a9a982d3))
  (pad "27" smd rect (at 1.75 -3.925) (size 0.28 0.56) (layers "F.Cu" "F.Paste" "F.Mask") (tstamp d0c71acf-faa1-46e9-8f45-4c36219b6a5b))
  (pad "27" smd circle (at 1.75 -3.645) (size 0.28 0.28) (layers "F.Cu" "F.Paste" "F.Mask") (tstamp eeb784a6-1085-4b77-8806-2c1c4a80fc77))
  (pad "28" smd rect (at 1.25 -3.925) (size 0.28 0.56) (layers "F.Cu" "F.Paste" "F.Mask") (tstamp 586726d2-b295-4f2d-b481-313149bc9a37))
  (pad "28" smd circle (at 1.25 -3.645) (size 0.28 0.28) (layers "F.Cu" "F.Paste" "F.Mask") (tstamp f3e8eb81-8973-4756-9f80-20e9e6dcca16))
  (pad "29" smd rect (at 0.25 -3.925) (size 0.28 0.56) (layers "F.Cu" "F.Paste" "F.Mask") (tstamp a0fe7dca-af86-4de9-b2fa-e5b9cd899082))
  (pad "29" smd circle (at 0.25 -3.645) (size 0.28 0.28) (layers "F.Cu" "F.Paste" "F.Mask") (tstamp 3f67972d-bd59-447a-9a2b-f52bf8cbab34))
  (pad "30" smd rect (at -0.25 -3.925) (size 0.28 0.56) (layers "F.Cu" "F.Paste" "F.Mask") (tstamp 92e99803-97f3-46ad-b8e9-8ceffa687368))
  (pad "30" smd circle (at -0.25 -3.645) (size 0.28 0.28) (layers "F.Cu" "F.Paste" "F.Mask") (tstamp 829a486b-798d-47be-80a4-44a0ab0bd960))
  (pad "31" smd rect (at -1.25 -3.925) (size 0.28 0.56) (layers "F.Cu" "F.Paste" "F.Mask") (tstamp 7f440fd8-ae71-4eda-b955-47af25b6caea))
  (pad "31" smd circle (at -1.25 -3.645) (size 0.28 0.28) (layers "F.Cu" "F.Paste" "F.Mask") (tstamp b6264475-9e15-49b0-b92a-59899720fde6))
  (pad "32" smd rect (at -1.75 -3.925) (size 0.28 0.56) (layers "F.Cu" "F.Paste" "F.Mask") (tstamp bcae7c49-fd6c-44bf-b27f-7c08c70fe1f7))
  (pad "32" smd circle (at -1.75 -3.645) (size 0.28 0.28) (layers "F.Cu" "F.Paste" "F.Mask") (tstamp fa6c0552-978e-45cd-a167-31a94ee2a1eb))
  (pad "33" thru_hole circle (at -1.68 -2.62) (size 0.6 0.6) (drill 0.3) (layers "*.Cu" "*.Mask") (tstamp 3fda8f62-6c8e-4c4d-bc85-3aca715ca61e))
  (pad "33" thru_hole circle (at -1.68 -1.5) (size 0.6 0.6) (drill 0.3) (layers "*.Cu" "*.Mask") (tstamp e082af5a-9e65-4bce-aaa3-1c7d9afcd924))
  (pad "33" thru_hole circle (at -0.56 -2.62) (size 0.6 0.6) (drill 0.3) (layers "*.Cu" "*.Mask") (tstamp 2c29b6d2-b03e-445e-8950-3a997cf6eacc))
  (pad "33" thru_hole circle (at -0.56 -1.5) (size 0.6 0.6) (drill 0.3) (layers "*.Cu" "*.Mask") (tstamp 89228813-ed27-4330-b529-ad18995e3af3))
  (pad "33" smd rect (at 0 -2.06) (size 4.37 2.29) (layers "F.Cu" "F.Mask")
    (solder_mask_margin -0.155) (solder_paste_margin_ratio -0.2) (tstamp df40ff05-dcaa-4f79-8666-1685c918381d))
  (pad "33" smd rect (at 0 -2.06) (size 4.37 2.29) (layers "B.Cu" "B.Mask")
    (solder_mask_margin -0.155) (solder_paste_margin_ratio -0.2) (tstamp 61df4ed8-e0cb-4d0c-9566-59bd06eccbff))
  (pad "33" thru_hole circle (at 0.56 -2.62) (size 0.6 0.6) (drill 0.3) (layers "*.Cu" "*.Mask") (tstamp 3f5acd5c-d131-4c81-a56e-b73d20cb7b8f))
  (pad "33" thru_hole circle (at 0.56 -1.5) (size 0.6 0.6) (drill 0.3) (layers "*.Cu" "*.Mask") (tstamp d8931b87-19d7-4f23-9338-7cb6b04ae548))
  (pad "33" thru_hole circle (at 1.68 -2.62) (size 0.6 0.6) (drill 0.3) (layers "*.Cu" "*.Mask") (tstamp 06c07fcc-2557-4c56-838e-e94457bf313f))
  (pad "33" thru_hole circle (at 1.68 -1.5) (size 0.6 0.6) (drill 0.3) (layers "*.Cu" "*.Mask") (tstamp 1f8c94ca-4836-4b96-9b74-07c6c5984403))
  (pad "34" thru_hole circle (at -1.68 0.305) (size 0.6 0.6) (drill 0.3) (layers "*.Cu" "*.Mask") (tstamp d71ea550-b4bc-42dc-8a30-65844f212c9d))
  (pad "34" thru_hole circle (at -1.68 1.425) (size 0.6 0.6) (drill 0.3) (layers "*.Cu" "*.Mask") (tstamp 072625f0-d8af-4936-9461-a890300e860b))
  (pad "34" thru_hole circle (at -1.68 2.545) (size 0.6 0.6) (drill 0.3) (layers "*.Cu" "*.Mask") (tstamp 6aeb3310-2d4a-4f68-8940-cb6b2f5a6590))
  (pad "34" thru_hole circle (at -0.56 0.305) (size 0.6 0.6) (drill 0.3) (layers "*.Cu" "*.Mask") (tstamp ec77c283-18df-428d-874d-0c58ca2c37fa))
  (pad "34" thru_hole circle (at -0.56 1.425) (size 0.6 0.6) (drill 0.3) (layers "*.Cu" "*.Mask") (tstamp bdca4147-d7cc-41d8-8d9e-53c0ce64acfd))
  (pad "34" thru_hole circle (at -0.56 2.545) (size 0.6 0.6) (drill 0.3) (layers "*.Cu" "*.Mask") (tstamp dd9432b7-fa28-400c-acf2-951867a91396))
  (pad "34" smd rect (at 0 1.425) (size 4.37 3.56) (layers "F.Cu" "F.Mask")
    (solder_mask_margin -0.155) (solder_paste_margin_ratio -0.2) (tstamp 12dddacb-c102-4b8e-a249-86e3a047e7d0))
  (pad "34" smd rect (at 0 1.425) (size 4.37 3.56) (layers "B.Cu" "B.Mask")
    (solder_mask_margin -0.155) (solder_paste_margin_ratio -0.2) (tstamp 3f948ad4-ef0a-43e7-b0ab-598dec7ad1ec))
  (pad "34" thru_hole circle (at 0.56 0.305) (size 0.6 0.6) (drill 0.3) (layers "*.Cu" "*.Mask") (tstamp 702aa356-31cc-4b9a-ab0c-fbfd2feafa77))
  (pad "34" thru_hole circle (at 0.56 1.425) (size 0.6 0.6) (drill 0.3) (layers "*.Cu" "*.Mask") (tstamp 19f9d12c-cc78-42fe-b61e-f5e1c13bfb37))
  (pad "34" thru_hole circle (at 0.56 2.545) (size 0.6 0.6) (drill 0.3) (layers "*.Cu" "*.Mask") (tstamp 45cea651-bc2f-4115-b806-9fde39411745))
  (pad "34" thru_hole circle (at 1.68 0.305) (size 0.6 0.6) (drill 0.3) (layers "*.Cu" "*.Mask") (tstamp a69a1850-309f-49b7-81ce-04f890b05caf))
  (pad "34" thru_hole circle (at 1.68 1.425) (size 0.6 0.6) (drill 0.3) (layers "*.Cu" "*.Mask") (tstamp 354e3f87-547e-469e-9941-433422c8314a))
  (pad "34" thru_hole circle (at 1.68 2.545) (size 0.6 0.6) (drill 0.3) (layers "*.Cu" "*.Mask") (tstamp 07ffe78d-156a-48cc-b37c-4c203e08b64c))
  (model "${KICAD6_3DMODEL_DIR}/Package_DFN_QFN.3dshapes/Microsemi_QFN-40-32-2EP_6x8mm_P0.5mm.wrl"
    (offset (xyz 0 0 0))
    (scale (xyz 1 1 1))
    (rotate (xyz 0 0 0))
  )
)
