(footprint "OnSemi_UDFN-8_1.2x1.8mm_P0.4mm" (version 20221018) (generator pcbnew)
  (layer "F.Cu")
  (descr "8-Lead Plastic Dual Flat, No Lead Package, 1.2x1.8x1.55 mm Body [UDFN] (See http://www.onsemi.com/pub/Collateral/NLSV2T244-D.PDF)")
  (tags "dfn udfn dual flat")
  (attr smd)
  (fp_text reference "REF**" (at 0 -1.8) (layer "F.SilkS")
      (effects (font (size 1 1) (thickness 0.15)))
    (tstamp 4e427b21-b6ba-44de-b7f0-c60f2af2edda)
  )
  (fp_text value "OnSemi_UDFN-8_1.2x1.8mm_P0.4mm" (at 0 1.8) (layer "F.Fab")
      (effects (font (size 1 1) (thickness 0.15)))
    (tstamp 18beb828-e0d7-4a84-9984-03cc9d230983)
  )
  (fp_text user "${REFERENCE}" (at 0.05 0 90) (layer "F.Fab")
      (effects (font (size 0.3 0.3) (thickness 0.05)))
    (tstamp 01fca749-9f30-49a6-8050-85feec966e30)
  )
  (fp_line (start 0.6 -1) (end 0 -1)
    (stroke (width 0.12) (type solid)) (layer "F.SilkS") (tstamp 48630a98-6951-4049-a0aa-48e3d1afd75e))
  (fp_line (start 0.6 1) (end -0.6 1)
    (stroke (width 0.12) (type solid)) (layer "F.SilkS") (tstamp b10d4584-854d-4953-b231-79b2716aadca))
  (fp_line (start -1 -1.15) (end 1 -1.15)
    (stroke (width 0.05) (type solid)) (layer "F.CrtYd") (tstamp 5ce50f67-5093-4436-9b7f-3e79cde44e63))
  (fp_line (start -1 1.15) (end -1 -1.15)
    (stroke (width 0.05) (type solid)) (layer "F.CrtYd") (tstamp cc6da62c-2b99-472c-8d0f-99f7bad34ec5))
  (fp_line (start 1 -1.15) (end 1 1.15)
    (stroke (width 0.05) (type solid)) (layer "F.CrtYd") (tstamp 6804e121-5075-4b26-bcb8-4af2a0ee8fa3))
  (fp_line (start 1 1.15) (end -1 1.15)
    (stroke (width 0.05) (type solid)) (layer "F.CrtYd") (tstamp 13e1966c-15e3-4d0d-b15f-ec8475b880d2))
  (fp_line (start -0.6 -0.55) (end -0.25 -0.9)
    (stroke (width 0.1) (type solid)) (layer "F.Fab") (tstamp a545d73b-98b1-46d7-a5f6-3f6ef5725345))
  (fp_line (start -0.6 0.9) (end -0.6 -0.55)
    (stroke (width 0.1) (type solid)) (layer "F.Fab") (tstamp e00d8694-bbf6-488d-9f58-08af994389ec))
  (fp_line (start -0.25 -0.9) (end 0.6 -0.9)
    (stroke (width 0.1) (type solid)) (layer "F.Fab") (tstamp 7f9cd146-b077-46b2-b442-9c1961ce09ac))
  (fp_line (start 0.6 -0.9) (end 0.6 0.9)
    (stroke (width 0.1) (type solid)) (layer "F.Fab") (tstamp 06ff3ede-6a33-4731-b513-ee6287d93ad4))
  (fp_line (start 0.6 0.9) (end -0.6 0.9)
    (stroke (width 0.1) (type solid)) (layer "F.Fab") (tstamp bf77f7d4-a31c-48c0-ab2b-9fdf962263f5))
  (pad "1" smd rect (at -0.42 -0.65) (size 0.66 0.32) (layers "F.Cu" "F.Paste" "F.Mask") (tstamp c2460dcd-2671-439f-ae01-6077c599017b))
  (pad "2" smd rect (at -0.42 -0.2) (size 0.66 0.22) (layers "F.Cu" "F.Paste" "F.Mask") (tstamp 0dfcafaa-ae77-4863-b1c3-652994a95be8))
  (pad "3" smd rect (at -0.42 0.2) (size 0.66 0.22) (layers "F.Cu" "F.Paste" "F.Mask") (tstamp 76c5b5ed-7a8f-4844-9ec5-531db3f8a88a))
  (pad "4" smd rect (at -0.42 0.6) (size 0.66 0.22) (layers "F.Cu" "F.Paste" "F.Mask") (tstamp cd7fb3fd-126d-4597-8725-a459adba9368))
  (pad "5" smd rect (at 0.42 0.6) (size 0.66 0.22) (layers "F.Cu" "F.Paste" "F.Mask") (tstamp eb90c82d-4014-4869-acda-c284d6b00e91))
  (pad "6" smd rect (at 0.42 0.2) (size 0.66 0.22) (layers "F.Cu" "F.Paste" "F.Mask") (tstamp 130dfa03-770b-4d14-8409-180ad1b11d51))
  (pad "7" smd rect (at 0.42 -0.2) (size 0.66 0.22) (layers "F.Cu" "F.Paste" "F.Mask") (tstamp df381c59-7ba9-462e-92dc-3292dcfa1004))
  (pad "8" smd rect (at 0.42 -0.6) (size 0.66 0.22) (layers "F.Cu" "F.Paste" "F.Mask") (tstamp f510a02e-7138-4e1f-9801-946e0bf2688a))
  (model "${KICAD6_3DMODEL_DIR}/Package_DFN_QFN.3dshapes/OnSemi_UDFN-8_1.2x1.8mm_P0.4mm.wrl"
    (offset (xyz 0 0 0))
    (scale (xyz 1 1 1))
    (rotate (xyz 0 0 0))
  )
)
