(footprint "OnSemi_SIP-38-6EP-9x7mm_P0.65mm_EP1.2x1.2mm" (version 20221018) (generator pcbnew)
  (layer "F.Cu")
  (descr "On Semiconductor, SIP-38, 9x7mm, (https://www.onsemi.com/pub/Collateral/AX-SIP-SFEU-D.PDF#page=19)")
  (tags "On Semiconductor SIP")
  (attr smd)
  (fp_text reference "REF**" (at -2.65 -4.4 180) (layer "F.SilkS")
      (effects (font (size 1 1) (thickness 0.15)))
    (tstamp d214be39-6f4e-4a79-bc1a-89b32caaef8e)
  )
  (fp_text value "OnSemi_SIP-38-6EP-9x7mm_P0.65mm_EP1.2x1.2mm" (at 0 4.45 180) (layer "F.Fab")
      (effects (font (size 1 1) (thickness 0.15)))
    (tstamp 6a64d783-034c-4b29-a58d-fac6af3d8c52)
  )
  (fp_text user "${REFERENCE}" (at 0 0) (layer "F.Fab")
      (effects (font (size 1 1) (thickness 0.15)))
    (tstamp 820b469b-b51a-4437-8e74-92a8fa63c844)
  )
  (fp_line (start -4.8 -2.9) (end -4.8 -1.7)
    (stroke (width 0.12) (type solid)) (layer "F.SilkS") (tstamp 6a1e9d6e-292e-4776-9c38-5389c99cda74))
  (fp_line (start -4.6 -3.6) (end 4.6 -3.6)
    (stroke (width 0.12) (type solid)) (layer "F.SilkS") (tstamp 7f77f5fd-62e8-4a1d-ade7-1203c7370b6d))
  (fp_line (start -4.6 3.6) (end -4.6 -3.6)
    (stroke (width 0.12) (type solid)) (layer "F.SilkS") (tstamp 36c37ae9-764e-4604-8fd1-0bd8202db0fa))
  (fp_line (start 4.6 -3.6) (end 4.6 3.6)
    (stroke (width 0.12) (type solid)) (layer "F.SilkS") (tstamp 10ee2231-f4e7-4bc2-a0d9-34ddb8b06c28))
  (fp_line (start 4.6 3.6) (end -4.6 3.6)
    (stroke (width 0.12) (type solid)) (layer "F.SilkS") (tstamp d3edb75a-6b7b-4da2-b33e-bab6551f2ef4))
  (fp_line (start -4.75 -3.75) (end 4.75 -3.75)
    (stroke (width 0.05) (type solid)) (layer "F.CrtYd") (tstamp 5a2480b3-8e0e-47eb-b833-289328e9f79f))
  (fp_line (start -4.75 3.75) (end -4.75 -3.75)
    (stroke (width 0.05) (type solid)) (layer "F.CrtYd") (tstamp f0f6a3eb-c654-429b-90ec-bd896505babe))
  (fp_line (start 4.75 -3.75) (end 4.75 3.75)
    (stroke (width 0.05) (type solid)) (layer "F.CrtYd") (tstamp a0bd6dbb-6ad5-454d-a285-10329aa022a0))
  (fp_line (start 4.75 3.75) (end -4.75 3.75)
    (stroke (width 0.05) (type solid)) (layer "F.CrtYd") (tstamp f299979d-ef01-463c-9e02-c82588ade3a4))
  (fp_line (start -4.5 -3.5) (end -4.5 3.5)
    (stroke (width 0.1) (type solid)) (layer "F.Fab") (tstamp 46825f25-cafd-48ec-88d8-6f9e018be4f3))
  (fp_line (start -4.5 3.5) (end 4.5 3.5)
    (stroke (width 0.1) (type solid)) (layer "F.Fab") (tstamp fdb64367-dd09-44a5-8ae2-a81a7e064c47))
  (fp_line (start 4.5 -3.5) (end -4.5 -3.5)
    (stroke (width 0.1) (type solid)) (layer "F.Fab") (tstamp dad5cd2b-a7a3-4912-9b86-33fcf64c933a))
  (fp_line (start 4.5 3.5) (end 4.5 -3.5)
    (stroke (width 0.1) (type solid)) (layer "F.Fab") (tstamp 6b977312-cb67-4e99-bcb4-913d2ed7d80e))
  (pad "1" smd rect (at -4.1 -2.275) (size 0.5 0.35) (layers "F.Cu" "F.Paste" "F.Mask") (tstamp 0743b147-380e-4ae9-b975-39afbff11657))
  (pad "2" smd oval (at -4.1 -1.625) (size 0.501 0.351) (layers "F.Cu" "F.Paste" "F.Mask") (tstamp e9a481c5-1fbc-4e2a-95ab-c7a920aee34d))
  (pad "3" smd oval (at -4.1 -0.975) (size 0.501 0.351) (layers "F.Cu" "F.Paste" "F.Mask") (tstamp a1797e5b-af78-4a60-8b52-be1f869eaf30))
  (pad "4" smd oval (at -4.1 -0.325) (size 0.501 0.351) (layers "F.Cu" "F.Paste" "F.Mask") (tstamp 39b24162-bdaf-40b8-8ff3-642d7e4160f1))
  (pad "5" smd oval (at -4.1 0.325) (size 0.501 0.351) (layers "F.Cu" "F.Paste" "F.Mask") (tstamp e972e163-ef8a-4ba2-ae3c-726d50cdad38))
  (pad "6" smd oval (at -4.1 0.975) (size 0.501 0.351) (layers "F.Cu" "F.Paste" "F.Mask") (tstamp 25d76923-d623-41b9-ab5b-f6ecdf9fcdd3))
  (pad "7" smd oval (at -4.1 1.625) (size 0.501 0.351) (layers "F.Cu" "F.Paste" "F.Mask") (tstamp 1a9aa722-2206-4b45-ad27-a3e592defafa))
  (pad "8" smd oval (at -4.1 2.275) (size 0.501 0.351) (layers "F.Cu" "F.Paste" "F.Mask") (tstamp cc3ba93b-2ab6-4998-92a3-9d56db7a82d5))
  (pad "9" smd oval (at -3.25 3.1 90) (size 0.501 0.351) (layers "F.Cu" "F.Paste" "F.Mask") (tstamp b864af7e-438e-43d4-bc28-0355292e78d7))
  (pad "10" smd oval (at -2.6 3.1 90) (size 0.501 0.351) (layers "F.Cu" "F.Paste" "F.Mask") (tstamp 4ac58557-6f82-438e-a5cc-fc4d4c4608cb))
  (pad "11" smd oval (at -1.95 3.1 90) (size 0.501 0.351) (layers "F.Cu" "F.Paste" "F.Mask") (tstamp f7a1a5e2-d0ba-4995-b38c-d423bde7610b))
  (pad "12" smd oval (at -1.3 3.1 90) (size 0.501 0.351) (layers "F.Cu" "F.Paste" "F.Mask") (tstamp d12e9e0d-9e8e-460f-b693-614bed22d3a4))
  (pad "13" smd oval (at -0.65 3.1 90) (size 0.501 0.351) (layers "F.Cu" "F.Paste" "F.Mask") (tstamp 9e0172ec-a3fb-49b0-a4fb-82f491916577))
  (pad "14" smd oval (at 0 3.1 90) (size 0.501 0.351) (layers "F.Cu" "F.Paste" "F.Mask") (tstamp a95e7c0a-f9b2-4850-bd99-c39471f3d303))
  (pad "15" smd oval (at 0.65 3.1 90) (size 0.501 0.351) (layers "F.Cu" "F.Paste" "F.Mask") (tstamp 59d04496-9710-42ca-896c-2ae210733418))
  (pad "16" smd oval (at 1.3 3.1 90) (size 0.501 0.351) (layers "F.Cu" "F.Paste" "F.Mask") (tstamp 5734c316-b43e-4f18-a164-67396bb1a7af))
  (pad "17" smd oval (at 1.95 3.1 90) (size 0.501 0.351) (layers "F.Cu" "F.Paste" "F.Mask") (tstamp e66eadec-d3c8-4a59-9121-988fb49daae5))
  (pad "18" smd oval (at 2.6 3.1 90) (size 0.501 0.351) (layers "F.Cu" "F.Paste" "F.Mask") (tstamp 1f094076-8e0a-4289-ad63-d84ef8dc810d))
  (pad "19" smd oval (at 3.25 3.1 90) (size 0.501 0.351) (layers "F.Cu" "F.Paste" "F.Mask") (tstamp e081f796-d5a7-4fbc-b1b8-2c116826b654))
  (pad "20" smd oval (at 4.1 2.275) (size 0.501 0.351) (layers "F.Cu" "F.Paste" "F.Mask") (tstamp 560eb840-1cf7-4a3c-9352-33680dafcda1))
  (pad "21" smd oval (at 4.1 1.625) (size 0.501 0.351) (layers "F.Cu" "F.Paste" "F.Mask") (tstamp c34cc7c0-1527-40b8-90cc-447fdf603ee3))
  (pad "22" smd oval (at 4.1 0.975) (size 0.501 0.351) (layers "F.Cu" "F.Paste" "F.Mask") (tstamp b8291151-33f7-4623-9f9a-28d4cdd0895f))
  (pad "23" smd oval (at 4.1 0.325) (size 0.501 0.351) (layers "F.Cu" "F.Paste" "F.Mask") (tstamp c33c876c-43a5-4ca9-8c59-f0c02703f2e7))
  (pad "24" smd oval (at 4.1 -0.325) (size 0.501 0.351) (layers "F.Cu" "F.Paste" "F.Mask") (tstamp 1a024f5a-9591-4b43-8733-930d37e2b559))
  (pad "25" smd oval (at 4.1 -0.975) (size 0.501 0.351) (layers "F.Cu" "F.Paste" "F.Mask") (tstamp 0c6aa5d2-bde7-4ca3-9794-b70c93afdb69))
  (pad "26" smd oval (at 4.1 -1.625) (size 0.501 0.351) (layers "F.Cu" "F.Paste" "F.Mask") (tstamp 6e8fdeb0-1cac-44b9-800e-b019a1ebbc28))
  (pad "27" smd oval (at 4.1 -2.275) (size 0.501 0.351) (layers "F.Cu" "F.Paste" "F.Mask") (tstamp bfe4048d-a9c5-45f1-b936-4a26b839c814))
  (pad "28" smd oval (at 3.25 -3.1 90) (size 0.501 0.351) (layers "F.Cu" "F.Paste" "F.Mask") (tstamp 8f96dd82-ffee-4a5f-936f-697568922fb9))
  (pad "29" smd oval (at 2.6 -3.1 90) (size 0.501 0.351) (layers "F.Cu" "F.Paste" "F.Mask") (tstamp 86c6ecd0-8e42-4fa2-b20f-709f25e4ec76))
  (pad "30" smd oval (at 1.95 -3.1 90) (size 0.501 0.351) (layers "F.Cu" "F.Paste" "F.Mask") (tstamp 7a6b3487-d6ca-47a8-bd41-d3da68d61f52))
  (pad "31" smd oval (at 1.3 -3.1 90) (size 0.501 0.351) (layers "F.Cu" "F.Paste" "F.Mask") (tstamp 6ae677dd-b1c7-4d8a-ab93-9722a13d3e94))
  (pad "32" smd oval (at 0.65 -3.1 90) (size 0.501 0.351) (layers "F.Cu" "F.Paste" "F.Mask") (tstamp 8469f1a9-808e-44e5-95b6-0c4dd1130619))
  (pad "33" smd oval (at 0 -3.1 90) (size 0.501 0.351) (layers "F.Cu" "F.Paste" "F.Mask") (tstamp 4e4f794c-4bea-49b9-927f-4e912f1f5539))
  (pad "34" smd oval (at -0.65 -3.1 90) (size 0.501 0.351) (layers "F.Cu" "F.Paste" "F.Mask") (tstamp 59cb024d-1ead-4eb0-b2aa-14263a3cbc59))
  (pad "35" smd oval (at -1.3 -3.1 90) (size 0.501 0.351) (layers "F.Cu" "F.Paste" "F.Mask") (tstamp ce244ccd-9458-404a-8f43-8639f96a7e58))
  (pad "36" smd oval (at -1.95 -3.1 90) (size 0.501 0.351) (layers "F.Cu" "F.Paste" "F.Mask") (tstamp fa84d94f-3e97-4c69-b79c-fa9e8b794540))
  (pad "37" smd oval (at -2.6 -3.1 90) (size 0.501 0.351) (layers "F.Cu" "F.Paste" "F.Mask") (tstamp e4708c8a-2b77-4934-adaf-0a2b0b2a15e3))
  (pad "38" smd oval (at -3.25 -3.1 90) (size 0.501 0.351) (layers "F.Cu" "F.Paste" "F.Mask") (tstamp e627d975-c063-4cfd-8b4e-e5bb460ff8bd))
  (pad "39" smd rect (at -2 -1) (size 1.2 1.2) (layers "F.Cu" "F.Paste" "F.Mask") (tstamp 4c95c48a-0187-40b5-ac3c-e792962a6892))
  (pad "40" smd rect (at -2 1) (size 1.2 1.2) (layers "F.Cu" "F.Paste" "F.Mask") (tstamp 14d741c8-6f20-480c-b851-aa4e42f4b99c))
  (pad "41" smd rect (at 0 1) (size 1.2 1.2) (layers "F.Cu" "F.Paste" "F.Mask") (tstamp 84d59225-7093-4855-b532-5b9f470f1b54))
  (pad "42" smd rect (at 2 1) (size 1.2 1.2) (layers "F.Cu" "F.Paste" "F.Mask") (tstamp 5bf4fd67-7b7a-4dfa-9916-dfc8413a5f22))
  (pad "43" smd rect (at 2 -1) (size 1.2 1.2) (layers "F.Cu" "F.Paste" "F.Mask") (tstamp b57e6e37-52ec-4756-9612-86caf55b4e43))
  (pad "44" smd rect (at 0 -1) (size 1.2 1.2) (layers "F.Cu" "F.Paste" "F.Mask") (tstamp 50ab9479-674f-4274-98b4-2982cdbd2537))
  (model "${KICAD6_3DMODEL_DIR}/Package_DFN_QFN.3dshapes/OnSemi_SIP-38-6EP-9x7mm_P0.65mm_EP1.2x1.2mm.wrl"
    (offset (xyz 0 0 0))
    (scale (xyz 1 1 1))
    (rotate (xyz 0 0 0))
  )
)
