(footprint "Panasonic_HSON-8_8x8mm_P2.00mm" (version 20221018) (generator pcbnew)
  (layer "F.Cu")
  (descr "Panasonic HSON-8, 8x8x1.25mm (https://industrial.panasonic.com/content/data/SC/ds/ds7/c0/PKG_HSON008-A-0808XXI_EN.pdf)")
  (tags "panasonic hson")
  (solder_mask_margin 0.05)
  (attr smd)
  (fp_text reference "REF**" (at 0 -5) (layer "F.SilkS")
      (effects (font (size 1 1) (thickness 0.15)))
    (tstamp 1321229f-b40f-46d0-a102-6d30bc0ffc4c)
  )
  (fp_text value "Panasonic_HSON-8_8x8mm_P2.00mm" (at 0 5) (layer "F.Fab")
      (effects (font (size 1 1) (thickness 0.15)))
    (tstamp 5932b7e6-96e2-4629-84f4-eac44a81d157)
  )
  (fp_text user "${REFERENCE}" (at 0 0) (layer "F.Fab")
      (effects (font (size 1 1) (thickness 0.15)))
    (tstamp 77c8c741-363f-4754-93ab-d5b84091d259)
  )
  (fp_line (start 4.11 -4.11) (end -4.5 -4.11)
    (stroke (width 0.12) (type solid)) (layer "F.SilkS") (tstamp ccb5a529-e66c-4c7c-8aa6-3fa91cf43248))
  (fp_line (start 4.11 4.11) (end -4.11 4.11)
    (stroke (width 0.12) (type solid)) (layer "F.SilkS") (tstamp 02a185cb-0ee1-4504-9df0-eef3d7c572b0))
  (fp_line (start -4.75 -4.25) (end 4.75 -4.25)
    (stroke (width 0.05) (type solid)) (layer "F.CrtYd") (tstamp 8d34ca2c-bacd-4928-aac8-71cbf8918e23))
  (fp_line (start -4.75 4.25) (end -4.75 -4.25)
    (stroke (width 0.05) (type solid)) (layer "F.CrtYd") (tstamp 6aabb002-eeab-4ee9-9571-adebcc701e69))
  (fp_line (start -4.75 4.25) (end 4.75 4.25)
    (stroke (width 0.05) (type solid)) (layer "F.CrtYd") (tstamp 4487699d-b93d-4f37-b2c2-951dcb9d9092))
  (fp_line (start 4.75 -4.25) (end 4.75 4.25)
    (stroke (width 0.05) (type solid)) (layer "F.CrtYd") (tstamp f2403cbe-3f03-4465-a491-a6397e98c58f))
  (fp_line (start -4 4) (end -4 -3)
    (stroke (width 0.1) (type solid)) (layer "F.Fab") (tstamp e3c5f0db-d58c-4748-9f6c-fa19b8ae5553))
  (fp_line (start -3 -4) (end -4 -3)
    (stroke (width 0.1) (type solid)) (layer "F.Fab") (tstamp b1ce4f0a-7fc9-4b76-84e3-b9b826368c32))
  (fp_line (start -3 -4) (end 4 -4)
    (stroke (width 0.1) (type solid)) (layer "F.Fab") (tstamp dfa77305-fb09-4aa8-8888-f11c3b8fa8f0))
  (fp_line (start 4 -4) (end 4 4)
    (stroke (width 0.1) (type solid)) (layer "F.Fab") (tstamp 034c9d84-5e72-4035-995b-e745535ca5b0))
  (fp_line (start 4 4) (end -4 4)
    (stroke (width 0.1) (type solid)) (layer "F.Fab") (tstamp 4b2b3bda-b67a-4287-9c8e-e04a0c893133))
  (pad "" smd rect (at -4 -3) (size 1 1.3) (layers "F.Paste") (tstamp e357f1d9-b6a6-489f-b513-c8f73fa39115))
  (pad "" smd rect (at -4 -1) (size 1 1.3) (layers "F.Paste") (tstamp a128cb14-ab39-4b7f-9035-996b47b626b8))
  (pad "" smd rect (at -4 1) (size 1 1.3) (layers "F.Paste") (tstamp 96fef2f7-0799-444c-9c18-c77437156b4a))
  (pad "" smd rect (at -4 3) (size 1 1.3) (layers "F.Paste") (tstamp f807e403-2e5e-4db3-b795-5299e182a850))
  (pad "" smd rect (at 0.15 -3) (size 0.9 0.9) (layers "F.Paste") (tstamp 16bcace1-9b08-46e0-af04-a8c5a87fd1cb))
  (pad "" smd rect (at 0.15 -1.5) (size 0.9 0.9) (layers "F.Paste") (tstamp fae210b7-53ea-4c47-9236-a5992d7b1292))
  (pad "" smd rect (at 0.15 0) (size 0.9 0.9) (layers "F.Paste") (tstamp 24e4b2c9-023d-4045-87b4-66afdf31f92f))
  (pad "" smd rect (at 0.15 1.5) (size 0.9 0.9) (layers "F.Paste") (tstamp f236bf58-18ab-452c-bcc8-a8d5b3fe0bbb))
  (pad "" smd rect (at 0.15 3) (size 0.9 0.9) (layers "F.Paste") (tstamp fdf2c9bf-a5ff-44d8-87f6-12609a722b0d))
  (pad "" smd rect (at 1.65 -3) (size 0.9 0.9) (layers "F.Paste") (tstamp 8bb1294d-ee70-4b65-a3ce-d4cd3c70dff5))
  (pad "" smd rect (at 1.65 -1.5) (size 0.9 0.9) (layers "F.Paste") (tstamp f6786050-7385-4b6b-8e9d-6c7526eb7336))
  (pad "" smd rect (at 1.65 0) (size 0.9 0.9) (layers "F.Paste") (tstamp 531eaa7e-2903-45db-9b0c-cb6518c74866))
  (pad "" smd rect (at 1.65 1.5) (size 0.9 0.9) (layers "F.Paste") (tstamp 3ffe4d47-21dd-4fec-9cd0-2be65645ba76))
  (pad "" smd rect (at 1.65 3) (size 0.9 0.9) (layers "F.Paste") (tstamp f2df99eb-b03c-4aa4-9df0-29c56829cb0a))
  (pad "" smd rect (at 4 -3) (size 1 1.3) (layers "F.Paste") (tstamp 17bfccf3-2f33-4a71-98bc-7f236d5f330b))
  (pad "" smd rect (at 4 -1) (size 1 1.3) (layers "F.Paste") (tstamp 6c3de6de-e8be-4b49-b60a-7967ab451fee))
  (pad "" smd rect (at 4 1) (size 1 1.3) (layers "F.Paste") (tstamp 0247d802-3d75-438c-b5a2-74b0eb3d7ac9))
  (pad "" smd rect (at 4 3) (size 1 1.3) (layers "F.Paste") (tstamp dccc2196-7cb5-48c5-8bdb-27fad4886939))
  (pad "1" smd rect (at -3.975 -3) (size 1.05 1.3) (layers "F.Cu" "F.Mask") (tstamp 08e02d06-67fa-4f6a-b7ef-8247db06a3ef))
  (pad "2" smd rect (at -3.975 -1) (size 1.05 1.3) (layers "F.Cu" "F.Mask") (tstamp a7f7f4f3-e106-49ee-becd-d7b60adecbda))
  (pad "3" smd rect (at -3.975 1) (size 1.05 1.3) (layers "F.Cu" "F.Mask") (tstamp b4166f4f-04f7-4821-bdc8-5054ab8144f4))
  (pad "4" smd rect (at -3.975 3) (size 1.05 1.3) (layers "F.Cu" "F.Mask") (tstamp 337e9a92-63bb-420b-aded-ed183e7662da))
  (pad "5" smd rect (at 3.975 3) (size 1.05 1.3) (layers "F.Cu" "F.Mask") (tstamp 49d23adb-78fa-4ab9-ab24-8636610efa13))
  (pad "6" smd rect (at 3.975 1) (size 1.05 1.3) (layers "F.Cu" "F.Mask") (tstamp 7a20717a-876a-437d-b0f0-dde9f55caa93))
  (pad "7" smd rect (at 3.975 -1) (size 1.05 1.3) (layers "F.Cu" "F.Mask") (tstamp 5eb044a4-fc11-4405-b142-cbed96f3dd85))
  (pad "8" smd rect (at 3.975 -3) (size 1.05 1.3) (layers "F.Cu" "F.Mask") (tstamp 53f5eca5-aefb-4fa4-bbd8-9231166b1a1e))
  (pad "9" smd rect (at 0.9 0) (size 3.2 6.94) (layers "F.Cu" "F.Mask") (tstamp 7ee909e2-2990-4a9e-874e-32588c55baeb))
  (model "${KICAD6_3DMODEL_DIR}/Package_DFN_QFN.3dshapes/Panasonic_HSON-8_8x8mm_P2.00mm.wrl"
    (offset (xyz 0 0 0))
    (scale (xyz 1 1 1))
    (rotate (xyz 0 0 0))
  )
)
