(footprint "TDFN-8-1EP_3x2mm_P0.5mm_EP1.80x1.65mm_ThermalVias" (version 20221018) (generator pcbnew)
  (layer "F.Cu")
  (descr "8-lead plastic dual flat, 2x3x0.75mm size, 0.5mm pitch (http://ww1.microchip.com/downloads/en/DeviceDoc/8L_TDFN_2x3_MN_C04-0129E-MN.pdf)")
  (tags "TDFN DFN 0.5mm")
  (attr smd)
  (fp_text reference "REF**" (at 0 -1.88) (layer "F.SilkS")
      (effects (font (size 1 1) (thickness 0.15)))
    (tstamp b49014ba-058b-4605-912b-3670c11e7619)
  )
  (fp_text value "TDFN-8-1EP_3x2mm_P0.5mm_EP1.80x1.65mm_ThermalVias" (at 0 1.88) (layer "F.Fab")
      (effects (font (size 1 1) (thickness 0.15)))
    (tstamp ce4ae908-544a-488a-ac58-57e93dca4142)
  )
  (fp_text user "${REFERENCE}" (at 0 0) (layer "F.Fab")
      (effects (font (size 0.6 0.6) (thickness 0.09)))
    (tstamp 0686fc5e-d3c5-4aa7-885a-a2be281625ca)
  )
  (fp_line (start -1.45 1.12) (end 1.45 1.12)
    (stroke (width 0.12) (type solid)) (layer "F.SilkS") (tstamp a29f415c-4108-4183-bceb-4a7e91ac9885))
  (fp_line (start -0.25 -1.12) (end 1.45 -1.12)
    (stroke (width 0.12) (type solid)) (layer "F.SilkS") (tstamp 5f6595ee-7b53-4d38-bcf7-48ae23fbd4be))
  (fp_line (start -2.13 -1.25) (end -2.13 1.25)
    (stroke (width 0.05) (type solid)) (layer "F.CrtYd") (tstamp ec4719c8-51e5-469f-84c8-bbd457c6ead9))
  (fp_line (start -2.13 1.25) (end 2.13 1.25)
    (stroke (width 0.05) (type solid)) (layer "F.CrtYd") (tstamp 8f494895-8bf5-4b6e-94fa-83ee7a3813c8))
  (fp_line (start 2.13 -1.25) (end -2.13 -1.25)
    (stroke (width 0.05) (type solid)) (layer "F.CrtYd") (tstamp 20be6161-da2b-4558-9e5e-075be81048cb))
  (fp_line (start 2.13 1.25) (end 2.13 -1.25)
    (stroke (width 0.05) (type solid)) (layer "F.CrtYd") (tstamp 52652112-60da-4a6c-86d9-c9e67b23fec3))
  (fp_line (start -1.5 -0.5) (end -1.5 1)
    (stroke (width 0.1) (type solid)) (layer "F.Fab") (tstamp 35c3b8dc-7a82-4127-af13-e651fef4f137))
  (fp_line (start -1.5 1) (end 1.5 1)
    (stroke (width 0.1) (type solid)) (layer "F.Fab") (tstamp 4dbd1659-3bdf-40c7-a5c0-2d518c10f398))
  (fp_line (start -1 -1) (end -1.5 -0.5)
    (stroke (width 0.1) (type solid)) (layer "F.Fab") (tstamp 7af5ee27-8b6e-4946-8dbd-f91bf80c1f3d))
  (fp_line (start 1.5 -1) (end -1 -1)
    (stroke (width 0.1) (type solid)) (layer "F.Fab") (tstamp e7fbb123-6ee6-4455-9de6-f10d8bdbb985))
  (fp_line (start 1.5 1) (end 1.5 -1)
    (stroke (width 0.1) (type solid)) (layer "F.Fab") (tstamp ba528644-8674-4012-8f5e-618936fda2df))
  (pad "" smd rect (at 0 -0.5) (size 0.7 0.65) (layers "F.Paste") (tstamp 778d2d0c-9959-4fe5-8a3d-b5818d3dee38))
  (pad "" smd rect (at 0 0) (size 1.8 0.7) (layers "F.Paste") (tstamp facf01e4-7d8d-48d1-bfee-74ff20ac91a6))
  (pad "" smd rect (at 0 0.5) (size 0.7 0.65) (layers "F.Paste") (tstamp 898ff7d8-ab3f-4592-83fc-ea2700f486dd))
  (pad "1" smd oval (at -1.45 -0.75) (size 0.85 0.25) (layers "F.Cu" "F.Paste" "F.Mask") (tstamp 4086da45-90dd-4e13-8f26-13a33c707bc6))
  (pad "2" smd oval (at -1.45 -0.25) (size 0.85 0.25) (layers "F.Cu" "F.Paste" "F.Mask") (tstamp d26dfa3d-83fc-4e89-8b21-f67f25e60a9b))
  (pad "3" smd oval (at -1.45 0.25) (size 0.85 0.25) (layers "F.Cu" "F.Paste" "F.Mask") (tstamp 0e130be0-19bc-45bd-9bb7-92ead5e16523))
  (pad "4" smd oval (at -1.45 0.75) (size 0.85 0.25) (layers "F.Cu" "F.Paste" "F.Mask") (tstamp 4f83a4de-ee32-42c0-beb8-ac0aaafa00a9))
  (pad "5" smd oval (at 1.45 0.75) (size 0.85 0.25) (layers "F.Cu" "F.Paste" "F.Mask") (tstamp 9c431329-30b7-45cb-b8d2-b6ecf5bb3d2f))
  (pad "6" smd oval (at 1.45 0.25) (size 0.85 0.25) (layers "F.Cu" "F.Paste" "F.Mask") (tstamp ef358957-ce34-4d99-a93f-2e9435d00248))
  (pad "7" smd oval (at 1.45 -0.25) (size 0.85 0.25) (layers "F.Cu" "F.Paste" "F.Mask") (tstamp c566db29-aaa9-43ce-8e2e-ed874b92ad70))
  (pad "8" smd oval (at 1.45 -0.75) (size 0.85 0.25) (layers "F.Cu" "F.Paste" "F.Mask") (tstamp ace4e9e0-5ab8-4a40-a4ee-55f827c2bd95))
  (pad "9" thru_hole circle (at -0.5 -0.5) (size 0.65 0.65) (drill 0.3) (layers "*.Cu") (tstamp f983cdcd-3e3c-4508-92a0-a894b917cb5d))
  (pad "9" thru_hole circle (at -0.5 0.5) (size 0.65 0.65) (drill 0.3) (layers "*.Cu") (tstamp 8175e8b3-88f6-4a3d-bbc6-de1b40c91d4f))
  (pad "9" smd rect (at 0 0) (size 1.8 1.65) (layers "F.Cu" "F.Mask") (tstamp 62d1bf65-00c0-4523-947d-bd99e435731b))
  (pad "9" smd rect (at 0 0) (size 1.8 1.65) (layers "B.Cu") (tstamp be162b0e-b4c3-47e3-8b14-e62e4171bc4d))
  (pad "9" thru_hole circle (at 0.5 -0.5) (size 0.65 0.65) (drill 0.3) (layers "*.Cu") (tstamp cc823133-e74a-4a6b-a7b3-eefddaa3c90f))
  (pad "9" thru_hole circle (at 0.5 0.5) (size 0.65 0.65) (drill 0.3) (layers "*.Cu") (tstamp 0b1ccaf0-5312-41f0-acbd-095732dc7cf6))
  (model "${KICAD6_3DMODEL_DIR}/Package_DFN_QFN.3dshapes/TDFN-8-1EP_3x2mm_P0.5mm_EP1.80x1.65mm.wrl"
    (offset (xyz 0 0 0))
    (scale (xyz 1 1 1))
    (rotate (xyz 0 0 0))
  )
)
