(footprint "Texas_QFN-41_10x16mm" (version 20221018) (generator pcbnew)
  (layer "F.Cu")
  (descr "QFN, 41 Pin (http://www.ti.com/lit/ml/mpqf506/mpqf506.pdf)")
  (tags "QFN DFN_QFN")
  (attr smd)
  (fp_text reference "REF**" (at 0 -9.3) (layer "F.SilkS")
      (effects (font (size 1 1) (thickness 0.15)))
    (tstamp 9641048f-bf63-44d1-9b7d-fcf30492caf4)
  )
  (fp_text value "Texas_QFN-41_10x16mm" (at 0 9.7) (layer "F.Fab")
      (effects (font (size 1 1) (thickness 0.15)))
    (tstamp 4dfb665d-1bd3-4a23-8940-a99b174fd456)
  )
  (fp_text user "${REFERENCE}" (at 0 0) (layer "F.Fab")
      (effects (font (size 1 1) (thickness 0.15)))
    (tstamp 8645172a-67cb-4fd2-812b-2fd617be8184)
  )
  (fp_line (start -5.11 -8.11) (end -4.635 -8.11)
    (stroke (width 0.12) (type solid)) (layer "F.SilkS") (tstamp bbdb9720-a584-4094-8097-64e66a923501))
  (fp_line (start -5.11 8.1) (end -5.11 7.635)
    (stroke (width 0.12) (type solid)) (layer "F.SilkS") (tstamp 6eecf761-65b1-4720-a53e-45d40f3c81fd))
  (fp_line (start -5.11 8.11) (end -4.635 8.11)
    (stroke (width 0.12) (type solid)) (layer "F.SilkS") (tstamp 591254c4-5005-4d01-9881-c41aa971b8be))
  (fp_line (start 5.11 -8.11) (end 4.635 -8.11)
    (stroke (width 0.12) (type solid)) (layer "F.SilkS") (tstamp 8b68a8ae-a3ce-4a32-b58a-08de713c0b2b))
  (fp_line (start 5.11 -8.11) (end 5.11 -7.635)
    (stroke (width 0.12) (type solid)) (layer "F.SilkS") (tstamp de159189-755c-4ece-8aaf-8eddfed72a92))
  (fp_line (start 5.11 8.11) (end 4.635 8.11)
    (stroke (width 0.12) (type solid)) (layer "F.SilkS") (tstamp 94b75810-e2c3-4370-a242-df191908f521))
  (fp_line (start 5.11 8.11) (end 5.11 7.635)
    (stroke (width 0.12) (type solid)) (layer "F.SilkS") (tstamp 4a41f473-4684-4c12-9f1c-7bd48539acfc))
  (fp_line (start -5.5 -8.5) (end -5.5 8.5)
    (stroke (width 0.05) (type solid)) (layer "F.CrtYd") (tstamp 89123524-d54f-4aa5-9a06-18ce979eb41e))
  (fp_line (start -5.5 8.5) (end 5.5 8.5)
    (stroke (width 0.05) (type solid)) (layer "F.CrtYd") (tstamp 0827fab8-d6e2-4ce0-b162-22b5a636ecd5))
  (fp_line (start 5.5 -8.5) (end -5.5 -8.5)
    (stroke (width 0.05) (type solid)) (layer "F.CrtYd") (tstamp 4f4e719a-4b33-4ab6-899e-3b77e77b674e))
  (fp_line (start 5.5 8.5) (end 5.5 -8.5)
    (stroke (width 0.05) (type solid)) (layer "F.CrtYd") (tstamp 54ffc9d1-d76e-4af6-8d27-a4bbce72fc9e))
  (fp_line (start -5 -7) (end -5 8)
    (stroke (width 0.1) (type solid)) (layer "F.Fab") (tstamp 3b35509c-c5d5-4883-861d-2646391d071a))
  (fp_line (start -5 -7) (end -4 -8)
    (stroke (width 0.1) (type solid)) (layer "F.Fab") (tstamp a166757d-3f58-4bc8-a987-44e19609ad41))
  (fp_line (start -5 8) (end 5 8)
    (stroke (width 0.1) (type solid)) (layer "F.Fab") (tstamp 0b78b59c-555d-4896-acfa-0adbbe3faa76))
  (fp_line (start -4 -8) (end 5 -8)
    (stroke (width 0.1) (type solid)) (layer "F.Fab") (tstamp bfa67fc4-0cae-417b-9a0d-1ff531389efd))
  (fp_line (start 5 -8) (end 5 8)
    (stroke (width 0.1) (type solid)) (layer "F.Fab") (tstamp 86186903-52d8-4dab-9bdd-aed004487ea3))
  (pad "" smd custom (at -4.635 -5.6) (size 0.27 0.6) (layers "F.Paste" "F.Mask")
    (zone_connect 0) (thermal_bridge_angle 45)
    (options (clearance outline) (anchor rect))
    (primitives
      (gr_poly
        (pts
          (xy 0.035 0.5)
          (xy -0.465 0.5)
          (xy -0.465 0.3)
          (xy 0.035 0.3)
        )
        (width 0.2) (fill yes))
      (gr_poly
        (pts
          (xy 0.035 -0.3)
          (xy -0.465 -0.3)
          (xy -0.465 -0.5)
          (xy 0.035 -0.5)
        )
        (width 0.2) (fill yes))
      (gr_arc (start -0.035 0.1) (mid -0.093579 0.241421) (end -0.235 0.3) (width 0.2))
      (gr_arc (start -0.235 -0.3) (mid -0.093579 -0.241421) (end -0.035 -0.1) (width 0.2))
    ) (tstamp b167c463-5662-48e7-9f08-0d14fb6a6d67))
  (pad "" smd custom (at -4.635 -4) (size 0.27 0.6) (layers "F.Paste" "F.Mask")
    (zone_connect 0) (thermal_bridge_angle 45)
    (options (clearance outline) (anchor rect))
    (primitives
      (gr_poly
        (pts
          (xy 0.035 0.5)
          (xy -0.465 0.5)
          (xy -0.465 0.3)
          (xy 0.035 0.3)
        )
        (width 0.2) (fill yes))
      (gr_poly
        (pts
          (xy 0.035 -0.3)
          (xy -0.465 -0.3)
          (xy -0.465 -0.5)
          (xy 0.035 -0.5)
        )
        (width 0.2) (fill yes))
      (gr_arc (start -0.035 0.1) (mid -0.093579 0.241421) (end -0.235 0.3) (width 0.2))
      (gr_arc (start -0.235 -0.3) (mid -0.093579 -0.241421) (end -0.035 -0.1) (width 0.2))
    ) (tstamp 0b4651f0-d7cb-49fb-be7e-2a96bf7f48a2))
  (pad "" smd custom (at -4.635 -2.4) (size 0.27 0.6) (layers "F.Paste" "F.Mask")
    (zone_connect 0) (thermal_bridge_angle 45)
    (options (clearance outline) (anchor rect))
    (primitives
      (gr_poly
        (pts
          (xy 0.035 0.5)
          (xy -0.465 0.5)
          (xy -0.465 0.3)
          (xy 0.035 0.3)
        )
        (width 0.2) (fill yes))
      (gr_poly
        (pts
          (xy 0.035 -0.3)
          (xy -0.465 -0.3)
          (xy -0.465 -0.5)
          (xy 0.035 -0.5)
        )
        (width 0.2) (fill yes))
      (gr_arc (start -0.035 0.1) (mid -0.093579 0.241421) (end -0.235 0.3) (width 0.2))
      (gr_arc (start -0.235 -0.3) (mid -0.093579 -0.241421) (end -0.035 -0.1) (width 0.2))
    ) (tstamp f4b67761-b692-4ca8-b543-509d060f9a13))
  (pad "" smd custom (at -4.635 -0.8) (size 0.27 0.6) (layers "F.Paste" "F.Mask")
    (zone_connect 0) (thermal_bridge_angle 45)
    (options (clearance outline) (anchor rect))
    (primitives
      (gr_poly
        (pts
          (xy 0.035 0.5)
          (xy -0.465 0.5)
          (xy -0.465 0.3)
          (xy 0.035 0.3)
        )
        (width 0.2) (fill yes))
      (gr_poly
        (pts
          (xy 0.035 -0.3)
          (xy -0.465 -0.3)
          (xy -0.465 -0.5)
          (xy 0.035 -0.5)
        )
        (width 0.2) (fill yes))
      (gr_arc (start -0.035 0.1) (mid -0.093579 0.241421) (end -0.235 0.3) (width 0.2))
      (gr_arc (start -0.235 -0.3) (mid -0.093579 -0.241421) (end -0.035 -0.1) (width 0.2))
    ) (tstamp f31bf546-58e5-43b5-bfb4-e437051dc1bd))
  (pad "" smd custom (at -4.635 1.2) (size 0.27 0.6) (layers "F.Paste" "F.Mask")
    (zone_connect 0) (thermal_bridge_angle 45)
    (options (clearance outline) (anchor rect))
    (primitives
      (gr_poly
        (pts
          (xy 0.035 0.5)
          (xy -0.465 0.5)
          (xy -0.465 0.3)
          (xy 0.035 0.3)
        )
        (width 0.2) (fill yes))
      (gr_poly
        (pts
          (xy 0.035 -0.3)
          (xy -0.465 -0.3)
          (xy -0.465 -0.5)
          (xy 0.035 -0.5)
        )
        (width 0.2) (fill yes))
      (gr_arc (start -0.035 0.1) (mid -0.093579 0.241421) (end -0.235 0.3) (width 0.2))
      (gr_arc (start -0.235 -0.3) (mid -0.093579 -0.241421) (end -0.035 -0.1) (width 0.2))
    ) (tstamp d9dce2a0-9897-44d2-a3d5-aa90ab04f92d))
  (pad "" smd custom (at -4.635 5.6) (size 0.27 0.6) (layers "F.Paste" "F.Mask")
    (zone_connect 0) (thermal_bridge_angle 45)
    (options (clearance outline) (anchor rect))
    (primitives
      (gr_poly
        (pts
          (xy 0.035 0.5)
          (xy -0.465 0.5)
          (xy -0.465 0.3)
          (xy 0.035 0.3)
        )
        (width 0.2) (fill yes))
      (gr_poly
        (pts
          (xy 0.035 -0.3)
          (xy -0.465 -0.3)
          (xy -0.465 -0.5)
          (xy 0.035 -0.5)
        )
        (width 0.2) (fill yes))
      (gr_arc (start -0.035 0.1) (mid -0.093579 0.241421) (end -0.235 0.3) (width 0.2))
      (gr_arc (start -0.235 -0.3) (mid -0.093579 -0.241421) (end -0.035 -0.1) (width 0.2))
    ) (tstamp 9681f82e-510f-40bc-b6a6-f87bfa904bc0))
  (pad "" smd custom (at -4.285 -7.185) (size 0.87 0.87) (layers "F.Paste")
    (zone_connect 0) (thermal_bridge_angle 45)
    (options (clearance outline) (anchor rect))
    (primitives
      (gr_poly
        (pts
          (xy 0.385 0.485)
          (xy -0.81 0.485)
          (xy -0.81 0.285)
          (xy -0.385 0.285)
          (xy -0.385 -0.375)
          (xy 0.385 -0.375)
        )
        (width 0.2) (fill yes))
      (gr_arc (start -0.385 0.085) (mid -0.443579 0.226421) (end -0.585 0.285) (width 0.2))
    ) (tstamp de591977-8b41-41ff-abaf-1f81d62ce996))
  (pad "" smd custom (at -4.285 -7.185) (size 0.87 1.07) (layers "F.Mask")
    (zone_connect 0) (thermal_bridge_angle 45)
    (options (clearance outline) (anchor rect))
    (primitives
      (gr_poly
        (pts
          (xy 0.385 0.485)
          (xy -0.81 0.485)
          (xy -0.81 0.285)
          (xy -0.385 0.285)
          (xy -0.385 -0.485)
          (xy 0.385 -0.485)
        )
        (width 0.2) (fill yes))
      (gr_arc (start -0.385 0.085) (mid -0.443579 0.226421) (end -0.585 0.285) (width 0.2))
    ) (tstamp b6b62d43-5fd9-4cc6-b403-c9590c7c7c70))
  (pad "" smd custom (at -4.285 7.185) (size 0.87 0.87) (layers "F.Paste")
    (zone_connect 0) (thermal_bridge_angle 45)
    (options (clearance outline) (anchor rect))
    (primitives
      (gr_poly
        (pts
          (xy 0.385 0.375)
          (xy -0.385 0.375)
          (xy -0.385 -0.285)
          (xy -0.81 -0.285)
          (xy -0.81 -0.485)
          (xy 0.385 -0.485)
        )
        (width 0.2) (fill yes))
      (gr_arc (start -0.585 -0.285) (mid -0.443579 -0.226421) (end -0.385 -0.085) (width 0.2))
    ) (tstamp 6946fbf6-85dc-4b9a-9425-8f7d242547ea))
  (pad "" smd custom (at -4.285 7.185) (size 0.87 1.07) (layers "F.Mask")
    (zone_connect 0) (thermal_bridge_angle 45)
    (options (clearance outline) (anchor rect))
    (primitives
      (gr_poly
        (pts
          (xy 0.385 0.485)
          (xy -0.385 0.485)
          (xy -0.385 -0.285)
          (xy -0.81 -0.285)
          (xy -0.81 -0.485)
          (xy 0.385 -0.485)
        )
        (width 0.2) (fill yes))
      (gr_arc (start -0.585 -0.285) (mid -0.443579 -0.226421) (end -0.385 -0.085) (width 0.2))
    ) (tstamp 00fb3294-666f-4cda-a911-c42ef5912a78))
  (pad "" smd custom (at -2.4 -7.635 270) (size 0.27 1.6) (layers "F.Paste" "F.Mask")
    (zone_connect 0) (thermal_bridge_angle 45)
    (options (clearance outline) (anchor rect))
    (primitives
      (gr_poly
        (pts
          (xy 0.035 0.1)
          (xy -0.465 0.1)
          (xy -0.465 -0.1)
          (xy 0.035 -0.1)
        )
        (width 0.2) (fill yes))
      (gr_poly
        (pts
          (xy 0.035 -0.7)
          (xy -0.465 -0.7)
          (xy -0.465 -0.9)
          (xy 0.035 -0.9)
        )
        (width 0.2) (fill yes))
      (gr_arc (start -0.035 -0.3) (mid -0.093579 -0.158579) (end -0.235 -0.1) (width 0.2))
      (gr_arc (start -0.235 -0.7) (mid -0.093579 -0.641421) (end -0.035 -0.5) (width 0.2))
      (gr_poly
        (pts
          (xy 0.035 0.9)
          (xy -0.465 0.9)
          (xy -0.465 0.7)
          (xy 0.035 0.7)
        )
        (width 0.2) (fill yes))
      (gr_arc (start -0.235 0.1) (mid -0.093579 0.158579) (end -0.035 0.3) (width 0.2))
      (gr_arc (start -0.035 0.5) (mid -0.093579 0.641421) (end -0.235 0.7) (width 0.2))
    ) (tstamp f03fe53b-9a1a-4a7c-b3d9-9e0feaa879ec))
  (pad "" smd custom (at 0 -7.635 270) (size 0.27 1.6) (layers "F.Paste" "F.Mask")
    (zone_connect 0) (thermal_bridge_angle 45)
    (options (clearance outline) (anchor rect))
    (primitives
      (gr_poly
        (pts
          (xy 0.035 0.1)
          (xy -0.465 0.1)
          (xy -0.465 -0.1)
          (xy 0.035 -0.1)
        )
        (width 0.2) (fill yes))
      (gr_poly
        (pts
          (xy 0.035 -0.7)
          (xy -0.465 -0.7)
          (xy -0.465 -0.9)
          (xy 0.035 -0.9)
        )
        (width 0.2) (fill yes))
      (gr_arc (start -0.035 -0.3) (mid -0.093579 -0.158579) (end -0.235 -0.1) (width 0.2))
      (gr_arc (start -0.235 -0.7) (mid -0.093579 -0.641421) (end -0.035 -0.5) (width 0.2))
      (gr_poly
        (pts
          (xy 0.035 0.9)
          (xy -0.465 0.9)
          (xy -0.465 0.7)
          (xy 0.035 0.7)
        )
        (width 0.2) (fill yes))
      (gr_arc (start -0.235 0.1) (mid -0.093579 0.158579) (end -0.035 0.3) (width 0.2))
      (gr_arc (start -0.035 0.5) (mid -0.093579 0.641421) (end -0.235 0.7) (width 0.2))
    ) (tstamp 3a697582-1799-48cf-928e-b0e71b4d2840))
  (pad "" smd custom (at 0.8 7.635 90) (size 0.27 1.6) (layers "F.Paste" "F.Mask")
    (zone_connect 0) (thermal_bridge_angle 45)
    (options (clearance outline) (anchor rect))
    (primitives
      (gr_poly
        (pts
          (xy 0.035 0.1)
          (xy -0.465 0.1)
          (xy -0.465 -0.1)
          (xy 0.035 -0.1)
        )
        (width 0.2) (fill yes))
      (gr_poly
        (pts
          (xy 0.035 -0.7)
          (xy -0.465 -0.7)
          (xy -0.465 -0.9)
          (xy 0.035 -0.9)
        )
        (width 0.2) (fill yes))
      (gr_arc (start -0.035 -0.3) (mid -0.093579 -0.158579) (end -0.235 -0.1) (width 0.2))
      (gr_arc (start -0.235 -0.7) (mid -0.093579 -0.641421) (end -0.035 -0.5) (width 0.2))
      (gr_poly
        (pts
          (xy 0.035 0.9)
          (xy -0.465 0.9)
          (xy -0.465 0.7)
          (xy 0.035 0.7)
        )
        (width 0.2) (fill yes))
      (gr_arc (start -0.235 0.1) (mid -0.093579 0.158579) (end -0.035 0.3) (width 0.2))
      (gr_arc (start -0.035 0.5) (mid -0.093579 0.641421) (end -0.235 0.7) (width 0.2))
    ) (tstamp 50d02d35-aba4-42c0-ac32-acabd044f34d))
  (pad "" smd custom (at 2.4 -7.635 270) (size 0.27 1.6) (layers "F.Paste" "F.Mask")
    (zone_connect 0) (thermal_bridge_angle 45)
    (options (clearance outline) (anchor rect))
    (primitives
      (gr_poly
        (pts
          (xy 0.035 0.1)
          (xy -0.465 0.1)
          (xy -0.465 -0.1)
          (xy 0.035 -0.1)
        )
        (width 0.2) (fill yes))
      (gr_poly
        (pts
          (xy 0.035 -0.7)
          (xy -0.465 -0.7)
          (xy -0.465 -0.9)
          (xy 0.035 -0.9)
        )
        (width 0.2) (fill yes))
      (gr_arc (start -0.035 -0.3) (mid -0.093579 -0.158579) (end -0.235 -0.1) (width 0.2))
      (gr_arc (start -0.235 -0.7) (mid -0.093579 -0.641421) (end -0.035 -0.5) (width 0.2))
      (gr_poly
        (pts
          (xy 0.035 0.9)
          (xy -0.465 0.9)
          (xy -0.465 0.7)
          (xy 0.035 0.7)
        )
        (width 0.2) (fill yes))
      (gr_arc (start -0.235 0.1) (mid -0.093579 0.158579) (end -0.035 0.3) (width 0.2))
      (gr_arc (start -0.035 0.5) (mid -0.093579 0.641421) (end -0.235 0.7) (width 0.2))
    ) (tstamp a2123a1f-379c-40f2-947f-b0ef1cdb8a86))
  (pad "" smd custom (at 4.285 -7.185 180) (size 0.87 0.87) (layers "F.Paste")
    (zone_connect 0) (thermal_bridge_angle 45)
    (options (clearance outline) (anchor rect))
    (primitives
      (gr_poly
        (pts
          (xy 0.385 0.375)
          (xy -0.385 0.375)
          (xy -0.385 -0.285)
          (xy -0.81 -0.285)
          (xy -0.81 -0.485)
          (xy 0.385 -0.485)
        )
        (width 0.2) (fill yes))
      (gr_arc (start -0.585 -0.285) (mid -0.443579 -0.226421) (end -0.385 -0.085) (width 0.2))
    ) (tstamp a591c09a-c8f3-4a6e-a05c-620f1c093582))
  (pad "" smd custom (at 4.285 -7.185 180) (size 0.87 1.07) (layers "F.Mask")
    (zone_connect 0) (thermal_bridge_angle 45)
    (options (clearance outline) (anchor rect))
    (primitives
      (gr_poly
        (pts
          (xy 0.385 0.485)
          (xy -0.385 0.485)
          (xy -0.385 -0.285)
          (xy -0.81 -0.285)
          (xy -0.81 -0.485)
          (xy 0.385 -0.485)
        )
        (width 0.2) (fill yes))
      (gr_arc (start -0.585 -0.285) (mid -0.443579 -0.226421) (end -0.385 -0.085) (width 0.2))
    ) (tstamp f649c111-94a9-46ae-b73f-ad4883f5368d))
  (pad "" smd custom (at 4.285 7.185 180) (size 0.87 0.87) (layers "F.Paste")
    (zone_connect 0) (thermal_bridge_angle 45)
    (options (clearance outline) (anchor rect))
    (primitives
      (gr_poly
        (pts
          (xy 0.385 0.485)
          (xy -0.81 0.485)
          (xy -0.81 0.285)
          (xy -0.385 0.285)
          (xy -0.385 -0.375)
          (xy 0.385 -0.375)
        )
        (width 0.2) (fill yes))
      (gr_arc (start -0.385 0.085) (mid -0.443579 0.226421) (end -0.585 0.285) (width 0.2))
    ) (tstamp b6e0cb33-eb52-4195-80c5-4fce9ebd50fe))
  (pad "" smd custom (at 4.285 7.185 180) (size 0.87 1.07) (layers "F.Mask")
    (zone_connect 0) (thermal_bridge_angle 45)
    (options (clearance outline) (anchor rect))
    (primitives
      (gr_poly
        (pts
          (xy 0.385 0.485)
          (xy -0.81 0.485)
          (xy -0.81 0.285)
          (xy -0.385 0.285)
          (xy -0.385 -0.485)
          (xy 0.385 -0.485)
        )
        (width 0.2) (fill yes))
      (gr_arc (start -0.385 0.085) (mid -0.443579 0.226421) (end -0.585 0.285) (width 0.2))
    ) (tstamp 9d46c18e-2a94-48d3-ac48-2bd365cb9331))
  (pad "" smd custom (at 4.635 -5.6 180) (size 0.27 0.6) (layers "F.Paste" "F.Mask")
    (zone_connect 0) (thermal_bridge_angle 45)
    (options (clearance outline) (anchor rect))
    (primitives
      (gr_poly
        (pts
          (xy 0.035 0.5)
          (xy -0.465 0.5)
          (xy -0.465 0.3)
          (xy 0.035 0.3)
        )
        (width 0.2) (fill yes))
      (gr_poly
        (pts
          (xy 0.035 -0.3)
          (xy -0.465 -0.3)
          (xy -0.465 -0.5)
          (xy 0.035 -0.5)
        )
        (width 0.2) (fill yes))
      (gr_arc (start -0.035 0.1) (mid -0.093579 0.241421) (end -0.235 0.3) (width 0.2))
      (gr_arc (start -0.235 -0.3) (mid -0.093579 -0.241421) (end -0.035 -0.1) (width 0.2))
    ) (tstamp 51756f45-1d92-49dd-9030-2467ca125eed))
  (pad "" smd custom (at 4.635 -4 180) (size 0.27 0.6) (layers "F.Paste" "F.Mask")
    (zone_connect 0) (thermal_bridge_angle 45)
    (options (clearance outline) (anchor rect))
    (primitives
      (gr_poly
        (pts
          (xy 0.035 0.5)
          (xy -0.465 0.5)
          (xy -0.465 0.3)
          (xy 0.035 0.3)
        )
        (width 0.2) (fill yes))
      (gr_poly
        (pts
          (xy 0.035 -0.3)
          (xy -0.465 -0.3)
          (xy -0.465 -0.5)
          (xy 0.035 -0.5)
        )
        (width 0.2) (fill yes))
      (gr_arc (start -0.035 0.1) (mid -0.093579 0.241421) (end -0.235 0.3) (width 0.2))
      (gr_arc (start -0.235 -0.3) (mid -0.093579 -0.241421) (end -0.035 -0.1) (width 0.2))
    ) (tstamp 7bdc84ed-298e-43ed-ab75-854650ec1bd6))
  (pad "" smd custom (at 4.635 -2.4 180) (size 0.27 0.6) (layers "F.Paste" "F.Mask")
    (zone_connect 0) (thermal_bridge_angle 45)
    (options (clearance outline) (anchor rect))
    (primitives
      (gr_poly
        (pts
          (xy 0.035 0.5)
          (xy -0.465 0.5)
          (xy -0.465 0.3)
          (xy 0.035 0.3)
        )
        (width 0.2) (fill yes))
      (gr_poly
        (pts
          (xy 0.035 -0.3)
          (xy -0.465 -0.3)
          (xy -0.465 -0.5)
          (xy 0.035 -0.5)
        )
        (width 0.2) (fill yes))
      (gr_arc (start -0.035 0.1) (mid -0.093579 0.241421) (end -0.235 0.3) (width 0.2))
      (gr_arc (start -0.235 -0.3) (mid -0.093579 -0.241421) (end -0.035 -0.1) (width 0.2))
    ) (tstamp 3b1df194-cac6-45fd-a0b1-e65c9a3c946a))
  (pad "" smd custom (at 4.635 -0.8 180) (size 0.27 0.6) (layers "F.Paste" "F.Mask")
    (zone_connect 0) (thermal_bridge_angle 45)
    (options (clearance outline) (anchor rect))
    (primitives
      (gr_poly
        (pts
          (xy 0.035 0.5)
          (xy -0.465 0.5)
          (xy -0.465 0.3)
          (xy 0.035 0.3)
        )
        (width 0.2) (fill yes))
      (gr_poly
        (pts
          (xy 0.035 -0.3)
          (xy -0.465 -0.3)
          (xy -0.465 -0.5)
          (xy 0.035 -0.5)
        )
        (width 0.2) (fill yes))
      (gr_arc (start -0.035 0.1) (mid -0.093579 0.241421) (end -0.235 0.3) (width 0.2))
      (gr_arc (start -0.235 -0.3) (mid -0.093579 -0.241421) (end -0.035 -0.1) (width 0.2))
    ) (tstamp 3c8d2b98-a292-4ac1-ae84-581ba66b662f))
  (pad "" smd custom (at 4.635 1.6 180) (size 0.27 1.6) (layers "F.Paste" "F.Mask")
    (zone_connect 0) (thermal_bridge_angle 45)
    (options (clearance outline) (anchor rect))
    (primitives
      (gr_poly
        (pts
          (xy 0.035 0.1)
          (xy -0.465 0.1)
          (xy -0.465 -0.1)
          (xy 0.035 -0.1)
        )
        (width 0.2) (fill yes))
      (gr_poly
        (pts
          (xy 0.035 -0.7)
          (xy -0.465 -0.7)
          (xy -0.465 -0.9)
          (xy 0.035 -0.9)
        )
        (width 0.2) (fill yes))
      (gr_arc (start -0.035 -0.3) (mid -0.093579 -0.158579) (end -0.235 -0.1) (width 0.2))
      (gr_arc (start -0.235 -0.7) (mid -0.093579 -0.641421) (end -0.035 -0.5) (width 0.2))
      (gr_poly
        (pts
          (xy 0.035 0.9)
          (xy -0.465 0.9)
          (xy -0.465 0.7)
          (xy 0.035 0.7)
        )
        (width 0.2) (fill yes))
      (gr_arc (start -0.235 0.1) (mid -0.093579 0.158579) (end -0.035 0.3) (width 0.2))
      (gr_arc (start -0.035 0.5) (mid -0.093579 0.641421) (end -0.235 0.7) (width 0.2))
    ) (tstamp 59240fb6-71b8-48ff-9352-44089dae9d96))
  (pad "" smd custom (at 4.635 3.8 180) (size 0.27 0.6) (layers "F.Paste" "F.Mask")
    (zone_connect 0) (thermal_bridge_angle 45)
    (options (clearance outline) (anchor rect))
    (primitives
      (gr_poly
        (pts
          (xy 0.035 0.5)
          (xy -0.465 0.5)
          (xy -0.465 0.3)
          (xy 0.035 0.3)
        )
        (width 0.2) (fill yes))
      (gr_poly
        (pts
          (xy 0.035 -0.3)
          (xy -0.465 -0.3)
          (xy -0.465 -0.5)
          (xy 0.035 -0.5)
        )
        (width 0.2) (fill yes))
      (gr_arc (start -0.035 0.1) (mid -0.093579 0.241421) (end -0.235 0.3) (width 0.2))
      (gr_arc (start -0.235 -0.3) (mid -0.093579 -0.241421) (end -0.035 -0.1) (width 0.2))
    ) (tstamp f24da6a7-7934-4e31-b4de-280e92ee3d6b))
  (pad "1" smd roundrect (at -4.5 -7.185) (size 1.5 1.27) (layers "F.Cu") (roundrect_rratio 0.079)
    (zone_connect 0) (tstamp c58f4cd4-a947-49f2-bc0e-a9884644eed2))
  (pad "2" smd roundrect (at -4.85 -5.6) (size 0.8 1.3) (layers "F.Cu") (roundrect_rratio 0.125)
    (zone_connect 0) (tstamp b0920e57-530c-4236-a61d-c1b53dbd9572))
  (pad "3" smd roundrect (at -4.85 -4) (size 0.8 1.3) (layers "F.Cu") (roundrect_rratio 0.125)
    (zone_connect 0) (tstamp b36517d2-d938-4d7b-8a11-94e454ef3e37))
  (pad "4" smd roundrect (at -4.85 -2.4) (size 0.8 1.3) (layers "F.Cu") (roundrect_rratio 0.125)
    (zone_connect 0) (tstamp a0725a6a-7209-4916-a5e6-5499636d7b5d))
  (pad "5" smd roundrect (at -4.85 -0.8) (size 0.8 1.3) (layers "F.Cu") (roundrect_rratio 0.125)
    (zone_connect 0) (tstamp d51d8031-9eba-4aff-b4c8-2b56ba5e9650))
  (pad "6" smd roundrect (at -4.85 1.2) (size 0.8 1.3) (layers "F.Cu") (roundrect_rratio 0.125)
    (zone_connect 0) (tstamp 0df45ddd-9fe3-4ade-b6b1-92c25e92dc8c))
  (pad "7" smd roundrect (at -4.85 2.4) (size 0.8 0.5) (layers "F.Cu" "F.Paste" "F.Mask") (roundrect_rratio 0.2)
    (solder_mask_margin -0.05) (solder_paste_margin -0.05) (tstamp 11e0c07b-e1a7-4f93-a72d-41795004ee39))
  (pad "8" smd roundrect (at -4.85 3.4) (size 0.8 0.5) (layers "F.Cu" "F.Paste" "F.Mask") (roundrect_rratio 0.2)
    (solder_mask_margin -0.05) (solder_paste_margin -0.05) (tstamp 303c2425-28af-4358-8482-ab2598935f56))
  (pad "9" smd roundrect (at -4.85 4.2) (size 0.8 0.5) (layers "F.Cu" "F.Paste" "F.Mask") (roundrect_rratio 0.2)
    (solder_mask_margin -0.05) (solder_paste_margin -0.05) (tstamp 5bf6c302-8b83-453f-83b0-81abeb9fbc7b))
  (pad "10" smd roundrect (at -4.85 5.6) (size 0.8 1.3) (layers "F.Cu") (roundrect_rratio 0.125)
    (zone_connect 0) (tstamp c7b29d3e-9394-4fca-8997-279d20fd7d0c))
  (pad "11" smd roundrect (at -4.5 7.185) (size 1.5 1.27) (layers "F.Cu") (roundrect_rratio 0.079)
    (zone_connect 0) (tstamp d4cf77fa-6855-4959-975d-b1cd6e768758))
  (pad "12" smd roundrect (at -3.2 7.85 90) (size 0.8 0.5) (layers "F.Cu" "F.Paste" "F.Mask") (roundrect_rratio 0.2)
    (solder_mask_margin -0.05) (solder_paste_margin -0.05) (tstamp 1afe3cf8-f090-4c98-ae3a-33a74a2d1368))
  (pad "13" smd roundrect (at -2.4 7.85 90) (size 0.8 0.5) (layers "F.Cu" "F.Paste" "F.Mask") (roundrect_rratio 0.2)
    (solder_mask_margin -0.05) (solder_paste_margin -0.05) (tstamp 5834666c-424f-4de2-918b-5c6092efe0ef))
  (pad "14" smd roundrect (at -1.6 7.85 90) (size 0.8 0.5) (layers "F.Cu" "F.Paste" "F.Mask") (roundrect_rratio 0.2)
    (solder_mask_margin -0.05) (solder_paste_margin -0.05) (tstamp 5a3c6b8a-d999-4a1f-992d-b410f87e6c1a))
  (pad "15" smd roundrect (at -0.8 7.85 90) (size 0.8 0.5) (layers "F.Cu" "F.Paste" "F.Mask") (roundrect_rratio 0.2)
    (solder_mask_margin -0.05) (solder_paste_margin -0.05) (tstamp adb2a972-46ae-4e80-8af0-86364497935b))
  (pad "16" smd roundrect (at 0.8 7.85 90) (size 0.8 2.1) (layers "F.Cu") (roundrect_rratio 0.125)
    (zone_connect 0) (tstamp 241fe921-211b-4ab6-a784-40f6bd79094f))
  (pad "17" smd roundrect (at 2.4 7.85 90) (size 0.8 0.5) (layers "F.Cu" "F.Paste" "F.Mask") (roundrect_rratio 0.2)
    (solder_mask_margin -0.05) (solder_paste_margin -0.05) (tstamp 8dead752-47b8-4744-bdbe-077a2cefad06))
  (pad "18" smd roundrect (at 3.2 7.85 90) (size 0.8 0.5) (layers "F.Cu" "F.Paste" "F.Mask") (roundrect_rratio 0.2)
    (solder_mask_margin -0.05) (solder_paste_margin -0.05) (tstamp 6e460e42-0964-4aec-8dba-26fe1444d8bd))
  (pad "19" smd roundrect (at 4.5 7.185 180) (size 1.5 1.27) (layers "F.Cu") (roundrect_rratio 0.079)
    (zone_connect 0) (tstamp 40da078b-0d69-4b38-acbf-50df5602792e))
  (pad "20" smd roundrect (at 4.85 6) (size 0.8 0.5) (layers "F.Cu" "F.Paste" "F.Mask") (roundrect_rratio 0.2)
    (solder_mask_margin -0.05) (solder_paste_margin -0.05) (tstamp 1b5b65b5-4f93-4940-b80b-f9d7364664ba))
  (pad "21" smd roundrect (at 4.85 5.2) (size 0.8 0.5) (layers "F.Cu" "F.Paste" "F.Mask") (roundrect_rratio 0.2)
    (solder_mask_margin -0.05) (solder_paste_margin -0.05) (tstamp 184cdf16-55de-412d-ac7b-6e908044b5cc))
  (pad "22" smd roundrect (at 4.85 3.8 180) (size 0.8 1.3) (layers "F.Cu") (roundrect_rratio 0.125)
    (zone_connect 0) (tstamp 3acb2344-411d-4ede-ac83-902ccf406f70))
  (pad "23" smd roundrect (at 4.85 1.6 180) (size 0.8 2.1) (layers "F.Cu") (roundrect_rratio 0.125)
    (zone_connect 0) (tstamp 61911d83-6f24-492f-a7e3-78b7cb5c00d0))
  (pad "24" smd roundrect (at 4.85 -0.8 180) (size 0.8 1.3) (layers "F.Cu") (roundrect_rratio 0.125)
    (zone_connect 0) (tstamp 9d7d7552-19d8-4aae-abc2-3e2a9a050cd1))
  (pad "25" smd roundrect (at 4.85 -2.4 180) (size 0.8 1.3) (layers "F.Cu") (roundrect_rratio 0.125)
    (zone_connect 0) (tstamp f39b8e5e-f75c-4cc7-b9e5-62fd744321cc))
  (pad "26" smd roundrect (at 4.85 -4 180) (size 0.8 1.3) (layers "F.Cu") (roundrect_rratio 0.125)
    (zone_connect 0) (tstamp 95223418-442d-4104-932f-7cc86ce167a0))
  (pad "27" smd roundrect (at 4.85 -5.6 180) (size 0.8 1.3) (layers "F.Cu") (roundrect_rratio 0.125)
    (zone_connect 0) (tstamp 226e4a13-1840-4cf7-9b8a-e8909408f5de))
  (pad "28" smd roundrect (at 4.5 -7.185 180) (size 1.5 1.27) (layers "F.Cu") (roundrect_rratio 0.079)
    (zone_connect 0) (tstamp 85872dd7-3f9c-4048-98d7-76a64686ef39))
  (pad "29" smd roundrect (at 2.4 -7.85 270) (size 0.8 2.1) (layers "F.Cu") (roundrect_rratio 0.125)
    (zone_connect 0) (tstamp 70f7f74a-0930-40ef-98fd-c78a07306aae))
  (pad "30" smd roundrect (at 0 -7.85 270) (size 0.8 2.1) (layers "F.Cu") (roundrect_rratio 0.125)
    (zone_connect 0) (tstamp 45b1673e-8e2a-426a-b3f1-db2f7e7f36ac))
  (pad "31" smd roundrect (at -2.4 -7.85 270) (size 0.8 2.1) (layers "F.Cu") (roundrect_rratio 0.125)
    (zone_connect 0) (tstamp 120523ff-0d0a-4649-b547-81a80cc4e556))
  (pad "32" smd roundrect (at -2.4 -5.6) (size 1.1 1.54) (layers "F.Cu" "F.Paste" "F.Mask") (roundrect_rratio 0.091)
    (solder_mask_margin -0.05) (solder_paste_margin_ratio -0.07) (tstamp c17b008d-f017-4254-b6a8-6b78123d7957))
  (pad "33" smd roundrect (at -2.4 -2.4) (size 1.1 1.54) (layers "F.Cu" "F.Paste" "F.Mask") (roundrect_rratio 0.091)
    (solder_mask_margin -0.05) (solder_paste_margin_ratio -0.07) (tstamp 3086967a-5593-4837-9050-49ad50064716))
  (pad "34" smd roundrect (at 0 -5.6) (size 1.1 1.54) (layers "F.Cu" "F.Paste" "F.Mask") (roundrect_rratio 0.091)
    (solder_mask_margin -0.05) (solder_paste_margin_ratio -0.07) (tstamp 82e76991-99c6-488c-91f8-5ab00853b6a2))
  (pad "35" smd roundrect (at 0 -2.4) (size 1.1 1.54) (layers "F.Cu" "F.Paste" "F.Mask") (roundrect_rratio 0.091)
    (solder_mask_margin -0.05) (solder_paste_margin_ratio -0.07) (tstamp b11a34a1-e4ef-42e4-b0d8-24a46b975b03))
  (pad "36" smd roundrect (at 2.4 -5.6) (size 1.1 1.54) (layers "F.Cu" "F.Paste" "F.Mask") (roundrect_rratio 0.091)
    (solder_mask_margin -0.05) (solder_paste_margin_ratio -0.07) (tstamp 6afdb5e5-0ce0-4137-8b23-203ac5b0ac2b))
  (pad "37" smd roundrect (at 2.4 -2.4) (size 1.1 1.54) (layers "F.Cu" "F.Paste" "F.Mask") (roundrect_rratio 0.091)
    (solder_mask_margin -0.05) (solder_paste_margin_ratio -0.07) (tstamp f06f3994-06fc-4f47-bca4-41e04df84f9d))
  (pad "38" smd roundrect (at 3.55 1.6) (size 1.2 1.1) (layers "F.Cu" "F.Paste" "F.Mask") (roundrect_rratio 0.091)
    (solder_mask_margin -0.05) (solder_paste_margin_ratio -0.07) (tstamp 599f8a9d-648d-483c-82f7-bf7c2a5ebcf4))
  (pad "39" smd roundrect (at 3.55 3.8) (size 1.2 1.1) (layers "F.Cu" "F.Paste" "F.Mask") (roundrect_rratio 0.091)
    (solder_mask_margin -0.05) (solder_paste_margin_ratio -0.07) (tstamp 29133107-57c8-4aa1-bb68-3d7d5d086274))
  (pad "40" smd roundrect (at 0.335 2.79) (size 1.85 2.02) (layers "F.Cu" "F.Paste" "F.Mask") (roundrect_rratio 0.054)
    (solder_mask_margin -0.05) (solder_paste_margin_ratio -0.08) (tstamp c049d38a-acd2-4185-83b9-f3c29b635b2c))
  (pad "41" smd roundrect (at 0.335 5.11) (size 1.85 2.02) (layers "F.Cu" "F.Paste" "F.Mask") (roundrect_rratio 0.054)
    (solder_mask_margin -0.05) (solder_paste_margin_ratio -0.08) (tstamp cace778f-8dd2-484b-89ac-53ecfd2759fd))
  (model "${KICAD6_3DMODEL_DIR}/Package_DFN_QFN.3dshapes/Texas_QFN-41_10x16mm.wrl"
    (offset (xyz 0 0 0))
    (scale (xyz 1 1 1))
    (rotate (xyz 0 0 0))
  )
)
