(footprint "Texas_R-PUQFN-N12" (version 20221018) (generator pcbnew)
  (layer "F.Cu")
  (descr "Texas_R-PUQFN-N12 http://www.ti.com/lit/ds/symlink/txb0104.pdf")
  (tags "Texas_R-PUQFN-N12")
  (attr smd)
  (fp_text reference "REF**" (at 0.75 -2) (layer "F.SilkS")
      (effects (font (size 1 1) (thickness 0.15)))
    (tstamp b7979e27-05c1-466a-9ecd-5be3fa11ac89)
  )
  (fp_text value "Texas_R-PUQFN-N12" (at 0.25 2) (layer "F.Fab")
      (effects (font (size 1 1) (thickness 0.15)))
    (tstamp 2278a8f9-b3ff-43b6-878a-b14d5594e1d1)
  )
  (fp_text user "${REFERENCE}" (at 0 0) (layer "F.Fab")
      (effects (font (size 0.3 0.3) (thickness 0.03)))
    (tstamp bdb6f509-0aa1-420c-960f-7b981fafa33d)
  )
  (fp_line (start 0.5 1.3) (end -0.5 1.3)
    (stroke (width 0.1) (type solid)) (layer "F.SilkS") (tstamp f18c31a4-9100-4c3e-b109-2d493ce59fb6))
  (fp_line (start 0.6 -1.3) (end -1.09 -1.3)
    (stroke (width 0.12) (type solid)) (layer "F.SilkS") (tstamp 4a225f3b-115b-4dfa-9f19-ce044612f380))
  (fp_line (start -1.1 -1.2) (end 1.1 -1.2)
    (stroke (width 0.05) (type solid)) (layer "F.CrtYd") (tstamp b10c8500-e984-47c4-893e-223ea648267d))
  (fp_line (start -1.1 1.2) (end -1.1 -1.2)
    (stroke (width 0.05) (type solid)) (layer "F.CrtYd") (tstamp d20147ae-7af4-4d27-9725-c2f0cbab5df4))
  (fp_line (start 1.1 -1.2) (end 1.1 1.2)
    (stroke (width 0.05) (type solid)) (layer "F.CrtYd") (tstamp 3bfbe64a-560f-4617-98e1-72221cea1787))
  (fp_line (start 1.1 1.2) (end -1.1 1.2)
    (stroke (width 0.05) (type solid)) (layer "F.CrtYd") (tstamp ebb0a96e-eb8d-44f1-95a1-a92ab64ef3e1))
  (fp_line (start -0.85 1) (end -0.85 -0.5)
    (stroke (width 0.1) (type solid)) (layer "F.Fab") (tstamp 6de3033a-3146-4614-a659-f110ca2d033c))
  (fp_line (start -0.5 -1) (end -0.85 -0.5)
    (stroke (width 0.1) (type solid)) (layer "F.Fab") (tstamp cfbaad6c-9d9f-45e1-9cdb-dfe67490ce33))
  (fp_line (start -0.5 -1) (end 0.85 -1)
    (stroke (width 0.1) (type solid)) (layer "F.Fab") (tstamp 3c30875d-ede0-4eba-9f3f-62b516991e2f))
  (fp_line (start 0.85 -1) (end 0.85 1)
    (stroke (width 0.1) (type solid)) (layer "F.Fab") (tstamp 5d3f81ef-b0e2-4eaa-abb2-67dbbacf0064))
  (fp_line (start 0.85 1) (end -0.85 1)
    (stroke (width 0.1) (type solid)) (layer "F.Fab") (tstamp 3bef9219-9136-441e-8301-18cc398664f8))
  (pad "1" smd rect (at -0.65 -0.8 270) (size 0.2 0.6) (layers "F.Cu" "F.Paste" "F.Mask") (tstamp 8de28659-250a-4ec5-94f3-51b567c33f86))
  (pad "1" smd rect (at -0.425 -0.975) (size 0.15 0.25) (layers "F.Cu" "F.Paste" "F.Mask") (tstamp 59b1513d-4ba3-4dac-87f0-47c1041e85fa))
  (pad "2" smd rect (at -0.65 -0.4 270) (size 0.2 0.6) (layers "F.Cu" "F.Paste" "F.Mask") (tstamp 9e2422fb-e484-4b2e-bb53-ef8d344f100c))
  (pad "3" smd rect (at -0.65 0 270) (size 0.2 0.6) (layers "F.Cu" "F.Paste" "F.Mask") (tstamp ebc3d07c-8b7d-4e54-9aca-14613630d661))
  (pad "4" smd rect (at -0.65 0.4 270) (size 0.2 0.6) (layers "F.Cu" "F.Paste" "F.Mask") (tstamp 4b707946-061d-4826-974d-24811ccda1f7))
  (pad "5" smd rect (at -0.65 0.8 270) (size 0.2 0.6) (layers "F.Cu" "F.Paste" "F.Mask") (tstamp cb906b93-9e97-443c-b30a-ee01ec636dbf))
  (pad "6" smd rect (at 0 0.8 270) (size 0.6 0.2) (layers "F.Cu" "F.Paste" "F.Mask") (tstamp f5a1dfce-fdd4-48d5-b1af-d35f62da1934))
  (pad "7" smd rect (at 0.65 0.8 270) (size 0.2 0.6) (layers "F.Cu" "F.Paste" "F.Mask") (tstamp 5e4b5d56-349f-405e-a592-fe2c474b9fba))
  (pad "8" smd rect (at 0.65 0.4 270) (size 0.2 0.6) (layers "F.Cu" "F.Paste" "F.Mask") (tstamp a0dbddbe-c448-4ec9-ab68-997e5e89b45c))
  (pad "9" smd rect (at 0.65 0 270) (size 0.2 0.6) (layers "F.Cu" "F.Paste" "F.Mask") (tstamp 3a1a7fd8-e27f-44c0-9370-7d6501d5822c))
  (pad "10" smd rect (at 0.65 -0.4 270) (size 0.2 0.6) (layers "F.Cu" "F.Paste" "F.Mask") (tstamp dacd24fe-e794-4cc3-b9c1-73b8b9480d56))
  (pad "11" smd rect (at 0.65 -0.8 270) (size 0.2 0.6) (layers "F.Cu" "F.Paste" "F.Mask") (tstamp 975a9f69-9261-43ec-b2d9-f9828a8284d3))
  (pad "12" smd rect (at 0 -0.8 270) (size 0.6 0.2) (layers "F.Cu" "F.Paste" "F.Mask") (tstamp 478e258e-34b0-43a7-a8bd-d97011ed5a7f))
  (model "${KICAD6_3DMODEL_DIR}/Package_DFN_QFN.3dshapes/Texas_R-PUQFN-N12.wrl"
    (offset (xyz 0 0 0))
    (scale (xyz 1 1 1))
    (rotate (xyz 0 0 0))
  )
)
