(footprint "Texas_B3QFN-14-1EP_5x5.5mm_P0.65mm_ThermalVia" (version 20221018) (generator pcbnew)
  (layer "F.Cu")
  (descr "Texas instruments QFN Package, datasheet: https://www.ti.com/lit/ds/symlink/tpsm53602.pdf")
  (tags "Texas instruments QFN")
  (attr smd)
  (fp_text reference "REF**" (at 0 -3.65) (layer "F.SilkS")
      (effects (font (size 1 1) (thickness 0.15)))
    (tstamp 9bf76fe9-a850-409e-add0-95822ce42030)
  )
  (fp_text value "Texas_B3QFN-14-1EP_5x5.5mm_P0.65mm_ThermalVia" (at 0 3.8) (layer "F.Fab")
      (effects (font (size 1 1) (thickness 0.15)))
    (tstamp 10e07c35-8aab-41f8-8a8f-e802c519fe62)
  )
  (fp_text user "${REFERENCE}" (at 0 0) (layer "F.Fab")
      (effects (font (size 1 1) (thickness 0.15)))
    (tstamp 9c44a9f8-5e80-415e-a169-ab24330bf3c8)
  )
  (fp_line (start 2.5 -2.85) (end 0 -2.85)
    (stroke (width 0.12) (type solid)) (layer "F.SilkS") (tstamp 6f9af44b-c750-430b-a28e-d0e7d20c267c))
  (fp_line (start 2.5 2.85) (end -2.5 2.85)
    (stroke (width 0.12) (type solid)) (layer "F.SilkS") (tstamp e7c7eb18-ed4b-43de-b138-d639a08e70a1))
  (fp_line (start -2.95 -3) (end 2.95 -3)
    (stroke (width 0.05) (type solid)) (layer "F.CrtYd") (tstamp b1881f6f-119d-4eaf-97f9-8eaad1bc1b26))
  (fp_line (start -2.95 3) (end -2.95 -3)
    (stroke (width 0.05) (type solid)) (layer "F.CrtYd") (tstamp a6f8f51a-e51d-406f-985b-c77fd91d0966))
  (fp_line (start 2.95 -3) (end 2.95 3)
    (stroke (width 0.05) (type solid)) (layer "F.CrtYd") (tstamp 1d78518b-b4a0-4130-b114-f622813cd507))
  (fp_line (start 2.95 3) (end -2.95 3)
    (stroke (width 0.05) (type solid)) (layer "F.CrtYd") (tstamp 39a07c99-a012-4b8b-8cdf-9707ce31c741))
  (fp_line (start -2.5 2.75) (end -2.5 -2.05)
    (stroke (width 0.1) (type solid)) (layer "F.Fab") (tstamp 1164f806-aab3-4eb3-b171-1b8659c02ffd))
  (fp_line (start -1.8 -2.75) (end -2.5 -2.05)
    (stroke (width 0.1) (type solid)) (layer "F.Fab") (tstamp 2776db50-b8f3-4689-8e59-a6cc8ff8eb93))
  (fp_line (start -1.8 -2.75) (end 2.5 -2.75)
    (stroke (width 0.1) (type solid)) (layer "F.Fab") (tstamp ee9257ea-f516-4009-a7d7-372907b2e339))
  (fp_line (start 2.5 -2.75) (end 2.5 2.75)
    (stroke (width 0.1) (type solid)) (layer "F.Fab") (tstamp 6fb752a4-11df-4879-9ed8-6e1715948dc6))
  (fp_line (start 2.5 2.75) (end -2.5 2.75)
    (stroke (width 0.1) (type solid)) (layer "F.Fab") (tstamp a04afdd7-3066-44f5-a595-377f539508fb))
  (pad "" smd roundrect (at -0.625 -0.475) (size 0.95 0.65) (layers "F.Paste") (roundrect_rratio 0.077)
    (zone_connect 0) (tstamp aaf92b35-452e-4280-a102-bf63018f81b8))
  (pad "" smd roundrect (at -0.625 0.475) (size 0.95 0.65) (layers "F.Paste") (roundrect_rratio 0.077)
    (zone_connect 0) (tstamp 36d9c83e-0344-4f31-b4a6-6be064e3634d))
  (pad "" smd roundrect (at -0.425 -1.675) (size 0.6 1.15) (layers "F.Paste") (roundrect_rratio 0.083)
    (zone_connect 0) (tstamp 810ca80d-9241-481f-9d11-e606c45b0281))
  (pad "" smd roundrect (at -0.425 1.675) (size 0.6 1.15) (layers "F.Paste") (roundrect_rratio 0.083)
    (zone_connect 0) (tstamp 4828d5ec-1d74-45e2-b2f5-7e1e33d9d287))
  (pad "" smd roundrect (at 0.425 -1.675) (size 0.6 1.15) (layers "F.Paste") (roundrect_rratio 0.083)
    (zone_connect 0) (tstamp a3e961ed-e303-44c7-85b9-aced9076e401))
  (pad "" smd roundrect (at 0.425 1.675) (size 0.6 1.15) (layers "F.Paste") (roundrect_rratio 0.083)
    (zone_connect 0) (tstamp 8f316a0e-8fca-47c1-8a58-b613291eba7d))
  (pad "" smd roundrect (at 0.625 -0.475) (size 0.95 0.65) (layers "F.Paste") (roundrect_rratio 0.077)
    (zone_connect 0) (tstamp 50d6fad5-a6a6-4949-a1c3-3c591bb0ef0d))
  (pad "" smd roundrect (at 0.625 0.475) (size 0.95 0.65) (layers "F.Paste") (roundrect_rratio 0.077)
    (zone_connect 0) (tstamp 576c1353-c342-46f7-837d-77a0acef8943))
  (pad "1" smd roundrect (at -2 -2.145) (size 1.4 0.5) (layers "F.Cu" "F.Paste" "F.Mask") (roundrect_rratio 0.1) (tstamp 3763556f-6ba8-46ab-9277-f6f0a40b0568))
  (pad "2" smd roundrect (at -2.35 -1.17) (size 0.7 0.35) (layers "F.Cu" "F.Paste" "F.Mask") (roundrect_rratio 0.143) (tstamp deef86e8-5f41-4a8d-8470-a4ded873fbc4))
  (pad "3" smd roundrect (at -2.35 -0.52) (size 0.7 0.35) (layers "F.Cu" "F.Paste" "F.Mask") (roundrect_rratio 0.143) (tstamp 315636b5-be1f-43a2-a80f-ac4019ff2208))
  (pad "4" smd roundrect (at -2.35 0.13) (size 0.7 0.35) (layers "F.Cu" "F.Paste" "F.Mask") (roundrect_rratio 0.143) (tstamp 86b1e92b-2186-47b7-9cf3-a15256c5d78c))
  (pad "5" smd roundrect (at -2.35 0.78) (size 0.7 0.35) (layers "F.Cu" "F.Paste" "F.Mask") (roundrect_rratio 0.143) (tstamp f185cbb9-8e44-425a-aa37-cebcd3a6766b))
  (pad "6" smd roundrect (at -2.35 1.43) (size 0.7 0.35) (layers "F.Cu" "F.Paste" "F.Mask") (roundrect_rratio 0.143) (tstamp 13c175ea-e6b8-42c9-8eef-4a846a721767))
  (pad "7" smd roundrect (at -2 2.155) (size 1.4 0.5) (layers "F.Cu" "F.Paste" "F.Mask") (roundrect_rratio 0.1) (tstamp 15d617dd-061d-4149-ac83-6cba73e51311))
  (pad "8" smd roundrect (at 2 2.155) (size 1.4 0.5) (layers "F.Cu" "F.Paste" "F.Mask") (roundrect_rratio 0.1) (tstamp 272bea25-ef48-4c67-ac82-e1bbb3e2df87))
  (pad "9" smd roundrect (at 2.35 1.43) (size 0.7 0.35) (layers "F.Cu" "F.Paste" "F.Mask") (roundrect_rratio 0.143) (tstamp 544c68b7-6c05-4008-b9cc-41661513fb86))
  (pad "10" smd roundrect (at 2.35 0.78) (size 0.7 0.35) (layers "F.Cu" "F.Paste" "F.Mask") (roundrect_rratio 0.143) (tstamp 8b8c9828-89e9-448c-9c1c-8c9fe8941706))
  (pad "11" smd roundrect (at 2.35 0.13) (size 0.7 0.35) (layers "F.Cu" "F.Paste" "F.Mask") (roundrect_rratio 0.143) (tstamp 12fe11c6-5c8b-46c2-9464-76af311c5c50))
  (pad "12" smd roundrect (at 2.35 -0.52) (size 0.7 0.35) (layers "F.Cu" "F.Paste" "F.Mask") (roundrect_rratio 0.143) (tstamp 3cd1d2f3-b581-4b8d-b5e5-a3d65aa2946b))
  (pad "13" smd roundrect (at 2.35 -1.17) (size 0.7 0.35) (layers "F.Cu" "F.Paste" "F.Mask") (roundrect_rratio 0.143) (tstamp c1ae97bf-a819-4cea-a8e0-b9476d619700))
  (pad "14" smd roundrect (at 2 -2.145) (size 1.4 0.5) (layers "F.Cu" "F.Paste" "F.Mask") (roundrect_rratio 0.1) (tstamp ea243388-99f3-4f39-9250-ad5eb9b2dde5))
  (pad "15" thru_hole circle (at -0.95 -0.95) (size 0.5 0.5) (drill 0.2) (layers "*.Cu" "*.Mask")
    (zone_connect 1) (tstamp ea4dea35-0f20-460c-a622-43f5f64bb453))
  (pad "15" thru_hole circle (at -0.95 0) (size 0.5 0.5) (drill 0.2) (layers "*.Cu" "*.Mask")
    (zone_connect 1) (tstamp cbaa8d2e-dcc7-4871-8bfa-d6e2c1bbcb8c))
  (pad "15" thru_hole circle (at -0.95 0.95) (size 0.5 0.5) (drill 0.2) (layers "*.Cu" "*.Mask")
    (zone_connect 1) (tstamp 9b38fd97-b650-4da7-b466-4297cc02fd98))
  (pad "15" thru_hole circle (at 0 -1.9) (size 0.5 0.5) (drill 0.2) (layers "*.Cu" "*.Mask")
    (zone_connect 1) (tstamp 0cfbe681-7e89-49d1-a93c-75f71cdda9d5))
  (pad "15" thru_hole circle (at 0 -0.95) (size 0.5 0.5) (drill 0.2) (layers "*.Cu" "*.Mask")
    (zone_connect 1) (tstamp 30083629-78dd-424e-9088-91fb50937638))
  (pad "15" thru_hole circle (at 0 0) (size 0.5 0.5) (drill 0.2) (layers "*.Cu" "*.Mask")
    (zone_connect 1) (tstamp 3e8cef17-70fa-4494-9539-7c7387d8ed23))
  (pad "15" smd custom (at 0 0) (size 2.5 2.5) (layers "F.Cu" "F.Mask")
    (zone_connect 0) (thermal_bridge_angle 45)
    (options (clearance outline) (anchor rect))
    (primitives
      (gr_poly
        (pts
          (xy 0.75 -1.25)
          (xy -0.75 -1.25)
          (xy -0.75 -2.3)
          (xy 0.75 -2.3)
        )
        (width 0) (fill yes))
      (gr_poly
        (pts
          (xy 0.75 2.3)
          (xy -0.75 2.3)
          (xy -0.75 1.25)
          (xy 0.75 1.25)
        )
        (width 0) (fill yes))
    ) (tstamp 8d8b2a22-dc8c-4c33-af21-a078c1341431))
  (pad "15" thru_hole circle (at 0 0.95) (size 0.5 0.5) (drill 0.2) (layers "*.Cu" "*.Mask")
    (zone_connect 1) (tstamp 1c5f5324-f227-482a-bf30-fd8d720179dd))
  (pad "15" thru_hole circle (at 0 1.9) (size 0.5 0.5) (drill 0.2) (layers "*.Cu" "*.Mask")
    (zone_connect 1) (tstamp 0131818e-b509-4cf6-b7d3-e3e14e154759))
  (pad "15" thru_hole circle (at 0.95 -0.95) (size 0.5 0.5) (drill 0.2) (layers "*.Cu" "*.Mask")
    (zone_connect 1) (tstamp ebb96b2a-367b-4497-81dd-936d5e4bf398))
  (pad "15" thru_hole circle (at 0.95 0) (size 0.5 0.5) (drill 0.2) (layers "*.Cu" "*.Mask")
    (zone_connect 1) (tstamp bb874f1d-15c4-4e48-9073-2a2e471dec10))
  (pad "15" thru_hole circle (at 0.95 0.95) (size 0.5 0.5) (drill 0.2) (layers "*.Cu" "*.Mask")
    (zone_connect 1) (tstamp 5524ad14-ca1f-4b2f-8456-6d04754d69ec))
  (model "${KICAD6_3DMODEL_DIR}/Package_DFN_QFN.3dshapes/Texas_B3QFN-14-1EP_5x5.5mm_P0.65mm.wrl"
    (offset (xyz 0 0 0))
    (scale (xyz 1 1 1))
    (rotate (xyz 0 0 0))
  )
)
