(footprint "UQFN-16-1EP_4x4mm_P0.65mm_EP2.7x2.7mm" (version 20221018) (generator pcbnew)
  (layer "F.Cu")
  (descr "16-Lead Ultra Thin Plastic Quad Flat, No Lead Package (JQ) - 4x4x0.5 mm Body [UQFN]; (see Microchip Packaging Specification 00000049BS.pdf)")
  (tags "QFN 0.65")
  (attr smd)
  (fp_text reference "REF**" (at 0 -3.4) (layer "F.SilkS")
      (effects (font (size 1 1) (thickness 0.15)))
    (tstamp 98a6aca6-cb7c-40ed-908d-6f2452bed3bb)
  )
  (fp_text value "UQFN-16-1EP_4x4mm_P0.65mm_EP2.7x2.7mm" (at 0 3.4) (layer "F.Fab")
      (effects (font (size 1 1) (thickness 0.15)))
    (tstamp 891e3d6f-5b34-4ecf-9a46-089b161e6961)
  )
  (fp_text user "${REFERENCE}" (at 0 0) (layer "F.Fab")
      (effects (font (size 1 1) (thickness 0.15)))
    (tstamp dc55b907-b606-4078-9751-a85077aec76e)
  )
  (fp_line (start -2.175 -2.175) (end -1.375 -2.175)
    (stroke (width 0.15) (type solid)) (layer "F.SilkS") (tstamp 35d4047c-2634-4844-8be0-729425f956e8))
  (fp_line (start -2.175 2.175) (end -2.175 1.375)
    (stroke (width 0.15) (type solid)) (layer "F.SilkS") (tstamp 8f458079-8019-48c5-866e-7686056d4b36))
  (fp_line (start -2.175 2.175) (end -1.375 2.175)
    (stroke (width 0.15) (type solid)) (layer "F.SilkS") (tstamp bce75b0e-84de-4bb6-ab6a-2d50ba1affde))
  (fp_line (start 2.175 -2.175) (end 1.375 -2.175)
    (stroke (width 0.15) (type solid)) (layer "F.SilkS") (tstamp e6fc43e2-8802-4a1c-a129-df4a8abfa065))
  (fp_line (start 2.175 -2.175) (end 2.175 -1.375)
    (stroke (width 0.15) (type solid)) (layer "F.SilkS") (tstamp 4680e7fd-0475-4b82-83ea-f2253dbdd32d))
  (fp_line (start 2.175 2.175) (end 1.375 2.175)
    (stroke (width 0.15) (type solid)) (layer "F.SilkS") (tstamp 33d0b136-62b7-4030-8bfa-995239bd5f76))
  (fp_line (start 2.175 2.175) (end 2.175 1.375)
    (stroke (width 0.15) (type solid)) (layer "F.SilkS") (tstamp 31201e20-7851-4393-8173-193f281fded5))
  (fp_line (start -2.65 -2.65) (end -2.65 2.65)
    (stroke (width 0.05) (type solid)) (layer "F.CrtYd") (tstamp a36990b1-9315-4b07-96c6-38faed9ad3c3))
  (fp_line (start -2.65 -2.65) (end 2.65 -2.65)
    (stroke (width 0.05) (type solid)) (layer "F.CrtYd") (tstamp eb9eebbb-20d1-47a5-abac-6a4c5ac59844))
  (fp_line (start -2.65 2.65) (end 2.65 2.65)
    (stroke (width 0.05) (type solid)) (layer "F.CrtYd") (tstamp 3f58f3eb-f495-4fe1-a31a-9b6796b37b75))
  (fp_line (start 2.65 -2.65) (end 2.65 2.65)
    (stroke (width 0.05) (type solid)) (layer "F.CrtYd") (tstamp 53286338-320e-4407-8ffe-4786cfb4fd09))
  (fp_line (start -2 -1) (end -1 -2)
    (stroke (width 0.15) (type solid)) (layer "F.Fab") (tstamp 4daf2cf4-f9ed-4cfe-89fe-1b025b14336f))
  (fp_line (start -2 2) (end -2 -1)
    (stroke (width 0.15) (type solid)) (layer "F.Fab") (tstamp 8834384c-2351-4356-9e68-41e671afd360))
  (fp_line (start -1 -2) (end 2 -2)
    (stroke (width 0.15) (type solid)) (layer "F.Fab") (tstamp 191e96f0-3902-4d65-bff1-fa756401f6d7))
  (fp_line (start 2 -2) (end 2 2)
    (stroke (width 0.15) (type solid)) (layer "F.Fab") (tstamp 8fbe814a-f23f-48c9-b569-2e4f61ccff0c))
  (fp_line (start 2 2) (end -2 2)
    (stroke (width 0.15) (type solid)) (layer "F.Fab") (tstamp 9f689d64-b68a-46da-8d60-e76cdb83b069))
  (pad "" smd rect (at -0.675 -0.675) (size 1.09 1.09) (layers "F.Paste") (tstamp 92b3ba44-c6d8-4ec3-8108-404487329076))
  (pad "" smd rect (at -0.675 0.675) (size 1.09 1.09) (layers "F.Paste") (tstamp 1155caf2-f990-46bd-a0c3-acc21aa191e8))
  (pad "" smd rect (at 0.675 -0.675) (size 1.09 1.09) (layers "F.Paste") (tstamp d1470a65-dc99-4f11-97fe-939a6d13cf99))
  (pad "" smd rect (at 0.675 0.675) (size 1.09 1.09) (layers "F.Paste") (tstamp bcca4d96-e16a-4b49-be50-bca01223d9e8))
  (pad "1" smd oval (at -2 -0.975) (size 0.8 0.35) (layers "F.Cu" "F.Paste" "F.Mask") (tstamp 6e258f5d-6ea9-48b3-9e7f-ae6df3045d11))
  (pad "2" smd oval (at -2 -0.325) (size 0.8 0.35) (layers "F.Cu" "F.Paste" "F.Mask") (tstamp 21598c73-217c-4fea-b180-429ca7eaf890))
  (pad "3" smd oval (at -2 0.325) (size 0.8 0.35) (layers "F.Cu" "F.Paste" "F.Mask") (tstamp 0d254841-64af-4670-a812-b5b22d6b2e6e))
  (pad "4" smd oval (at -2 0.975) (size 0.8 0.35) (layers "F.Cu" "F.Paste" "F.Mask") (tstamp c302c280-a323-4d13-b06f-c28103c6232b))
  (pad "5" smd oval (at -0.975 2 90) (size 0.8 0.35) (layers "F.Cu" "F.Paste" "F.Mask") (tstamp 09967b75-c9fe-4269-a735-a47c661fdccd))
  (pad "6" smd oval (at -0.325 2 90) (size 0.8 0.35) (layers "F.Cu" "F.Paste" "F.Mask") (tstamp 64d06038-36c8-4b84-b4e2-0c72d824bece))
  (pad "7" smd oval (at 0.325 2 90) (size 0.8 0.35) (layers "F.Cu" "F.Paste" "F.Mask") (tstamp 8c627146-c12f-47c7-b850-bb0adfbbc4c0))
  (pad "8" smd oval (at 0.975 2 90) (size 0.8 0.35) (layers "F.Cu" "F.Paste" "F.Mask") (tstamp 86ca9ac3-837a-4d5d-add5-f7a647dbd62f))
  (pad "9" smd oval (at 2 0.975) (size 0.8 0.35) (layers "F.Cu" "F.Paste" "F.Mask") (tstamp 63a1d6af-d5ec-489b-b2c0-ead8cfae1b56))
  (pad "10" smd oval (at 2 0.325) (size 0.8 0.35) (layers "F.Cu" "F.Paste" "F.Mask") (tstamp b8099f04-c8a5-43fe-9a46-5f0da302526d))
  (pad "11" smd oval (at 2 -0.325) (size 0.8 0.35) (layers "F.Cu" "F.Paste" "F.Mask") (tstamp d9f40c5e-4d2b-4dd2-b9a0-f6802b213fee))
  (pad "12" smd oval (at 2 -0.975) (size 0.8 0.35) (layers "F.Cu" "F.Paste" "F.Mask") (tstamp 92e931f5-f01c-4a61-ae10-fd6e3d1f597e))
  (pad "13" smd oval (at 0.975 -2 90) (size 0.8 0.35) (layers "F.Cu" "F.Paste" "F.Mask") (tstamp 49ace78a-2878-4209-bd88-7afdf4c0f57e))
  (pad "14" smd oval (at 0.325 -2 90) (size 0.8 0.35) (layers "F.Cu" "F.Paste" "F.Mask") (tstamp 3ea17044-0935-4b7c-89e0-fb69eab35926))
  (pad "15" smd oval (at -0.325 -2 90) (size 0.8 0.35) (layers "F.Cu" "F.Paste" "F.Mask") (tstamp 730ed97c-b9af-4e09-b68e-7395f5ae1526))
  (pad "16" smd oval (at -0.975 -2 90) (size 0.8 0.35) (layers "F.Cu" "F.Paste" "F.Mask") (tstamp 8ab6158f-43cc-4abb-895f-eebe6d2199fa))
  (pad "17" smd rect (at 0 0) (size 2.7 2.7) (layers "F.Cu" "F.Mask") (tstamp 9367501b-ee3c-4944-8c68-7dc79f1047f1))
  (model "${KICAD6_3DMODEL_DIR}/Package_DFN_QFN.3dshapes/UQFN-16-1EP_4x4mm_P0.65mm_EP2.7x2.7mm.wrl"
    (offset (xyz 0 0 0))
    (scale (xyz 1 1 1))
    (rotate (xyz 0 0 0))
  )
)
