(footprint "LFCSP-20-1EP_4x4mm_P0.5mm_EP2.5x2.5mm" (version 20221018) (generator pcbnew)
  (layer "F.Cu")
  (descr "LFCSP, 20 Pin (https://www.analog.com/media/en/technical-documentation/data-sheets/AD7682_7689.pdf), generated with kicad-footprint-generator ipc_dfn_qfn_generator.py")
  (tags "LFCSP DFN_QFN")
  (attr smd)
  (fp_text reference "REF**" (at 0 -3.3) (layer "F.SilkS")
      (effects (font (size 1 1) (thickness 0.15)))
    (tstamp 8829980e-9775-4294-887b-618a0e2d3861)
  )
  (fp_text value "LFCSP-20-1EP_4x4mm_P0.5mm_EP2.5x2.5mm" (at 0 3.3) (layer "F.Fab")
      (effects (font (size 1 1) (thickness 0.15)))
    (tstamp 921cea44-4216-411f-9593-28f76ad24212)
  )
  (fp_text user "${REFERENCE}" (at 0 0) (layer "F.Fab")
      (effects (font (size 1 1) (thickness 0.15)))
    (tstamp c227dd07-11b0-46f5-9999-0e1bd708b891)
  )
  (fp_line (start -2.11 2.11) (end -2.11 1.385)
    (stroke (width 0.12) (type solid)) (layer "F.SilkS") (tstamp a27e81ab-b4fa-485b-97e1-6f3746672efe))
  (fp_line (start -1.385 -2.11) (end -2.11 -2.11)
    (stroke (width 0.12) (type solid)) (layer "F.SilkS") (tstamp f5c3df24-18c8-4ee5-97e7-2286a262ace7))
  (fp_line (start -1.385 2.11) (end -2.11 2.11)
    (stroke (width 0.12) (type solid)) (layer "F.SilkS") (tstamp 9fb22d51-a396-4a07-9ea8-921c44715e76))
  (fp_line (start 1.385 -2.11) (end 2.11 -2.11)
    (stroke (width 0.12) (type solid)) (layer "F.SilkS") (tstamp af3d3e76-299d-446f-828e-2aa4a81a2cc2))
  (fp_line (start 1.385 2.11) (end 2.11 2.11)
    (stroke (width 0.12) (type solid)) (layer "F.SilkS") (tstamp e7377401-8df8-4aef-a4bb-3954668a13f1))
  (fp_line (start 2.11 -2.11) (end 2.11 -1.385)
    (stroke (width 0.12) (type solid)) (layer "F.SilkS") (tstamp 7b193788-eac4-4e5a-bd09-906e9c63c70e))
  (fp_line (start 2.11 2.11) (end 2.11 1.385)
    (stroke (width 0.12) (type solid)) (layer "F.SilkS") (tstamp be234ed8-6ad7-4642-9d9a-ca37e6113063))
  (fp_line (start -2.6 -2.6) (end -2.6 2.6)
    (stroke (width 0.05) (type solid)) (layer "F.CrtYd") (tstamp 26dc4d84-5f76-4523-a42e-11c7c236d529))
  (fp_line (start -2.6 2.6) (end 2.6 2.6)
    (stroke (width 0.05) (type solid)) (layer "F.CrtYd") (tstamp 53f7b12a-b537-4181-8e23-6de3ef2f6c17))
  (fp_line (start 2.6 -2.6) (end -2.6 -2.6)
    (stroke (width 0.05) (type solid)) (layer "F.CrtYd") (tstamp 44f16c19-7b25-4f74-9da9-db1bee74abcd))
  (fp_line (start 2.6 2.6) (end 2.6 -2.6)
    (stroke (width 0.05) (type solid)) (layer "F.CrtYd") (tstamp 51b1f30c-8063-49ee-a04d-cec07d8866d2))
  (fp_line (start -2 -1) (end -1 -2)
    (stroke (width 0.1) (type solid)) (layer "F.Fab") (tstamp 4d19639d-7707-4237-963c-87884645a4f2))
  (fp_line (start -2 2) (end -2 -1)
    (stroke (width 0.1) (type solid)) (layer "F.Fab") (tstamp 26dfa8f0-82ff-4439-869f-cbe2a00721c7))
  (fp_line (start -1 -2) (end 2 -2)
    (stroke (width 0.1) (type solid)) (layer "F.Fab") (tstamp 2d6a5c08-8ff6-426c-a4e0-0ae0ba2d4937))
  (fp_line (start 2 -2) (end 2 2)
    (stroke (width 0.1) (type solid)) (layer "F.Fab") (tstamp 6ce9d8e5-babf-420a-b088-1489229c0c8a))
  (fp_line (start 2 2) (end -2 2)
    (stroke (width 0.1) (type solid)) (layer "F.Fab") (tstamp 481e01c8-6ad8-4be5-a56c-c0de8df3ecf3))
  (pad "" smd roundrect (at -0.625 -0.625) (size 1.01 1.01) (layers "F.Paste") (roundrect_rratio 0.247525) (tstamp 61864eb0-74fc-4a1d-bebd-fc7302730bc0))
  (pad "" smd roundrect (at -0.625 0.625) (size 1.01 1.01) (layers "F.Paste") (roundrect_rratio 0.247525) (tstamp f5db4ffe-0966-49dd-b33f-a69c0acb2fb1))
  (pad "" smd roundrect (at 0.625 -0.625) (size 1.01 1.01) (layers "F.Paste") (roundrect_rratio 0.247525) (tstamp 3a96cb84-5e81-4a5d-8897-c5c9f5cc95cc))
  (pad "" smd roundrect (at 0.625 0.625) (size 1.01 1.01) (layers "F.Paste") (roundrect_rratio 0.247525) (tstamp faaded4c-8435-45c3-97f1-0b8f96846ae9))
  (pad "1" smd roundrect (at -1.9375 -1) (size 0.825 0.25) (layers "F.Cu" "F.Paste" "F.Mask") (roundrect_rratio 0.25) (tstamp f16946f3-8121-4c5f-ba2f-fe993e07cdfe))
  (pad "2" smd roundrect (at -1.9375 -0.5) (size 0.825 0.25) (layers "F.Cu" "F.Paste" "F.Mask") (roundrect_rratio 0.25) (tstamp 20a84782-5115-42d3-9775-a2795b27fe70))
  (pad "3" smd roundrect (at -1.9375 0) (size 0.825 0.25) (layers "F.Cu" "F.Paste" "F.Mask") (roundrect_rratio 0.25) (tstamp 63d92346-c753-446c-ab2a-b5e111e824a3))
  (pad "4" smd roundrect (at -1.9375 0.5) (size 0.825 0.25) (layers "F.Cu" "F.Paste" "F.Mask") (roundrect_rratio 0.25) (tstamp 17853ac1-fd0d-4306-9931-ef0d9e45214c))
  (pad "5" smd roundrect (at -1.9375 1) (size 0.825 0.25) (layers "F.Cu" "F.Paste" "F.Mask") (roundrect_rratio 0.25) (tstamp d594aa6c-af21-41e3-b5b3-4f283396b389))
  (pad "6" smd roundrect (at -1 1.9375) (size 0.25 0.825) (layers "F.Cu" "F.Paste" "F.Mask") (roundrect_rratio 0.25) (tstamp 9e3a198e-8d5b-44c6-a70b-e76caf69cbdb))
  (pad "7" smd roundrect (at -0.5 1.9375) (size 0.25 0.825) (layers "F.Cu" "F.Paste" "F.Mask") (roundrect_rratio 0.25) (tstamp 269750fa-bffa-447e-8ba5-7d2a93433be6))
  (pad "8" smd roundrect (at 0 1.9375) (size 0.25 0.825) (layers "F.Cu" "F.Paste" "F.Mask") (roundrect_rratio 0.25) (tstamp 29ad6fb6-00c8-444a-ab8b-e12fadd9c08d))
  (pad "9" smd roundrect (at 0.5 1.9375) (size 0.25 0.825) (layers "F.Cu" "F.Paste" "F.Mask") (roundrect_rratio 0.25) (tstamp 15de4275-45ad-4ee6-9e0f-d5af7e17a0aa))
  (pad "10" smd roundrect (at 1 1.9375) (size 0.25 0.825) (layers "F.Cu" "F.Paste" "F.Mask") (roundrect_rratio 0.25) (tstamp a114bad3-8de4-437f-89a3-c4e859add720))
  (pad "11" smd roundrect (at 1.9375 1) (size 0.825 0.25) (layers "F.Cu" "F.Paste" "F.Mask") (roundrect_rratio 0.25) (tstamp 6047c892-7bc3-4420-b750-5c9201ae4c62))
  (pad "12" smd roundrect (at 1.9375 0.5) (size 0.825 0.25) (layers "F.Cu" "F.Paste" "F.Mask") (roundrect_rratio 0.25) (tstamp fc351218-5501-4455-9a88-36037effa6b9))
  (pad "13" smd roundrect (at 1.9375 0) (size 0.825 0.25) (layers "F.Cu" "F.Paste" "F.Mask") (roundrect_rratio 0.25) (tstamp 7f5e10d5-a171-4d38-a6e2-94f47c0d4493))
  (pad "14" smd roundrect (at 1.9375 -0.5) (size 0.825 0.25) (layers "F.Cu" "F.Paste" "F.Mask") (roundrect_rratio 0.25) (tstamp ffa1cc30-8b47-481a-9d4e-18fb1944aa03))
  (pad "15" smd roundrect (at 1.9375 -1) (size 0.825 0.25) (layers "F.Cu" "F.Paste" "F.Mask") (roundrect_rratio 0.25) (tstamp aa9ce010-95e4-426b-8e96-a073e1bf59b1))
  (pad "16" smd roundrect (at 1 -1.9375) (size 0.25 0.825) (layers "F.Cu" "F.Paste" "F.Mask") (roundrect_rratio 0.25) (tstamp 6c0e7e09-f20a-4090-be60-3ee66e0bff35))
  (pad "17" smd roundrect (at 0.5 -1.9375) (size 0.25 0.825) (layers "F.Cu" "F.Paste" "F.Mask") (roundrect_rratio 0.25) (tstamp edf1afde-200e-455d-805f-ac5e9cdc30dd))
  (pad "18" smd roundrect (at 0 -1.9375) (size 0.25 0.825) (layers "F.Cu" "F.Paste" "F.Mask") (roundrect_rratio 0.25) (tstamp 10c24d43-0037-47ab-9317-182f89bd1006))
  (pad "19" smd roundrect (at -0.5 -1.9375) (size 0.25 0.825) (layers "F.Cu" "F.Paste" "F.Mask") (roundrect_rratio 0.25) (tstamp e85532f1-ee65-4779-b767-9d2fc562361a))
  (pad "20" smd roundrect (at -1 -1.9375) (size 0.25 0.825) (layers "F.Cu" "F.Paste" "F.Mask") (roundrect_rratio 0.25) (tstamp a39830cd-f860-4ca2-914d-e7b0c22a3021))
  (pad "21" smd roundrect (at 0 0) (size 2.5 2.5) (layers "F.Cu" "F.Mask") (roundrect_rratio 0.1) (tstamp 8b131f2e-10fe-4610-8c7b-fdcc51928b60))
  (model "${KICAD6_3DMODEL_DIR}/Package_CSP.3dshapes/LFCSP-20-1EP_4x4mm_P0.5mm_EP2.5x2.5mm.wrl"
    (offset (xyz 0 0 0))
    (scale (xyz 1 1 1))
    (rotate (xyz 0 0 0))
  )
)
